G04 Layer_Physical_Order=1*
G04 Layer_Color=255*
%FSLAX25Y25*%
%MOIN*%
G70*
G01*
G75*
%ADD10R,0.02756X0.05118*%
%ADD11C,0.03000*%
%ADD12C,0.01600*%
%ADD13C,0.01000*%
%ADD14C,0.02500*%
%ADD15C,0.06693*%
%ADD16R,0.07480X0.05906*%
%ADD17O,0.07480X0.05906*%
%ADD18C,0.06693*%
G36*
X1125965Y4034D02*
X4034D01*
Y6500D01*
X42658D01*
Y28497D01*
X4034D01*
Y763966D01*
X1125965D01*
Y4034D01*
D02*
G37*
%LPC*%
G36*
X369800Y493207D02*
Y489123D01*
X373884D01*
X373819Y489614D01*
X373321Y490817D01*
X372528Y491851D01*
X371495Y492643D01*
X370291Y493142D01*
X369800Y493207D01*
D02*
G37*
G36*
X368200D02*
X367709Y493142D01*
X366505Y492643D01*
X365472Y491851D01*
X364679Y490817D01*
X364181Y489614D01*
X364116Y489123D01*
X368200D01*
Y493207D01*
D02*
G37*
G36*
X578434D02*
Y489123D01*
X582518D01*
X582453Y489614D01*
X581955Y490817D01*
X581162Y491851D01*
X580128Y492643D01*
X578925Y493142D01*
X578434Y493207D01*
D02*
G37*
G36*
X576834D02*
X576343Y493142D01*
X575139Y492643D01*
X574106Y491851D01*
X573313Y490817D01*
X572815Y489614D01*
X572750Y489123D01*
X576834D01*
Y493207D01*
D02*
G37*
G36*
X999785Y487523D02*
X995702D01*
Y483439D01*
X996193Y483504D01*
X997396Y484002D01*
X998429Y484795D01*
X999222Y485828D01*
X999721Y487032D01*
X999785Y487523D01*
D02*
G37*
G36*
X791152D02*
X787068D01*
Y483439D01*
X787559Y483504D01*
X788762Y484002D01*
X789796Y484795D01*
X790588Y485828D01*
X791087Y487032D01*
X791152Y487523D01*
D02*
G37*
G36*
X785468D02*
X781384D01*
X781449Y487032D01*
X781947Y485828D01*
X782740Y484795D01*
X783773Y484002D01*
X784976Y483504D01*
X785468Y483439D01*
Y487523D01*
D02*
G37*
G36*
X582518D02*
X578434D01*
Y483439D01*
X578925Y483504D01*
X580128Y484002D01*
X581162Y484795D01*
X581955Y485828D01*
X582453Y487032D01*
X582518Y487523D01*
D02*
G37*
G36*
X994102D02*
X990018D01*
X990082Y487032D01*
X990581Y485828D01*
X991374Y484795D01*
X992407Y484002D01*
X993610Y483504D01*
X994102Y483439D01*
Y487523D01*
D02*
G37*
G36*
X785468Y493207D02*
X784976Y493142D01*
X783773Y492643D01*
X782740Y491851D01*
X781947Y490817D01*
X781449Y489614D01*
X781384Y489123D01*
X785468D01*
Y493207D01*
D02*
G37*
G36*
X10200Y185384D02*
X9709Y185319D01*
X8505Y184821D01*
X7472Y184028D01*
X6679Y182995D01*
X6181Y181791D01*
X6116Y181300D01*
X10200D01*
Y185384D01*
D02*
G37*
G36*
X11800D02*
Y181300D01*
X15884D01*
X15819Y181791D01*
X15321Y182995D01*
X14528Y184028D01*
X13495Y184821D01*
X12291Y185319D01*
X11800Y185384D01*
D02*
G37*
G36*
X71700Y383200D02*
X67616D01*
X67681Y382709D01*
X68179Y381505D01*
X68972Y380472D01*
X70005Y379679D01*
X71209Y379181D01*
X71700Y379116D01*
Y383200D01*
D02*
G37*
G36*
X10200Y179700D02*
X6116D01*
X6181Y179209D01*
X6679Y178005D01*
X7472Y176972D01*
X8505Y176179D01*
X9709Y175681D01*
X10200Y175616D01*
Y179700D01*
D02*
G37*
G36*
X15884D02*
X11800D01*
Y175616D01*
X12291Y175681D01*
X13495Y176179D01*
X14528Y176972D01*
X15321Y178005D01*
X15819Y179209D01*
X15884Y179700D01*
D02*
G37*
G36*
X994102Y493207D02*
X993610Y493142D01*
X992407Y492643D01*
X991374Y491851D01*
X990581Y490817D01*
X990082Y489614D01*
X990018Y489123D01*
X994102D01*
Y493207D01*
D02*
G37*
G36*
X787068D02*
Y489123D01*
X791152D01*
X791087Y489614D01*
X790588Y490817D01*
X789796Y491851D01*
X788762Y492643D01*
X787559Y493142D01*
X787068Y493207D01*
D02*
G37*
G36*
X995702D02*
Y489123D01*
X999785D01*
X999721Y489614D01*
X999222Y490817D01*
X998429Y491851D01*
X997396Y492643D01*
X996193Y493142D01*
X995702Y493207D01*
D02*
G37*
G36*
X77384Y383200D02*
X73300D01*
Y379116D01*
X73791Y379181D01*
X74995Y379679D01*
X76028Y380472D01*
X76821Y381505D01*
X77319Y382709D01*
X77384Y383200D01*
D02*
G37*
G36*
X71700Y388884D02*
X71209Y388819D01*
X70005Y388321D01*
X68972Y387528D01*
X68179Y386495D01*
X67681Y385291D01*
X67616Y384800D01*
X71700D01*
Y388884D01*
D02*
G37*
G36*
X576834Y487523D02*
X572750D01*
X572815Y487032D01*
X573313Y485828D01*
X574106Y484795D01*
X575139Y484002D01*
X576343Y483504D01*
X576834Y483439D01*
Y487523D01*
D02*
G37*
G36*
X999785Y278861D02*
X995702D01*
Y274778D01*
X996193Y274842D01*
X997396Y275341D01*
X998429Y276134D01*
X999222Y277167D01*
X999721Y278370D01*
X999785Y278861D01*
D02*
G37*
G36*
X368200Y284545D02*
X367709Y284481D01*
X366505Y283982D01*
X365472Y283189D01*
X364679Y282156D01*
X364181Y280953D01*
X364116Y280461D01*
X368200D01*
Y284545D01*
D02*
G37*
G36*
X994102Y278861D02*
X990018D01*
X990082Y278370D01*
X990581Y277167D01*
X991374Y276134D01*
X992407Y275341D01*
X993610Y274842D01*
X994102Y274778D01*
Y278861D01*
D02*
G37*
G36*
X785468D02*
X781384D01*
X781449Y278370D01*
X781947Y277167D01*
X782740Y276134D01*
X783773Y275341D01*
X784976Y274842D01*
X785468Y274778D01*
Y278861D01*
D02*
G37*
G36*
X791152D02*
X787068D01*
Y274778D01*
X787559Y274842D01*
X788762Y275341D01*
X789796Y276134D01*
X790588Y277167D01*
X791087Y278370D01*
X791152Y278861D01*
D02*
G37*
G36*
X200300Y452384D02*
Y448300D01*
X204384D01*
X204319Y448791D01*
X203821Y449995D01*
X203028Y451028D01*
X201995Y451821D01*
X200791Y452319D01*
X200300Y452384D01*
D02*
G37*
G36*
X198700D02*
X198209Y452319D01*
X197005Y451821D01*
X195972Y451028D01*
X195179Y449995D01*
X194681Y448791D01*
X194616Y448300D01*
X198700D01*
Y452384D01*
D02*
G37*
G36*
X578434Y284545D02*
Y280461D01*
X582518D01*
X582453Y280953D01*
X581955Y282156D01*
X581162Y283189D01*
X580128Y283982D01*
X578925Y284481D01*
X578434Y284545D01*
D02*
G37*
G36*
X369800D02*
Y280461D01*
X373884D01*
X373819Y280953D01*
X373321Y282156D01*
X372528Y283189D01*
X371495Y283982D01*
X370291Y284481D01*
X369800Y284545D01*
D02*
G37*
G36*
X576834D02*
X576343Y284481D01*
X575139Y283982D01*
X574106Y283189D01*
X573313Y282156D01*
X572815Y280953D01*
X572750Y280461D01*
X576834D01*
Y284545D01*
D02*
G37*
G36*
X198700Y446700D02*
X194616D01*
X194681Y446209D01*
X195179Y445005D01*
X195972Y443972D01*
X197005Y443179D01*
X198209Y442681D01*
X198700Y442616D01*
Y446700D01*
D02*
G37*
G36*
X204384D02*
X200300D01*
Y442616D01*
X200791Y442681D01*
X201995Y443179D01*
X203028Y443972D01*
X203821Y445005D01*
X204319Y446209D01*
X204384Y446700D01*
D02*
G37*
G36*
X73300Y388884D02*
Y384800D01*
X77384D01*
X77319Y385291D01*
X76821Y386495D01*
X76028Y387528D01*
X74995Y388321D01*
X73791Y388819D01*
X73300Y388884D01*
D02*
G37*
G36*
X373884Y487523D02*
X369800D01*
Y483439D01*
X370291Y483504D01*
X371495Y484002D01*
X372528Y484795D01*
X373321Y485828D01*
X373819Y487032D01*
X373884Y487523D01*
D02*
G37*
G36*
X368200D02*
X364116D01*
X364181Y487032D01*
X364679Y485828D01*
X365472Y484795D01*
X366505Y484002D01*
X367709Y483504D01*
X368200Y483439D01*
Y487523D01*
D02*
G37*
G36*
X576834Y278861D02*
X572750D01*
X572815Y278370D01*
X573313Y277167D01*
X574106Y276134D01*
X575139Y275341D01*
X576343Y274842D01*
X576834Y274778D01*
Y278861D01*
D02*
G37*
G36*
X582518D02*
X578434D01*
Y274778D01*
X578925Y274842D01*
X580128Y275341D01*
X581162Y276134D01*
X581955Y277167D01*
X582453Y278370D01*
X582518Y278861D01*
D02*
G37*
G36*
X373884D02*
X369800D01*
Y274778D01*
X370291Y274842D01*
X371495Y275341D01*
X372528Y276134D01*
X373321Y277167D01*
X373819Y278370D01*
X373884Y278861D01*
D02*
G37*
G36*
X785468Y284545D02*
X784976Y284481D01*
X783773Y283982D01*
X782740Y283189D01*
X781947Y282156D01*
X781449Y280953D01*
X781384Y280461D01*
X785468D01*
Y284545D01*
D02*
G37*
G36*
X368200Y278861D02*
X364116D01*
X364181Y278370D01*
X364679Y277167D01*
X365472Y276134D01*
X366505Y275341D01*
X367709Y274842D01*
X368200Y274778D01*
Y278861D01*
D02*
G37*
G36*
X576700Y696200D02*
X572616D01*
X572681Y695709D01*
X573179Y694505D01*
X573972Y693472D01*
X575005Y692679D01*
X576209Y692181D01*
X576700Y692116D01*
Y696200D01*
D02*
G37*
G36*
X373750D02*
X369666D01*
Y692116D01*
X370157Y692181D01*
X371361Y692679D01*
X372394Y693472D01*
X373187Y694505D01*
X373685Y695709D01*
X373750Y696200D01*
D02*
G37*
G36*
X582384D02*
X578300D01*
Y692116D01*
X578791Y692181D01*
X579995Y692679D01*
X581028Y693472D01*
X581821Y694505D01*
X582319Y695709D01*
X582384Y696200D01*
D02*
G37*
G36*
X791018D02*
X786934D01*
Y692116D01*
X787425Y692181D01*
X788628Y692679D01*
X789662Y693472D01*
X790455Y694505D01*
X790953Y695709D01*
X791018Y696200D01*
D02*
G37*
G36*
X785334D02*
X781250D01*
X781315Y695709D01*
X781813Y694505D01*
X782606Y693472D01*
X783639Y692679D01*
X784843Y692181D01*
X785334Y692116D01*
Y696200D01*
D02*
G37*
G36*
X994102Y284545D02*
X993610Y284481D01*
X992407Y283982D01*
X991374Y283189D01*
X990581Y282156D01*
X990082Y280953D01*
X990018Y280461D01*
X994102D01*
Y284545D01*
D02*
G37*
G36*
X198700Y314700D02*
X194616D01*
X194681Y314209D01*
X195179Y313005D01*
X195972Y311972D01*
X197005Y311179D01*
X198209Y310681D01*
X198700Y310616D01*
Y314700D01*
D02*
G37*
G36*
X995702Y284545D02*
Y280461D01*
X999785D01*
X999721Y280953D01*
X999222Y282156D01*
X998429Y283189D01*
X997396Y283982D01*
X996193Y284481D01*
X995702Y284545D01*
D02*
G37*
G36*
X368066Y696200D02*
X363982D01*
X364047Y695709D01*
X364545Y694505D01*
X365338Y693472D01*
X366372Y692679D01*
X367575Y692181D01*
X368066Y692116D01*
Y696200D01*
D02*
G37*
G36*
X74120Y109295D02*
X19000D01*
Y87796D01*
X18900D01*
Y63500D01*
Y52400D01*
Y40400D01*
X74052D01*
Y57698D01*
X73877D01*
Y63500D01*
X73936D01*
Y80500D01*
X74120D01*
Y109295D01*
D02*
G37*
G36*
X785334Y701884D02*
X784843Y701819D01*
X783639Y701321D01*
X782606Y700528D01*
X781813Y699495D01*
X781315Y698291D01*
X781250Y697800D01*
X785334D01*
Y701884D01*
D02*
G37*
G36*
X578300D02*
Y697800D01*
X582384D01*
X582319Y698291D01*
X581821Y699495D01*
X581028Y700528D01*
X579995Y701321D01*
X578791Y701819D01*
X578300Y701884D01*
D02*
G37*
G36*
X786934D02*
Y697800D01*
X791018D01*
X790953Y698291D01*
X790455Y699495D01*
X789662Y700528D01*
X788628Y701321D01*
X787425Y701819D01*
X786934Y701884D01*
D02*
G37*
G36*
X995568D02*
Y697800D01*
X999652D01*
X999587Y698291D01*
X999088Y699495D01*
X998296Y700528D01*
X997262Y701321D01*
X996059Y701819D01*
X995568Y701884D01*
D02*
G37*
G36*
X993968D02*
X993476Y701819D01*
X992273Y701321D01*
X991240Y700528D01*
X990447Y699495D01*
X989949Y698291D01*
X989884Y697800D01*
X993968D01*
Y701884D01*
D02*
G37*
G36*
X999652Y696200D02*
X995568D01*
Y692116D01*
X996059Y692181D01*
X997262Y692679D01*
X998296Y693472D01*
X999088Y694505D01*
X999587Y695709D01*
X999652Y696200D01*
D02*
G37*
G36*
X993968D02*
X989884D01*
X989949Y695709D01*
X990447Y694505D01*
X991240Y693472D01*
X992273Y692679D01*
X993476Y692181D01*
X993968Y692116D01*
Y696200D01*
D02*
G37*
G36*
X368066Y701884D02*
X367575Y701819D01*
X366372Y701321D01*
X365338Y700528D01*
X364545Y699495D01*
X364047Y698291D01*
X363982Y697800D01*
X368066D01*
Y701884D01*
D02*
G37*
G36*
X576700D02*
X576209Y701819D01*
X575005Y701321D01*
X573972Y700528D01*
X573179Y699495D01*
X572681Y698291D01*
X572616Y697800D01*
X576700D01*
Y701884D01*
D02*
G37*
G36*
X369666D02*
Y697800D01*
X373750D01*
X373685Y698291D01*
X373187Y699495D01*
X372394Y700528D01*
X371361Y701321D01*
X370157Y701819D01*
X369666Y701884D01*
D02*
G37*
G36*
X1098346Y56216D02*
X1094262D01*
X1094326Y55725D01*
X1094825Y54521D01*
X1095618Y53488D01*
X1096651Y52695D01*
X1097854Y52197D01*
X1098346Y52132D01*
Y56216D01*
D02*
G37*
G36*
X999652Y70200D02*
X995568D01*
Y66116D01*
X996059Y66181D01*
X997262Y66679D01*
X998296Y67472D01*
X999088Y68505D01*
X999587Y69709D01*
X999652Y70200D01*
D02*
G37*
G36*
X787068Y284545D02*
Y280461D01*
X791152D01*
X791087Y280953D01*
X790588Y282156D01*
X789796Y283189D01*
X788762Y283982D01*
X787559Y284481D01*
X787068Y284545D01*
D02*
G37*
G36*
X993968Y70200D02*
X989884D01*
X989949Y69709D01*
X990447Y68505D01*
X991240Y67472D01*
X992273Y66679D01*
X993476Y66181D01*
X993968Y66116D01*
Y70200D01*
D02*
G37*
G36*
X1094050Y69752D02*
X1091473D01*
Y65993D01*
X1094050D01*
Y69752D01*
D02*
G37*
G36*
X1106890D02*
X1104312D01*
Y65993D01*
X1106890D01*
Y69752D01*
D02*
G37*
G36*
X993968Y75884D02*
X993476Y75819D01*
X992273Y75321D01*
X991240Y74528D01*
X990447Y73495D01*
X989949Y72291D01*
X989884Y71800D01*
X993968D01*
Y75884D01*
D02*
G37*
G36*
X995568D02*
Y71800D01*
X999652D01*
X999587Y72291D01*
X999088Y73495D01*
X998296Y74528D01*
X997262Y75321D01*
X996059Y75819D01*
X995568Y75884D01*
D02*
G37*
G36*
X1108000Y733837D02*
X184874D01*
X183751Y733689D01*
X182705Y733256D01*
X181807Y732567D01*
X77578Y628337D01*
X74767D01*
X74520Y628837D01*
X75033Y629505D01*
X75532Y630709D01*
X75596Y631200D01*
X65829D01*
X65894Y630709D01*
X66392Y629505D01*
X66905Y628837D01*
X66658Y628337D01*
X63126D01*
X62879Y628305D01*
X62525Y628658D01*
X62570Y629000D01*
X62400Y630293D01*
X61901Y631498D01*
X61107Y632532D01*
X60675Y632864D01*
X60716Y633362D01*
X61177Y633609D01*
X62160Y634415D01*
X62966Y635398D01*
X63565Y636519D01*
X63934Y637735D01*
X64059Y639000D01*
X63934Y640265D01*
X63565Y641481D01*
X62966Y642602D01*
X62160Y643585D01*
X61958Y643750D01*
Y644250D01*
X62160Y644415D01*
X62966Y645398D01*
X63565Y646519D01*
X63934Y647735D01*
X64059Y649000D01*
X63934Y650265D01*
X63565Y651481D01*
X62966Y652602D01*
X62160Y653585D01*
X61958Y653750D01*
Y654250D01*
X62160Y654415D01*
X62966Y655398D01*
X63565Y656519D01*
X63934Y657735D01*
X64059Y659000D01*
X63934Y660265D01*
X63565Y661481D01*
X62966Y662602D01*
X62160Y663585D01*
X61177Y664391D01*
X60716Y664638D01*
X60675Y665136D01*
X61107Y665468D01*
X61901Y666502D01*
X62400Y667707D01*
X62465Y668200D01*
X56787D01*
Y669800D01*
X62465D01*
X62400Y670293D01*
X61901Y671498D01*
X61107Y672532D01*
X60675Y672864D01*
X60716Y673362D01*
X61177Y673609D01*
X62160Y674415D01*
X62363Y674663D01*
X109000D01*
X110123Y674811D01*
X111169Y675244D01*
X112067Y675933D01*
X120626Y684492D01*
X121315Y685391D01*
X121748Y686437D01*
X121896Y687559D01*
Y697202D01*
X122424Y697635D01*
X123279Y698678D01*
X123915Y699867D01*
X124306Y701158D01*
X124439Y702500D01*
X124306Y703842D01*
X123915Y705133D01*
X123279Y706322D01*
X122424Y707365D01*
X121381Y708220D01*
X120192Y708856D01*
X118901Y709247D01*
X117559Y709380D01*
X116217Y709247D01*
X114926Y708856D01*
X113737Y708220D01*
X112695Y707365D01*
X112424D01*
X111896Y707797D01*
Y709441D01*
X111748Y710564D01*
X111315Y711610D01*
X110626Y712508D01*
X107567Y715567D01*
X106669Y716256D01*
X105622Y716689D01*
X104500Y716837D01*
X42500D01*
X41377Y716689D01*
X40332Y716256D01*
X39433Y715567D01*
X31433Y707567D01*
X30744Y706669D01*
X30311Y705622D01*
X30163Y704500D01*
Y681500D01*
X30311Y680377D01*
X30744Y679331D01*
X31433Y678433D01*
X33933Y675933D01*
X34831Y675244D01*
X35877Y674811D01*
X37000Y674663D01*
X39637D01*
X39840Y674415D01*
X40823Y673609D01*
X41284Y673362D01*
X41325Y672864D01*
X40893Y672532D01*
X40099Y671498D01*
X39600Y670293D01*
X39535Y669800D01*
X45213D01*
Y668200D01*
X39535D01*
X39600Y667707D01*
X40099Y666502D01*
X40893Y665468D01*
X41325Y665136D01*
X41284Y664638D01*
X40823Y664391D01*
X39840Y663585D01*
X39637Y663337D01*
X21000D01*
X19877Y663189D01*
X18832Y662756D01*
X17933Y662067D01*
X16479Y660612D01*
X15951Y660791D01*
X15819Y661791D01*
X15321Y662995D01*
X14528Y664028D01*
X13495Y664821D01*
X12291Y665319D01*
X11800Y665384D01*
Y660500D01*
X11000D01*
Y659700D01*
X6116D01*
X6181Y659209D01*
X6679Y658005D01*
X7472Y656972D01*
X8505Y656179D01*
X9709Y655681D01*
X10708Y655549D01*
X10888Y655021D01*
X7307Y651441D01*
X6618Y650543D01*
X6185Y649497D01*
X6037Y648374D01*
Y196500D01*
X6185Y195378D01*
X6618Y194331D01*
X7307Y193433D01*
X177307Y23433D01*
X178206Y22744D01*
X179252Y22311D01*
X180374Y22163D01*
X1031000D01*
X1032123Y22311D01*
X1033169Y22744D01*
X1034067Y23433D01*
X1083104Y72470D01*
X1089972D01*
Y70748D01*
X1108390D01*
Y82866D01*
X1107849D01*
Y84862D01*
X1107701Y85985D01*
X1107268Y87031D01*
X1106579Y87929D01*
X1102441Y92067D01*
X1101543Y92756D01*
X1100496Y93189D01*
X1099374Y93337D01*
X1072500D01*
X1071377Y93189D01*
X1070331Y92756D01*
X1069433Y92067D01*
X1020704Y43337D01*
X905785D01*
X905594Y43799D01*
X912764Y50969D01*
X913453Y51867D01*
X913886Y52913D01*
X914034Y54035D01*
X914023Y54116D01*
X914034Y54197D01*
Y147177D01*
X913886Y148300D01*
X913453Y149346D01*
X912764Y150244D01*
X901182Y161826D01*
X901373Y162288D01*
X1105125D01*
X1106248Y162436D01*
X1107294Y162869D01*
X1108192Y163558D01*
X1121425Y176792D01*
X1122114Y177690D01*
X1122548Y178736D01*
X1122695Y179858D01*
Y279146D01*
X1122548Y280268D01*
X1122114Y281314D01*
X1121425Y282212D01*
X1121046Y282503D01*
X1120756Y282882D01*
X1115102Y288535D01*
X1114204Y289225D01*
X1113158Y289658D01*
X1112035Y289806D01*
X1108390D01*
Y291528D01*
X1089972D01*
Y289806D01*
X1087665D01*
X1086543Y289658D01*
X1085497Y289225D01*
X1084599Y288535D01*
X1080291Y284228D01*
X1079602Y283330D01*
X1079169Y282284D01*
X1079021Y281161D01*
Y188781D01*
X1073452Y183212D01*
X901873D01*
X901682Y183674D01*
X911425Y193418D01*
X912114Y194316D01*
X912548Y195362D01*
X912695Y196484D01*
Y279146D01*
X912548Y280268D01*
X912114Y281314D01*
X911425Y282212D01*
X905102Y288535D01*
X904204Y289225D01*
X903158Y289658D01*
X902035Y289806D01*
X899728D01*
Y291528D01*
X881311D01*
Y289806D01*
X879004D01*
X877881Y289658D01*
X876835Y289225D01*
X875937Y288535D01*
X871630Y284228D01*
X870941Y283330D01*
X870508Y282284D01*
X870360Y281161D01*
Y207119D01*
X864828Y201587D01*
X694748D01*
X694557Y202049D01*
X702764Y210256D01*
X703453Y211154D01*
X703886Y212200D01*
X704034Y213323D01*
Y279146D01*
X703886Y280268D01*
X703453Y281314D01*
X702764Y282212D01*
X696441Y288535D01*
X695543Y289225D01*
X694497Y289658D01*
X693374Y289806D01*
X691067D01*
Y291528D01*
X672650D01*
Y289806D01*
X670342D01*
X669220Y289658D01*
X668174Y289225D01*
X667276Y288535D01*
X662969Y284228D01*
X662279Y283330D01*
X661846Y282284D01*
X661698Y281161D01*
Y223958D01*
X657702Y219962D01*
X485123D01*
X484932Y220424D01*
X494102Y229595D01*
X494792Y230493D01*
X495225Y231539D01*
X495372Y232661D01*
Y279146D01*
X495225Y280268D01*
X494792Y281314D01*
X494102Y282212D01*
X487779Y288535D01*
X486881Y289225D01*
X485835Y289658D01*
X484713Y289806D01*
X482406D01*
Y291528D01*
X463988D01*
Y289806D01*
X461681D01*
X460559Y289658D01*
X459513Y289225D01*
X458614Y288535D01*
X454307Y284228D01*
X453618Y283330D01*
X453185Y282284D01*
X453037Y281161D01*
Y241297D01*
X450077Y238337D01*
X244671D01*
X133807Y349201D01*
X133998Y349663D01*
X215416D01*
X264529Y300550D01*
Y291528D01*
X255327D01*
Y289806D01*
X253020D01*
X251897Y289658D01*
X250851Y289225D01*
X249953Y288535D01*
X245646Y284228D01*
X244957Y283330D01*
X244523Y282284D01*
X244375Y281161D01*
Y268661D01*
Y263980D01*
X244523Y262858D01*
X244957Y261812D01*
X245646Y260913D01*
X254787Y251772D01*
X255686Y251082D01*
X256732Y250649D01*
X257854Y250501D01*
X275854D01*
X276977Y250649D01*
X278023Y251082D01*
X278921Y251772D01*
X286779Y259630D01*
X287469Y260528D01*
X287902Y261574D01*
X288050Y262697D01*
Y309000D01*
X287902Y310122D01*
X287469Y311169D01*
X286779Y312067D01*
X230279Y368567D01*
X229381Y369256D01*
X228335Y369689D01*
X227213Y369837D01*
X50748D01*
X49626Y369689D01*
X48579Y369256D01*
X47681Y368567D01*
X44567Y365453D01*
X40110D01*
X39757Y365806D01*
X39768Y403828D01*
X40268Y404064D01*
X40823Y403609D01*
X41944Y403010D01*
X43160Y402641D01*
X44425Y402516D01*
X46000D01*
X47265Y402641D01*
X48481Y403010D01*
X49602Y403609D01*
X50585Y404415D01*
X50750Y404616D01*
X51250D01*
X51415Y404415D01*
X52398Y403609D01*
X53519Y403010D01*
X54735Y402641D01*
X56000Y402516D01*
X57575D01*
X58840Y402641D01*
X60056Y403010D01*
X61177Y403609D01*
X62160Y404415D01*
X62363Y404663D01*
X221874D01*
X222996Y404811D01*
X224043Y405244D01*
X224941Y405933D01*
X285441Y466433D01*
X286130Y467331D01*
X286563Y468377D01*
X286711Y469500D01*
Y487807D01*
X286563Y488930D01*
X286130Y489976D01*
X285441Y490874D01*
X279118Y497197D01*
X278220Y497886D01*
X277174Y498319D01*
X276051Y498467D01*
X273744D01*
Y500189D01*
X255327D01*
Y498467D01*
X253020D01*
X251897Y498319D01*
X250851Y497886D01*
X249953Y497197D01*
X245646Y492890D01*
X244957Y491991D01*
X244523Y490945D01*
X244375Y489823D01*
Y457135D01*
X210578Y423337D01*
X140998D01*
X140807Y423799D01*
X244671Y527663D01*
X466078D01*
X473190Y520550D01*
Y500189D01*
X463988D01*
Y498467D01*
X461681D01*
X460559Y498319D01*
X459513Y497886D01*
X458614Y497197D01*
X454307Y492890D01*
X453618Y491991D01*
X453185Y490945D01*
X453037Y489823D01*
Y477323D01*
Y472642D01*
X453185Y471519D01*
X453618Y470473D01*
X454307Y469575D01*
X463449Y460433D01*
X464347Y459744D01*
X465393Y459311D01*
X466516Y459163D01*
X484516D01*
X485638Y459311D01*
X486684Y459744D01*
X487582Y460433D01*
X495441Y468292D01*
X496130Y469190D01*
X496563Y470236D01*
X496711Y471358D01*
Y537500D01*
X496563Y538623D01*
X496130Y539669D01*
X495441Y540567D01*
X490432Y545576D01*
X490623Y546038D01*
X669203D01*
X681852Y533389D01*
Y500189D01*
X672650D01*
Y498467D01*
X670342D01*
X669220Y498319D01*
X668174Y497886D01*
X667276Y497197D01*
X662969Y492890D01*
X662969Y492890D01*
X662279Y491991D01*
X661846Y490945D01*
X661698Y489823D01*
Y472642D01*
X661846Y471519D01*
X662279Y470473D01*
X662969Y469575D01*
X672110Y460433D01*
X673009Y459744D01*
X674055Y459311D01*
X675177Y459163D01*
X693177D01*
X694300Y459311D01*
X695346Y459744D01*
X696244Y460433D01*
X704102Y468291D01*
X704102Y468292D01*
X704791Y469190D01*
X705225Y470236D01*
X705372Y471358D01*
Y550839D01*
X705225Y551961D01*
X704791Y553007D01*
X704102Y553905D01*
X694057Y563951D01*
X694248Y564413D01*
X876828D01*
X890513Y550727D01*
Y500189D01*
X881311D01*
Y498467D01*
X879004D01*
X877881Y498319D01*
X876835Y497886D01*
X875937Y497197D01*
X871630Y492890D01*
X870941Y491991D01*
X870508Y490945D01*
X870360Y489823D01*
Y472642D01*
X870508Y471519D01*
X870941Y470473D01*
X871630Y469575D01*
X880772Y460433D01*
X881670Y459744D01*
X882716Y459311D01*
X883839Y459163D01*
X901839D01*
X902961Y459311D01*
X904007Y459744D01*
X904905Y460433D01*
X912764Y468292D01*
X913453Y469190D01*
X913886Y470236D01*
X914034Y471358D01*
Y568677D01*
X913886Y569800D01*
X913453Y570846D01*
X912764Y571744D01*
X902182Y582326D01*
X902373Y582788D01*
X1095078D01*
X1099175Y578692D01*
Y500189D01*
X1089972D01*
Y498467D01*
X1087665D01*
X1086543Y498319D01*
X1085497Y497886D01*
X1084599Y497197D01*
X1080291Y492890D01*
X1079602Y491991D01*
X1079169Y490945D01*
X1079021Y489823D01*
Y472642D01*
X1079169Y471519D01*
X1079602Y470473D01*
X1080291Y469575D01*
X1089433Y460433D01*
X1090331Y459744D01*
X1091378Y459311D01*
X1092500Y459163D01*
X1110500D01*
X1111623Y459311D01*
X1112669Y459744D01*
X1113567Y460433D01*
X1121425Y468292D01*
X1122114Y469190D01*
X1122548Y470236D01*
X1122695Y471358D01*
Y585642D01*
X1122548Y586764D01*
X1122114Y587810D01*
X1121425Y588708D01*
X1107692Y602442D01*
X1106794Y603131D01*
X1105748Y603564D01*
X1104625Y603712D01*
X899373D01*
X899182Y604174D01*
X911425Y616418D01*
X912114Y617316D01*
X912548Y618362D01*
X912695Y619484D01*
Y696468D01*
X912548Y697591D01*
X912114Y698637D01*
X911425Y699535D01*
X905102Y705858D01*
X904204Y706547D01*
X903158Y706981D01*
X902035Y707128D01*
X899728D01*
Y708850D01*
X881311D01*
Y707128D01*
X879004D01*
X877881Y706981D01*
X876835Y706547D01*
X875937Y705858D01*
X871630Y701551D01*
X870941Y700653D01*
X870508Y699607D01*
X870360Y698484D01*
Y628119D01*
X864328Y622087D01*
X695248D01*
X695057Y622549D01*
X702764Y630256D01*
X703453Y631154D01*
X703886Y632200D01*
X704034Y633323D01*
Y696468D01*
X703886Y697591D01*
X703453Y698637D01*
X702764Y699535D01*
X696441Y705858D01*
X695543Y706547D01*
X694496Y706981D01*
X693374Y707128D01*
X691067D01*
Y708850D01*
X672650D01*
Y707128D01*
X670342D01*
X669220Y706981D01*
X668174Y706547D01*
X667276Y705858D01*
X662969Y701551D01*
X662279Y700653D01*
X661846Y699607D01*
X661698Y698484D01*
Y643458D01*
X658703Y640462D01*
X485623D01*
X485432Y640924D01*
X494102Y649595D01*
X494792Y650493D01*
X495225Y651539D01*
X495372Y652661D01*
Y696468D01*
X495225Y697591D01*
X494792Y698637D01*
X494102Y699535D01*
X487779Y705858D01*
X486881Y706547D01*
X485835Y706981D01*
X484713Y707128D01*
X482406D01*
Y708850D01*
X463988D01*
Y707128D01*
X461681D01*
X460559Y706981D01*
X459513Y706547D01*
X458614Y705858D01*
X454307Y701551D01*
X453618Y700653D01*
X453185Y699607D01*
X453037Y698484D01*
Y661797D01*
X450077Y658837D01*
X269837D01*
X269645Y659299D01*
X285441Y675095D01*
X286130Y675993D01*
X286563Y677039D01*
X286711Y678161D01*
Y696468D01*
X286563Y697591D01*
X286130Y698637D01*
X285441Y699535D01*
X279118Y705858D01*
X278220Y706547D01*
X277174Y706981D01*
X276051Y707128D01*
X273744D01*
Y708850D01*
X255327D01*
Y707128D01*
X253020D01*
X251897Y706981D01*
X250851Y706547D01*
X249953Y705858D01*
X245646Y701551D01*
X244957Y700653D01*
X244523Y699607D01*
X244375Y698484D01*
Y682635D01*
X238952Y677212D01*
X158373D01*
X158182Y677674D01*
X193670Y713163D01*
X1099175D01*
Y708850D01*
X1089972D01*
Y707128D01*
X1087665D01*
X1086543Y706981D01*
X1085497Y706547D01*
X1084599Y705858D01*
X1080291Y701551D01*
X1079602Y700653D01*
X1079169Y699607D01*
X1079021Y698484D01*
Y679016D01*
X1079169Y677893D01*
X1079602Y676847D01*
X1080291Y675949D01*
X1085807Y670433D01*
X1086705Y669744D01*
X1087751Y669311D01*
X1088874Y669163D01*
X1109358D01*
X1110481Y669311D01*
X1111527Y669744D01*
X1112425Y670433D01*
X1121425Y679433D01*
X1122114Y680331D01*
X1122548Y681378D01*
X1122695Y682500D01*
Y719142D01*
X1122548Y720264D01*
X1122114Y721310D01*
X1121425Y722208D01*
X1111067Y732567D01*
X1110169Y733256D01*
X1109122Y733689D01*
X1108000Y733837D01*
D02*
G37*
G36*
X71513Y636884D02*
Y632800D01*
X75596D01*
X75532Y633291D01*
X75033Y634495D01*
X74240Y635528D01*
X73207Y636321D01*
X72004Y636819D01*
X71513Y636884D01*
D02*
G37*
G36*
X69913D02*
X69421Y636819D01*
X68218Y636321D01*
X67185Y635528D01*
X66392Y634495D01*
X65894Y633291D01*
X65829Y632800D01*
X69913D01*
Y636884D01*
D02*
G37*
G36*
X200300Y320384D02*
Y316300D01*
X204384D01*
X204319Y316791D01*
X203821Y317995D01*
X203028Y319028D01*
X201995Y319821D01*
X200791Y320319D01*
X200300Y320384D01*
D02*
G37*
G36*
X71513Y670884D02*
Y666800D01*
X75596D01*
X75532Y667291D01*
X75033Y668495D01*
X74240Y669528D01*
X73207Y670321D01*
X72004Y670819D01*
X71513Y670884D01*
D02*
G37*
G36*
X198700Y320384D02*
X198209Y320319D01*
X197005Y319821D01*
X195972Y319028D01*
X195179Y317995D01*
X194681Y316791D01*
X194616Y316300D01*
X198700D01*
Y320384D01*
D02*
G37*
G36*
X1104029Y56216D02*
X1099946D01*
Y52132D01*
X1100437Y52197D01*
X1101640Y52695D01*
X1102674Y53488D01*
X1103466Y54521D01*
X1103965Y55725D01*
X1104029Y56216D01*
D02*
G37*
G36*
X204384Y314700D02*
X200300D01*
Y310616D01*
X200791Y310681D01*
X201995Y311179D01*
X203028Y311972D01*
X203821Y313005D01*
X204319Y314209D01*
X204384Y314700D01*
D02*
G37*
G36*
X69913Y665200D02*
X65829D01*
X65894Y664709D01*
X66392Y663505D01*
X67185Y662472D01*
X68218Y661679D01*
X69421Y661181D01*
X69913Y661116D01*
Y665200D01*
D02*
G37*
G36*
X1102712Y69752D02*
X1099981D01*
Y65193D01*
X1098381D01*
Y69752D01*
X1095650D01*
Y65193D01*
X1094850D01*
Y64393D01*
X1091473D01*
Y60634D01*
X1095057D01*
X1095303Y60134D01*
X1094825Y59510D01*
X1094326Y58307D01*
X1094262Y57816D01*
X1104029D01*
X1103965Y58307D01*
X1103466Y59510D01*
X1102988Y60134D01*
X1103234Y60634D01*
X1106890D01*
Y64393D01*
X1103512D01*
Y65193D01*
X1102712D01*
Y69752D01*
D02*
G37*
G36*
X75596Y665200D02*
X71513D01*
Y661116D01*
X72004Y661181D01*
X73207Y661679D01*
X74240Y662472D01*
X75033Y663505D01*
X75532Y664709D01*
X75596Y665200D01*
D02*
G37*
G36*
X69913Y670884D02*
X69421Y670819D01*
X68218Y670321D01*
X67185Y669528D01*
X66392Y668495D01*
X65894Y667291D01*
X65829Y666800D01*
X69913D01*
Y670884D01*
D02*
G37*
G36*
X10200Y665384D02*
X9709Y665319D01*
X8505Y664821D01*
X7472Y664028D01*
X6679Y662995D01*
X6181Y661791D01*
X6116Y661300D01*
X10200D01*
Y665384D01*
D02*
G37*
%LPD*%
G36*
X672650Y70748D02*
X677796D01*
X678001Y70252D01*
X677706Y69752D01*
X674150D01*
Y65993D01*
X677528D01*
Y64393D01*
X674150D01*
Y60634D01*
X677734D01*
X677981Y60134D01*
X677502Y59510D01*
X677004Y58307D01*
X676939Y57816D01*
X686707D01*
X686642Y58307D01*
X686143Y59510D01*
X685665Y60134D01*
X685912Y60634D01*
X688105D01*
X688326Y60185D01*
X688179Y59995D01*
X687681Y58791D01*
X687616Y58300D01*
X691700D01*
Y62384D01*
X691209Y62319D01*
X690067Y61846D01*
X689580Y62031D01*
X689567Y62037D01*
Y64393D01*
X686189D01*
Y65993D01*
X689567D01*
Y66663D01*
X690035D01*
X691158Y66811D01*
X692204Y67244D01*
X693102Y67933D01*
X696198Y71029D01*
X696698Y70822D01*
Y60932D01*
X696225Y60771D01*
X696028Y61028D01*
X694995Y61821D01*
X693791Y62319D01*
X693300Y62384D01*
Y57500D01*
X692500D01*
Y56700D01*
X687616D01*
X687681Y56209D01*
X688179Y55005D01*
X688972Y53972D01*
X690005Y53179D01*
X691209Y52681D01*
X692500Y52511D01*
X692739Y52542D01*
X692960Y52094D01*
X691381Y50514D01*
X676974D01*
X670372Y57115D01*
Y70704D01*
X672139Y72470D01*
X672650D01*
Y70748D01*
D02*
G37*
G36*
X463988D02*
X469135D01*
X469340Y70252D01*
X469044Y69752D01*
X465488D01*
Y65993D01*
X468866D01*
Y64393D01*
X465488D01*
Y60634D01*
X469073D01*
X469319Y60134D01*
X468841Y59510D01*
X468342Y58307D01*
X468278Y57816D01*
X478045D01*
X477981Y58307D01*
X477482Y59510D01*
X477004Y60134D01*
X477250Y60634D01*
X480105D01*
X480326Y60185D01*
X480179Y59995D01*
X479681Y58791D01*
X479616Y58300D01*
X483700D01*
Y62384D01*
X483209Y62319D01*
X482005Y61821D01*
X481405Y61360D01*
X480905Y61607D01*
Y64393D01*
X477528D01*
Y65993D01*
X480905D01*
Y66663D01*
X481374D01*
X482497Y66811D01*
X483543Y67244D01*
X484441Y67933D01*
X487537Y71029D01*
X488037Y70822D01*
Y61651D01*
X487537Y61405D01*
X486995Y61821D01*
X485791Y62319D01*
X485300Y62384D01*
Y57500D01*
X484500D01*
Y56700D01*
X479616D01*
X479681Y56209D01*
X480179Y55005D01*
X480972Y53972D01*
X482005Y53179D01*
X483209Y52681D01*
X484066Y52568D01*
X484245Y52040D01*
X482719Y50514D01*
X468312D01*
X461711Y57115D01*
Y70704D01*
X463478Y72470D01*
X463988D01*
Y70748D01*
D02*
G37*
G36*
X473190Y82866D02*
X463988D01*
Y81144D01*
X461681D01*
X460559Y80996D01*
X459513Y80563D01*
X458614Y79874D01*
X454307Y75567D01*
X453618Y74669D01*
X453185Y73623D01*
X453037Y72500D01*
Y55319D01*
X453185Y54196D01*
X453618Y53150D01*
X454307Y52252D01*
X462760Y43799D01*
X462569Y43337D01*
X188171D01*
X143307Y88201D01*
X143498Y88663D01*
X255078D01*
X255868Y87873D01*
Y82866D01*
X255327D01*
Y70748D01*
X273744D01*
Y82866D01*
X273203D01*
Y98508D01*
X273056Y99630D01*
X272622Y100676D01*
X271933Y101575D01*
X266807Y106701D01*
X266998Y107163D01*
X473190D01*
Y82866D01*
D02*
G37*
G36*
X905360Y70822D02*
Y60765D01*
X904860Y60595D01*
X904528Y61028D01*
X903495Y61821D01*
X902291Y62319D01*
X901800Y62384D01*
Y57500D01*
X900200D01*
Y62384D01*
X899709Y62319D01*
X898728Y61913D01*
X898228Y62197D01*
Y64393D01*
X894850D01*
Y65993D01*
X898228D01*
Y66663D01*
X898697D01*
X899819Y66811D01*
X900865Y67244D01*
X901764Y67933D01*
X904860Y71029D01*
X905360Y70822D01*
D02*
G37*
G36*
X681852Y123389D02*
Y82866D01*
X672650D01*
Y81144D01*
X670342D01*
X669220Y80996D01*
X668174Y80563D01*
X667276Y79874D01*
X662969Y75567D01*
X662279Y74669D01*
X661846Y73623D01*
X661698Y72500D01*
Y55319D01*
X661846Y54196D01*
X662279Y53150D01*
X662969Y52252D01*
X671422Y43799D01*
X671230Y43337D01*
X488463D01*
X488271Y43799D01*
X495441Y50969D01*
X496130Y51867D01*
X496563Y52913D01*
X496711Y54035D01*
Y116500D01*
X496563Y117622D01*
X496130Y118669D01*
X495441Y119567D01*
X489932Y125076D01*
X490123Y125538D01*
X679703D01*
X681852Y123389D01*
D02*
G37*
G36*
X890513Y137727D02*
Y82866D01*
X881311D01*
Y81144D01*
X879004D01*
X877881Y80996D01*
X876835Y80563D01*
X875937Y79874D01*
X871630Y75567D01*
X870941Y74669D01*
X870508Y73623D01*
X870360Y72500D01*
Y55319D01*
X870508Y54196D01*
X870941Y53150D01*
X871630Y52252D01*
X880083Y43799D01*
X879892Y43337D01*
X697124D01*
X696933Y43799D01*
X704102Y50969D01*
X704791Y51867D01*
X705225Y52913D01*
X705372Y54035D01*
Y131839D01*
X705225Y132961D01*
X704791Y134007D01*
X704102Y134905D01*
X695557Y143451D01*
X695748Y143913D01*
X884328D01*
X890513Y137727D01*
D02*
G37*
G36*
X881311Y70748D02*
X886457D01*
X886663Y70252D01*
X886367Y69752D01*
X882811D01*
Y65993D01*
X886189D01*
Y64393D01*
X882811D01*
Y60634D01*
X886395D01*
X886642Y60134D01*
X886164Y59510D01*
X885665Y58307D01*
X885600Y57816D01*
X890484D01*
Y57016D01*
X891284D01*
Y52132D01*
X891776Y52197D01*
X892979Y52695D01*
X894012Y53488D01*
X894805Y54521D01*
X895303Y55725D01*
X895473Y57016D01*
X895303Y58307D01*
X894805Y59510D01*
X894326Y60134D01*
X894573Y60634D01*
X896605D01*
X896826Y60185D01*
X896679Y59995D01*
X896181Y58791D01*
X896011Y57500D01*
X896181Y56209D01*
X896679Y55005D01*
X897472Y53972D01*
X898505Y53179D01*
X899709Y52681D01*
X901000Y52511D01*
X901425Y52567D01*
X901646Y52118D01*
X900042Y50514D01*
X885635D01*
X879034Y57115D01*
Y70704D01*
X880800Y72470D01*
X881311D01*
Y70748D01*
D02*
G37*
G36*
X463988Y279410D02*
X469135D01*
X469340Y278913D01*
X469044Y278413D01*
X465488D01*
Y274654D01*
X468866D01*
Y273054D01*
X465488D01*
Y269295D01*
X469073D01*
X469319Y268795D01*
X468841Y268172D01*
X468342Y266968D01*
X468278Y266477D01*
X478045D01*
X477981Y266968D01*
X477482Y268172D01*
X477004Y268795D01*
X477250Y269295D01*
X480537D01*
Y237297D01*
X475453Y232212D01*
X474459D01*
X474212Y232712D01*
X474821Y233505D01*
X475319Y234709D01*
X475384Y235200D01*
X465616D01*
X465681Y234709D01*
X466179Y233505D01*
X466788Y232712D01*
X466541Y232212D01*
X456873D01*
X456682Y232674D01*
X460441Y236433D01*
X461130Y237331D01*
X461563Y238377D01*
X461711Y239500D01*
Y279365D01*
X463478Y281131D01*
X463988D01*
Y279410D01*
D02*
G37*
G36*
X83441Y248799D02*
X83250Y248337D01*
X75428D01*
X75182Y248837D01*
X75695Y249505D01*
X76193Y250709D01*
X76258Y251200D01*
X66490D01*
X66555Y250709D01*
X67053Y249505D01*
X67566Y248837D01*
X67320Y248337D01*
X62987D01*
X62530Y248695D01*
X62570Y249000D01*
X62400Y250293D01*
X61901Y251498D01*
X61107Y252532D01*
X60675Y252864D01*
X60716Y253362D01*
X61177Y253609D01*
X62160Y254415D01*
X62363Y254663D01*
X66582D01*
X66916Y254163D01*
X66555Y253291D01*
X66490Y252800D01*
X76258D01*
X76193Y253291D01*
X75832Y254163D01*
X76166Y254663D01*
X77578D01*
X83441Y248799D01*
D02*
G37*
G36*
X255327Y279410D02*
X260473D01*
X260679Y278913D01*
X260383Y278413D01*
X256827D01*
Y274654D01*
X260205D01*
Y273054D01*
X256827D01*
Y269295D01*
X260411D01*
X260658Y268795D01*
X260179Y268172D01*
X259681Y266968D01*
X259616Y266477D01*
X269384D01*
X269319Y266968D01*
X268821Y268172D01*
X268342Y268795D01*
X268589Y269295D01*
X271559D01*
X271679Y269005D01*
X272472Y267972D01*
X273505Y267179D01*
X274709Y266681D01*
X275200Y266616D01*
Y271500D01*
X276800D01*
Y266616D01*
X277291Y266681D01*
X278495Y267179D01*
X278927Y267511D01*
X279376Y267290D01*
Y264493D01*
X274058Y259176D01*
X259651D01*
X253050Y265777D01*
Y279365D01*
X254816Y281131D01*
X255327D01*
Y279410D01*
D02*
G37*
G36*
X672650D02*
X677796D01*
X678001Y278913D01*
X677706Y278413D01*
X674150D01*
Y274654D01*
X677528D01*
Y273054D01*
X674150D01*
Y269295D01*
X677734D01*
X677981Y268795D01*
X677502Y268172D01*
X677004Y266968D01*
X676939Y266477D01*
X686707D01*
X686642Y266968D01*
X686143Y268172D01*
X685665Y268795D01*
X685912Y269295D01*
X689198D01*
Y221458D01*
X681577Y213837D01*
X679870D01*
X679700Y214337D01*
X680528Y214972D01*
X681321Y216005D01*
X681819Y217209D01*
X681884Y217700D01*
X672116D01*
X672181Y217209D01*
X672679Y216005D01*
X673472Y214972D01*
X674300Y214337D01*
X674130Y213837D01*
X664498D01*
X664307Y214299D01*
X669102Y219095D01*
X669792Y219993D01*
X670225Y221039D01*
X670372Y222161D01*
Y279365D01*
X672139Y281131D01*
X672650D01*
Y279410D01*
D02*
G37*
G36*
X1089972D02*
X1095119D01*
X1095324Y278913D01*
X1095028Y278413D01*
X1091473D01*
Y274654D01*
X1094850D01*
Y273054D01*
X1091473D01*
Y269295D01*
X1095057D01*
X1095303Y268795D01*
X1094825Y268172D01*
X1094326Y266968D01*
X1094262Y266477D01*
X1104029D01*
X1103965Y266968D01*
X1103466Y268172D01*
X1102988Y268795D01*
X1103234Y269295D01*
X1106890D01*
X1107163Y268908D01*
Y184423D01*
X1099827Y177087D01*
X1096612D01*
X1096612Y177087D01*
X1095388D01*
X1095388Y177087D01*
X1080248D01*
X1080057Y177549D01*
X1086425Y183917D01*
X1087114Y184816D01*
X1087548Y185862D01*
X1087695Y186984D01*
Y279365D01*
X1089462Y281131D01*
X1089972D01*
Y279410D01*
D02*
G37*
G36*
X51415Y214415D02*
X52398Y213609D01*
X53519Y213010D01*
X54735Y212641D01*
X56000Y212516D01*
X57575D01*
X58840Y212641D01*
X60056Y213010D01*
X60170Y213071D01*
X162941Y110299D01*
X162750Y109837D01*
X146670D01*
X69734Y186774D01*
X70005Y187179D01*
X71209Y186681D01*
X71700Y186616D01*
Y190700D01*
X67616D01*
X67681Y190209D01*
X68179Y189005D01*
X67774Y188734D01*
X44492Y212016D01*
X44699Y212516D01*
X46000D01*
X47265Y212641D01*
X48481Y213010D01*
X49602Y213609D01*
X50585Y214415D01*
X50750Y214616D01*
X51250D01*
X51415Y214415D01*
D02*
G37*
G36*
X881311Y279410D02*
X886457D01*
X886663Y278913D01*
X886367Y278413D01*
X882811D01*
Y274654D01*
X886189D01*
Y273054D01*
X882811D01*
Y269295D01*
X886395D01*
X886642Y268795D01*
X886164Y268172D01*
X885665Y266968D01*
X885600Y266477D01*
X895368D01*
X895303Y266968D01*
X894805Y268172D01*
X894326Y268795D01*
X894573Y269295D01*
X897860D01*
Y204619D01*
X890478Y197238D01*
X890102Y197568D01*
X890247Y197758D01*
X890821Y198505D01*
X891319Y199709D01*
X891384Y200200D01*
X887300D01*
Y196116D01*
X887791Y196181D01*
X888995Y196679D01*
X889742Y197253D01*
X889932Y197398D01*
X890262Y197022D01*
X888702Y195462D01*
X871623D01*
X871432Y195924D01*
X877764Y202256D01*
X878453Y203154D01*
X878886Y204200D01*
X879034Y205323D01*
Y279365D01*
X880800Y281131D01*
X881311D01*
Y279410D01*
D02*
G37*
G36*
X1089972Y696732D02*
X1095119D01*
X1095324Y696236D01*
X1095028Y695736D01*
X1091473D01*
Y691977D01*
X1094850D01*
Y690377D01*
X1091473D01*
Y686618D01*
X1095057D01*
X1095303Y686118D01*
X1094825Y685495D01*
X1094326Y684291D01*
X1094262Y683800D01*
X1104029D01*
X1103965Y684291D01*
X1103466Y685495D01*
X1102988Y686118D01*
X1103234Y686618D01*
X1105718D01*
X1106179Y685505D01*
X1106972Y684472D01*
X1108005Y683679D01*
X1109209Y683181D01*
X1109700Y683116D01*
Y688000D01*
X1111300D01*
Y683116D01*
X1111791Y683181D01*
X1112486Y683469D01*
X1112770Y683045D01*
X1107562Y677837D01*
X1100914D01*
X1100814Y678337D01*
X1101640Y678679D01*
X1102674Y679472D01*
X1103466Y680505D01*
X1103965Y681709D01*
X1104029Y682200D01*
X1094262D01*
X1094326Y681709D01*
X1094825Y680505D01*
X1095618Y679472D01*
X1096651Y678679D01*
X1097477Y678337D01*
X1097378Y677837D01*
X1090670D01*
X1087695Y680812D01*
Y696688D01*
X1089462Y698454D01*
X1089972D01*
Y696732D01*
D02*
G37*
G36*
X881311D02*
X886457D01*
X886663Y696236D01*
X886367Y695736D01*
X882811D01*
Y691977D01*
X886189D01*
Y690377D01*
X882811D01*
Y686618D01*
X886395D01*
X886642Y686118D01*
X886164Y685495D01*
X885665Y684291D01*
X885600Y683800D01*
X895368D01*
X895303Y684291D01*
X894805Y685495D01*
X894326Y686118D01*
X894573Y686618D01*
X897860D01*
Y627119D01*
X886703Y615962D01*
X885570D01*
X885470Y616462D01*
X885995Y616679D01*
X887028Y617472D01*
X887821Y618505D01*
X888319Y619709D01*
X888384Y620200D01*
X878616D01*
X878681Y619709D01*
X879179Y618505D01*
X879972Y617472D01*
X881005Y616679D01*
X881530Y616462D01*
X881430Y615962D01*
X871123D01*
X870932Y616424D01*
X877764Y623256D01*
X878453Y624154D01*
X878886Y625200D01*
X879034Y626323D01*
Y696688D01*
X880800Y698454D01*
X881311D01*
Y696732D01*
D02*
G37*
G36*
X1089972Y488071D02*
X1095119D01*
X1095324Y487575D01*
X1095028Y487075D01*
X1091473D01*
Y483316D01*
X1094850D01*
Y481716D01*
X1091473D01*
Y477957D01*
X1095057D01*
X1095303Y477457D01*
X1094825Y476833D01*
X1094326Y475630D01*
X1094262Y475139D01*
X1104029D01*
X1103965Y475630D01*
X1103466Y476833D01*
X1102988Y477457D01*
X1103234Y477957D01*
X1105785D01*
X1106179Y477005D01*
X1106972Y475972D01*
X1108005Y475179D01*
X1109209Y474681D01*
X1109700Y474616D01*
Y479500D01*
X1111300D01*
Y474616D01*
X1111791Y474681D01*
X1112995Y475179D01*
X1113573Y475623D01*
X1114021Y475402D01*
Y473155D01*
X1108704Y467837D01*
X1094296D01*
X1087695Y474438D01*
Y488026D01*
X1089462Y489793D01*
X1089972D01*
Y488071D01*
D02*
G37*
G36*
X463988Y696732D02*
X469135D01*
X469340Y696236D01*
X469044Y695736D01*
X465488D01*
Y691977D01*
X468866D01*
Y690377D01*
X465488D01*
Y686618D01*
X469073D01*
X469319Y686118D01*
X468841Y685495D01*
X468342Y684291D01*
X468278Y683800D01*
X478045D01*
X477981Y684291D01*
X477482Y685495D01*
X477004Y686118D01*
X477250Y686618D01*
X480537D01*
Y657796D01*
X475453Y652712D01*
X472959D01*
X472712Y653212D01*
X473321Y654005D01*
X473819Y655209D01*
X473884Y655700D01*
X464116D01*
X464181Y655209D01*
X464679Y654005D01*
X465288Y653212D01*
X465041Y652712D01*
X456873D01*
X456682Y653174D01*
X460441Y656933D01*
X461130Y657831D01*
X461563Y658878D01*
X461711Y660000D01*
Y696688D01*
X463478Y698454D01*
X463988D01*
Y696732D01*
D02*
G37*
G36*
X90441Y524201D02*
X84578Y518337D01*
X75555D01*
X75308Y518837D01*
X75821Y519505D01*
X76319Y520709D01*
X76384Y521200D01*
X66616D01*
X66681Y520709D01*
X67179Y519505D01*
X67692Y518837D01*
X67445Y518337D01*
X63000D01*
X62881Y518321D01*
X62528Y518675D01*
X62570Y519000D01*
X62400Y520293D01*
X61901Y521498D01*
X61107Y522532D01*
X60675Y522864D01*
X60716Y523362D01*
X61177Y523609D01*
X62160Y524415D01*
X62363Y524663D01*
X66708D01*
X67042Y524163D01*
X66681Y523291D01*
X66616Y522800D01*
X76384D01*
X76319Y523291D01*
X75958Y524163D01*
X76292Y524663D01*
X90250D01*
X90441Y524201D01*
D02*
G37*
G36*
X255327Y696732D02*
X260473D01*
X260679Y696236D01*
X260383Y695736D01*
X256827D01*
Y691977D01*
X260205D01*
Y690377D01*
X256827D01*
Y686618D01*
X260411D01*
X260658Y686118D01*
X260179Y685495D01*
X259681Y684291D01*
X259616Y683800D01*
X264500D01*
Y683000D01*
X265300D01*
Y678116D01*
X265791Y678181D01*
X266238Y678366D01*
X266521Y677942D01*
X259666Y671087D01*
X259196D01*
X259026Y671587D01*
X259528Y671972D01*
X260321Y673005D01*
X260819Y674209D01*
X260884Y674700D01*
X256000D01*
Y675500D01*
X255200D01*
Y680384D01*
X254709Y680319D01*
X253505Y679821D01*
X253410Y679748D01*
X253327Y679765D01*
X252942Y680018D01*
X253050Y680839D01*
Y696688D01*
X254816Y698454D01*
X255327D01*
Y696732D01*
D02*
G37*
G36*
X101441Y594201D02*
X67077Y559837D01*
X50874D01*
X49751Y559689D01*
X48706Y559256D01*
X47807Y558567D01*
X44693Y555453D01*
X40167D01*
X39814Y555806D01*
X39825Y593781D01*
X40325Y594017D01*
X40823Y593609D01*
X41944Y593010D01*
X43160Y592641D01*
X44425Y592516D01*
X46000D01*
X47265Y592641D01*
X48481Y593010D01*
X49602Y593609D01*
X50585Y594415D01*
X50750Y594616D01*
X51250D01*
X51415Y594415D01*
X52398Y593609D01*
X53519Y593010D01*
X54735Y592641D01*
X56000Y592516D01*
X57575D01*
X58840Y592641D01*
X60056Y593010D01*
X61177Y593609D01*
X62160Y594415D01*
X62363Y594663D01*
X101250D01*
X101441Y594201D01*
D02*
G37*
G36*
X672650Y696732D02*
X677796D01*
X678001Y696236D01*
X677706Y695736D01*
X674150D01*
Y691977D01*
X677528D01*
Y690377D01*
X674150D01*
Y686618D01*
X677734D01*
X677981Y686118D01*
X677502Y685495D01*
X677004Y684291D01*
X676939Y683800D01*
X686707D01*
X686642Y684291D01*
X686143Y685495D01*
X685665Y686118D01*
X685912Y686618D01*
X689198D01*
Y640458D01*
X683077Y634337D01*
X680870D01*
X680700Y634837D01*
X681528Y635472D01*
X682321Y636505D01*
X682819Y637709D01*
X682884Y638200D01*
X673116D01*
X673181Y637709D01*
X673679Y636505D01*
X674472Y635472D01*
X675300Y634837D01*
X675130Y634337D01*
X665498D01*
X665307Y634799D01*
X669102Y638595D01*
X669792Y639493D01*
X670225Y640539D01*
X670372Y641661D01*
Y696688D01*
X672139Y698454D01*
X672650D01*
Y696732D01*
D02*
G37*
G36*
X128941Y444201D02*
X123077Y438337D01*
X75555D01*
X75308Y438837D01*
X75821Y439505D01*
X76319Y440709D01*
X76384Y441200D01*
X66616D01*
X66681Y440709D01*
X67179Y439505D01*
X67692Y438837D01*
X67445Y438337D01*
X63000D01*
X62881Y438321D01*
X62528Y438675D01*
X62570Y439000D01*
X62400Y440293D01*
X61901Y441498D01*
X61107Y442532D01*
X60675Y442864D01*
X60716Y443362D01*
X61177Y443609D01*
X62160Y444415D01*
X62363Y444663D01*
X66708D01*
X67042Y444163D01*
X66681Y443291D01*
X66616Y442800D01*
X76384D01*
X76319Y443291D01*
X75958Y444163D01*
X76292Y444663D01*
X128750D01*
X128941Y444201D01*
D02*
G37*
G36*
X255327Y488071D02*
X260473D01*
X260679Y487575D01*
X260383Y487075D01*
X256827D01*
Y483316D01*
X260205D01*
Y481716D01*
X256827D01*
Y477957D01*
X260411D01*
X260658Y477457D01*
X260179Y476833D01*
X259681Y475630D01*
X259616Y475139D01*
X264500D01*
Y474339D01*
X265300D01*
Y469455D01*
X265791Y469519D01*
X266238Y469704D01*
X266521Y469280D01*
X262221Y464980D01*
X261831Y465298D01*
X261884Y465700D01*
X257000D01*
Y466500D01*
X256200D01*
Y471384D01*
X255709Y471319D01*
X254505Y470821D01*
X253550Y470087D01*
X253050Y470220D01*
Y488026D01*
X254816Y489793D01*
X255327D01*
Y488071D01*
D02*
G37*
G36*
X102441Y288799D02*
X102250Y288337D01*
X75428D01*
X75182Y288837D01*
X75695Y289505D01*
X76193Y290709D01*
X76258Y291200D01*
X66490D01*
X66555Y290709D01*
X67053Y289505D01*
X67566Y288837D01*
X67320Y288337D01*
X62987D01*
X62530Y288695D01*
X62570Y289000D01*
X62400Y290293D01*
X61901Y291498D01*
X61107Y292532D01*
X60675Y292864D01*
X60716Y293362D01*
X61177Y293609D01*
X62160Y294415D01*
X62363Y294663D01*
X66582D01*
X66916Y294163D01*
X66555Y293291D01*
X66490Y292800D01*
X76258D01*
X76193Y293291D01*
X75832Y294163D01*
X76166Y294663D01*
X96578D01*
X102441Y288799D01*
D02*
G37*
G36*
X121941Y328799D02*
X121750Y328337D01*
X75428D01*
X75182Y328837D01*
X75695Y329505D01*
X76193Y330709D01*
X76258Y331200D01*
X66490D01*
X66555Y330709D01*
X67053Y329505D01*
X67566Y328837D01*
X67320Y328337D01*
X62987D01*
X62530Y328695D01*
X62570Y329000D01*
X62400Y330293D01*
X61901Y331498D01*
X61107Y332532D01*
X60675Y332864D01*
X60716Y333362D01*
X61177Y333609D01*
X62160Y334415D01*
X62363Y334663D01*
X66582D01*
X66916Y334163D01*
X66555Y333291D01*
X66490Y332800D01*
X76258D01*
X76193Y333291D01*
X75832Y334163D01*
X76166Y334663D01*
X116077D01*
X121941Y328799D01*
D02*
G37*
G36*
X672650Y488071D02*
X677796D01*
X678001Y487575D01*
X677706Y487075D01*
X674150D01*
Y483316D01*
X677528D01*
Y481716D01*
X674150D01*
Y477957D01*
X677734D01*
X677981Y477457D01*
X677502Y476833D01*
X677004Y475630D01*
X676939Y475139D01*
X686707D01*
X686642Y475630D01*
X686143Y476833D01*
X685665Y477457D01*
X685912Y477957D01*
X689567D01*
X689567Y477957D01*
X690049Y477913D01*
X691005Y477179D01*
X692209Y476681D01*
X692700Y476616D01*
Y481500D01*
X694300D01*
Y476616D01*
X694791Y476681D01*
X695995Y477179D01*
X696250Y477375D01*
X696698Y477154D01*
Y473155D01*
X691381Y467837D01*
X676974D01*
X670372Y474438D01*
Y477323D01*
X670372Y477323D01*
Y488026D01*
X672139Y489793D01*
X672650D01*
Y488071D01*
D02*
G37*
G36*
X881311D02*
X886457D01*
X886663Y487575D01*
X886367Y487075D01*
X882811D01*
Y483316D01*
X886189D01*
Y481716D01*
X882811D01*
Y477957D01*
X886395D01*
X886642Y477457D01*
X886164Y476833D01*
X885665Y475630D01*
X885600Y475139D01*
X895368D01*
X895303Y475630D01*
X894805Y476833D01*
X894326Y477457D01*
X894573Y477957D01*
X897717D01*
X898472Y476972D01*
X899505Y476179D01*
X900709Y475681D01*
X901200Y475616D01*
Y480500D01*
X902800D01*
Y475616D01*
X903291Y475681D01*
X904495Y476179D01*
X904911Y476499D01*
X905360Y476278D01*
Y473155D01*
X900042Y467837D01*
X885635D01*
X879034Y474438D01*
Y488026D01*
X880800Y489793D01*
X881311D01*
Y488071D01*
D02*
G37*
G36*
X109441Y484201D02*
X103577Y478337D01*
X75555D01*
X75308Y478837D01*
X75821Y479505D01*
X76319Y480709D01*
X76384Y481200D01*
X66616D01*
X66681Y480709D01*
X67179Y479505D01*
X67692Y478837D01*
X67445Y478337D01*
X63000D01*
X62881Y478321D01*
X62528Y478675D01*
X62570Y479000D01*
X62400Y480293D01*
X61901Y481498D01*
X61107Y482532D01*
X60675Y482864D01*
X60716Y483362D01*
X61177Y483609D01*
X62160Y484415D01*
X62363Y484663D01*
X66708D01*
X67042Y484163D01*
X66681Y483291D01*
X66616Y482800D01*
X76384D01*
X76319Y483291D01*
X75958Y484163D01*
X76292Y484663D01*
X109250D01*
X109441Y484201D01*
D02*
G37*
G36*
X463988Y488071D02*
X469135D01*
X469340Y487575D01*
X469044Y487075D01*
X465488D01*
Y483316D01*
X468866D01*
Y481716D01*
X465488D01*
Y477957D01*
X469073D01*
X469319Y477457D01*
X468841Y476833D01*
X468342Y475630D01*
X468278Y475139D01*
X478045D01*
X477981Y475630D01*
X477482Y476833D01*
X477004Y477457D01*
X477250Y477957D01*
X480217D01*
X480972Y476972D01*
X482005Y476179D01*
X483209Y475681D01*
X483700Y475616D01*
Y480500D01*
X485300D01*
Y475616D01*
X485791Y475681D01*
X486995Y476179D01*
X487537Y476595D01*
X488037Y476349D01*
Y473155D01*
X482719Y467837D01*
X468312D01*
X461711Y474438D01*
Y488026D01*
X463478Y489793D01*
X463988D01*
Y488071D01*
D02*
G37*
%LPC*%
G36*
X791018Y70200D02*
X786934D01*
Y66116D01*
X787425Y66181D01*
X788628Y66679D01*
X789662Y67472D01*
X790455Y68505D01*
X790953Y69709D01*
X791018Y70200D01*
D02*
G37*
G36*
X576700D02*
X572616D01*
X572681Y69709D01*
X573179Y68505D01*
X573972Y67472D01*
X575005Y66679D01*
X576209Y66181D01*
X576700Y66116D01*
Y70200D01*
D02*
G37*
G36*
X373750D02*
X369666D01*
Y66116D01*
X370157Y66181D01*
X371361Y66679D01*
X372394Y67472D01*
X373187Y68505D01*
X373685Y69709D01*
X373750Y70200D01*
D02*
G37*
G36*
X785334D02*
X781250D01*
X781315Y69709D01*
X781813Y68505D01*
X782606Y67472D01*
X783639Y66679D01*
X784843Y66181D01*
X785334Y66116D01*
Y70200D01*
D02*
G37*
G36*
X582384D02*
X578300D01*
Y66116D01*
X578791Y66181D01*
X579995Y66679D01*
X581028Y67472D01*
X581821Y68505D01*
X582319Y69709D01*
X582384Y70200D01*
D02*
G37*
G36*
X678800Y643884D02*
Y639800D01*
X682884D01*
X682819Y640291D01*
X682321Y641495D01*
X681528Y642528D01*
X680495Y643321D01*
X679291Y643819D01*
X678800Y643884D01*
D02*
G37*
G36*
X786934Y75884D02*
Y71800D01*
X791018D01*
X790953Y72291D01*
X790455Y73495D01*
X789662Y74528D01*
X788628Y75321D01*
X787425Y75819D01*
X786934Y75884D01*
D02*
G37*
G36*
X785334D02*
X784843Y75819D01*
X783639Y75321D01*
X782606Y74528D01*
X781813Y73495D01*
X781315Y72291D01*
X781250Y71800D01*
X785334D01*
Y75884D01*
D02*
G37*
G36*
X884300Y625884D02*
Y621800D01*
X888384D01*
X888319Y622291D01*
X887821Y623495D01*
X887028Y624528D01*
X885995Y625321D01*
X884791Y625819D01*
X884300Y625884D01*
D02*
G37*
G36*
X146200Y117200D02*
X142116D01*
X142181Y116709D01*
X142679Y115505D01*
X143472Y114472D01*
X144505Y113679D01*
X145709Y113181D01*
X146200Y113116D01*
Y117200D01*
D02*
G37*
G36*
X882700Y625884D02*
X882209Y625819D01*
X881005Y625321D01*
X879972Y624528D01*
X879179Y623495D01*
X878681Y622291D01*
X878616Y621800D01*
X882700D01*
Y625884D01*
D02*
G37*
G36*
X368066Y75884D02*
X367575Y75819D01*
X366372Y75321D01*
X365338Y74528D01*
X364545Y73495D01*
X364047Y72291D01*
X363982Y71800D01*
X368066D01*
Y75884D01*
D02*
G37*
G36*
X677200Y643884D02*
X676709Y643819D01*
X675505Y643321D01*
X674472Y642528D01*
X673679Y641495D01*
X673181Y640291D01*
X673116Y639800D01*
X677200D01*
Y643884D01*
D02*
G37*
G36*
X369666Y75884D02*
Y71800D01*
X373750D01*
X373685Y72291D01*
X373187Y73495D01*
X372394Y74528D01*
X371361Y75321D01*
X370157Y75819D01*
X369666Y75884D01*
D02*
G37*
G36*
X578300D02*
Y71800D01*
X582384D01*
X582319Y72291D01*
X581821Y73495D01*
X581028Y74528D01*
X579995Y75321D01*
X578791Y75819D01*
X578300Y75884D01*
D02*
G37*
G36*
X576700D02*
X576209Y75819D01*
X575005Y75321D01*
X573972Y74528D01*
X573179Y73495D01*
X572681Y72291D01*
X572616Y71800D01*
X576700D01*
Y75884D01*
D02*
G37*
G36*
X269384Y56216D02*
X265300D01*
Y52132D01*
X265791Y52197D01*
X266995Y52695D01*
X268028Y53488D01*
X268821Y54521D01*
X269319Y55725D01*
X269384Y56216D01*
D02*
G37*
G36*
X263700D02*
X259616D01*
X259681Y55725D01*
X260179Y54521D01*
X260972Y53488D01*
X262005Y52695D01*
X263209Y52197D01*
X263700Y52132D01*
Y56216D01*
D02*
G37*
G36*
X472361D02*
X468278D01*
X468342Y55725D01*
X468841Y54521D01*
X469634Y53488D01*
X470667Y52695D01*
X471870Y52197D01*
X472361Y52132D01*
Y56216D01*
D02*
G37*
G36*
X681023D02*
X676939D01*
X677004Y55725D01*
X677502Y54521D01*
X678295Y53488D01*
X679328Y52695D01*
X680532Y52197D01*
X681023Y52132D01*
Y56216D01*
D02*
G37*
G36*
X478045D02*
X473961D01*
Y52132D01*
X474453Y52197D01*
X475656Y52695D01*
X476689Y53488D01*
X477482Y54521D01*
X477981Y55725D01*
X478045Y56216D01*
D02*
G37*
G36*
X889684Y682200D02*
X885600D01*
X885665Y681709D01*
X886164Y680505D01*
X886956Y679472D01*
X887990Y678679D01*
X889193Y678181D01*
X889684Y678116D01*
Y682200D01*
D02*
G37*
G36*
X895368D02*
X891284D01*
Y678116D01*
X891776Y678181D01*
X892979Y678679D01*
X894012Y679472D01*
X894805Y680505D01*
X895303Y681709D01*
X895368Y682200D01*
D02*
G37*
G36*
X686707D02*
X682623D01*
Y678116D01*
X683114Y678181D01*
X684317Y678679D01*
X685351Y679472D01*
X686143Y680505D01*
X686642Y681709D01*
X686707Y682200D01*
D02*
G37*
G36*
X478045D02*
X473961D01*
Y678116D01*
X474453Y678181D01*
X475656Y678679D01*
X476689Y679472D01*
X477482Y680505D01*
X477981Y681709D01*
X478045Y682200D01*
D02*
G37*
G36*
X681023D02*
X676939D01*
X677004Y681709D01*
X677502Y680505D01*
X678295Y679472D01*
X679328Y678679D01*
X680532Y678181D01*
X681023Y678116D01*
Y682200D01*
D02*
G37*
G36*
X686707Y56216D02*
X682623D01*
Y52132D01*
X683114Y52197D01*
X684317Y52695D01*
X685351Y53488D01*
X686143Y54521D01*
X686642Y55725D01*
X686707Y56216D01*
D02*
G37*
G36*
X259405Y69752D02*
X256827D01*
Y65993D01*
X259405D01*
Y69752D01*
D02*
G37*
G36*
X469800Y661384D02*
Y657300D01*
X473884D01*
X473819Y657791D01*
X473321Y658995D01*
X472528Y660028D01*
X471495Y660821D01*
X470291Y661319D01*
X469800Y661384D01*
D02*
G37*
G36*
X272244Y69752D02*
X269666D01*
Y65993D01*
X272244D01*
Y69752D01*
D02*
G37*
G36*
X368066Y70200D02*
X363982D01*
X364047Y69709D01*
X364545Y68505D01*
X365338Y67472D01*
X366372Y66679D01*
X367575Y66181D01*
X368066Y66116D01*
Y70200D01*
D02*
G37*
G36*
X468200Y661384D02*
X467709Y661319D01*
X466505Y660821D01*
X465472Y660028D01*
X464679Y658995D01*
X464181Y657791D01*
X464116Y657300D01*
X468200D01*
Y661384D01*
D02*
G37*
G36*
X472361Y682200D02*
X468278D01*
X468342Y681709D01*
X468841Y680505D01*
X469634Y679472D01*
X470667Y678679D01*
X471870Y678181D01*
X472361Y678116D01*
Y682200D01*
D02*
G37*
G36*
X889684Y56216D02*
X885600D01*
X885665Y55725D01*
X886164Y54521D01*
X886956Y53488D01*
X887990Y52695D01*
X889193Y52197D01*
X889684Y52132D01*
Y56216D01*
D02*
G37*
G36*
X263700Y682200D02*
X259616D01*
X259681Y681709D01*
X260179Y680505D01*
X260972Y679472D01*
X262005Y678679D01*
X263209Y678181D01*
X263700Y678116D01*
Y682200D01*
D02*
G37*
G36*
X268066Y69752D02*
X265335D01*
Y65193D01*
X263735D01*
Y69752D01*
X261005D01*
Y65193D01*
X260205D01*
Y64393D01*
X256827D01*
Y60634D01*
X260411D01*
X260658Y60134D01*
X260179Y59510D01*
X259681Y58307D01*
X259616Y57816D01*
X269384D01*
X269319Y58307D01*
X268821Y59510D01*
X268342Y60134D01*
X268589Y60634D01*
X272244D01*
Y64393D01*
X268866D01*
Y65193D01*
X268066D01*
Y69752D01*
D02*
G37*
G36*
X256800Y680384D02*
Y676300D01*
X260884D01*
X260819Y676791D01*
X260321Y677995D01*
X259528Y679028D01*
X258495Y679821D01*
X257291Y680319D01*
X256800Y680384D01*
D02*
G37*
G36*
X478045Y264877D02*
X473961D01*
Y260793D01*
X474453Y260858D01*
X475656Y261356D01*
X476689Y262149D01*
X477482Y263183D01*
X477981Y264386D01*
X478045Y264877D01*
D02*
G37*
G36*
X472361D02*
X468278D01*
X468342Y264386D01*
X468841Y263183D01*
X469634Y262149D01*
X470667Y261356D01*
X471870Y260858D01*
X472361Y260793D01*
Y264877D01*
D02*
G37*
G36*
X681023D02*
X676939D01*
X677004Y264386D01*
X677502Y263183D01*
X678295Y262149D01*
X679328Y261356D01*
X680532Y260858D01*
X681023Y260793D01*
Y264877D01*
D02*
G37*
G36*
X889684D02*
X885600D01*
X885665Y264386D01*
X886164Y263183D01*
X886956Y262149D01*
X887990Y261356D01*
X889193Y260858D01*
X889684Y260793D01*
Y264877D01*
D02*
G37*
G36*
X686707D02*
X682623D01*
Y260793D01*
X683114Y260858D01*
X684317Y261356D01*
X685351Y262149D01*
X686143Y263183D01*
X686642Y264386D01*
X686707Y264877D01*
D02*
G37*
G36*
X1098346Y473539D02*
X1094262D01*
X1094326Y473047D01*
X1094825Y471844D01*
X1095618Y470811D01*
X1096651Y470018D01*
X1097854Y469519D01*
X1098346Y469455D01*
Y473539D01*
D02*
G37*
G36*
X471300Y240884D02*
Y236800D01*
X475384D01*
X475319Y237291D01*
X474821Y238495D01*
X474028Y239528D01*
X472995Y240321D01*
X471791Y240819D01*
X471300Y240884D01*
D02*
G37*
G36*
X895368Y473539D02*
X891284D01*
Y469455D01*
X891776Y469519D01*
X892979Y470018D01*
X894012Y470811D01*
X894805Y471844D01*
X895303Y473047D01*
X895368Y473539D01*
D02*
G37*
G36*
X269384Y264877D02*
X265300D01*
Y260793D01*
X265791Y260858D01*
X266995Y261356D01*
X268028Y262149D01*
X268821Y263183D01*
X269319Y264386D01*
X269384Y264877D01*
D02*
G37*
G36*
X263700D02*
X259616D01*
X259681Y264386D01*
X260179Y263183D01*
X260972Y262149D01*
X262005Y261356D01*
X263209Y260858D01*
X263700Y260793D01*
Y264877D01*
D02*
G37*
G36*
X478045Y473539D02*
X473961D01*
Y469455D01*
X474453Y469519D01*
X475656Y470018D01*
X476689Y470811D01*
X477482Y471844D01*
X477981Y473047D01*
X478045Y473539D01*
D02*
G37*
G36*
X681023D02*
X676939D01*
X677004Y473047D01*
X677502Y471844D01*
X678295Y470811D01*
X679328Y470018D01*
X680532Y469519D01*
X681023Y469455D01*
Y473539D01*
D02*
G37*
G36*
X472361D02*
X468278D01*
X468342Y473047D01*
X468841Y471844D01*
X469634Y470811D01*
X470667Y470018D01*
X471870Y469519D01*
X472361Y469455D01*
Y473539D01*
D02*
G37*
G36*
X257800Y471384D02*
Y467300D01*
X261884D01*
X261819Y467791D01*
X261321Y468995D01*
X260528Y470028D01*
X259495Y470821D01*
X258291Y471319D01*
X257800Y471384D01*
D02*
G37*
G36*
X263700Y473539D02*
X259616D01*
X259681Y473047D01*
X260179Y471844D01*
X260972Y470811D01*
X262005Y470018D01*
X263209Y469519D01*
X263700Y469455D01*
Y473539D01*
D02*
G37*
G36*
X1098346Y264877D02*
X1094262D01*
X1094326Y264386D01*
X1094825Y263183D01*
X1095618Y262149D01*
X1096651Y261356D01*
X1097854Y260858D01*
X1098346Y260793D01*
Y264877D01*
D02*
G37*
G36*
X895368D02*
X891284D01*
Y260793D01*
X891776Y260858D01*
X892979Y261356D01*
X894012Y262149D01*
X894805Y263183D01*
X895303Y264386D01*
X895368Y264877D01*
D02*
G37*
G36*
X1104029D02*
X1099946D01*
Y260793D01*
X1100437Y260858D01*
X1101640Y261356D01*
X1102674Y262149D01*
X1103466Y263183D01*
X1103965Y264386D01*
X1104029Y264877D01*
D02*
G37*
G36*
X686707Y473539D02*
X682623D01*
Y469455D01*
X683114Y469519D01*
X684317Y470018D01*
X685351Y470811D01*
X686143Y471844D01*
X686642Y473047D01*
X686707Y473539D01*
D02*
G37*
G36*
X889684D02*
X885600D01*
X885665Y473047D01*
X886164Y471844D01*
X886956Y470811D01*
X887990Y470018D01*
X889193Y469519D01*
X889684Y469455D01*
Y473539D01*
D02*
G37*
G36*
X469700Y240884D02*
X469209Y240819D01*
X468005Y240321D01*
X466972Y239528D01*
X466179Y238495D01*
X465681Y237291D01*
X465616Y236800D01*
X469700D01*
Y240884D01*
D02*
G37*
G36*
X71700Y583384D02*
X71209Y583319D01*
X70005Y582821D01*
X68972Y582028D01*
X68179Y580995D01*
X67681Y579791D01*
X67616Y579300D01*
X71700D01*
Y583384D01*
D02*
G37*
G36*
X1100884Y181700D02*
X1096800D01*
Y177616D01*
X1097291Y177681D01*
X1098495Y178179D01*
X1099528Y178972D01*
X1100321Y180005D01*
X1100819Y181209D01*
X1100884Y181700D01*
D02*
G37*
G36*
X77384Y577700D02*
X73300D01*
Y573616D01*
X73791Y573681D01*
X74995Y574179D01*
X76028Y574972D01*
X76821Y576005D01*
X77319Y577209D01*
X77384Y577700D01*
D02*
G37*
G36*
X1096800Y187384D02*
Y183300D01*
X1100884D01*
X1100819Y183791D01*
X1100321Y184995D01*
X1099528Y186028D01*
X1098495Y186821D01*
X1097291Y187319D01*
X1096800Y187384D01*
D02*
G37*
G36*
X1095200D02*
X1094709Y187319D01*
X1093505Y186821D01*
X1092472Y186028D01*
X1091679Y184995D01*
X1091181Y183791D01*
X1091116Y183300D01*
X1095200D01*
Y187384D01*
D02*
G37*
G36*
X146200Y122884D02*
X145709Y122819D01*
X144505Y122321D01*
X143472Y121528D01*
X142679Y120495D01*
X142181Y119291D01*
X142116Y118800D01*
X146200D01*
Y122884D01*
D02*
G37*
G36*
X151884Y117200D02*
X147800D01*
Y113116D01*
X148291Y113181D01*
X149495Y113679D01*
X150528Y114472D01*
X151321Y115505D01*
X151819Y116709D01*
X151884Y117200D01*
D02*
G37*
G36*
X147800Y122884D02*
Y118800D01*
X151884D01*
X151819Y119291D01*
X151321Y120495D01*
X150528Y121528D01*
X149495Y122321D01*
X148291Y122819D01*
X147800Y122884D01*
D02*
G37*
G36*
X1095200Y181700D02*
X1091116D01*
X1091181Y181209D01*
X1091679Y180005D01*
X1092472Y178972D01*
X1093505Y178179D01*
X1094709Y177681D01*
X1095200Y177616D01*
Y181700D01*
D02*
G37*
G36*
X73300Y583384D02*
Y579300D01*
X77384D01*
X77319Y579791D01*
X76821Y580995D01*
X76028Y582028D01*
X74995Y582821D01*
X73791Y583319D01*
X73300Y583384D01*
D02*
G37*
G36*
X887300Y205884D02*
Y201800D01*
X891384D01*
X891319Y202291D01*
X890821Y203495D01*
X890028Y204528D01*
X888995Y205321D01*
X887791Y205819D01*
X887300Y205884D01*
D02*
G37*
G36*
X885700D02*
X885209Y205819D01*
X884005Y205321D01*
X882972Y204528D01*
X882179Y203495D01*
X881681Y202291D01*
X881616Y201800D01*
X885700D01*
Y205884D01*
D02*
G37*
G36*
X676200Y223384D02*
X675709Y223319D01*
X674505Y222821D01*
X673472Y222028D01*
X672679Y220995D01*
X672181Y219791D01*
X672116Y219300D01*
X676200D01*
Y223384D01*
D02*
G37*
G36*
X1104029Y473539D02*
X1099946D01*
Y469455D01*
X1100437Y469519D01*
X1101640Y470018D01*
X1102674Y470811D01*
X1103466Y471844D01*
X1103965Y473047D01*
X1104029Y473539D01*
D02*
G37*
G36*
X677800Y223384D02*
Y219300D01*
X681884D01*
X681819Y219791D01*
X681321Y220995D01*
X680528Y222028D01*
X679495Y222821D01*
X678291Y223319D01*
X677800Y223384D01*
D02*
G37*
G36*
X77384Y190700D02*
X73300D01*
Y186616D01*
X73791Y186681D01*
X74995Y187179D01*
X76028Y187972D01*
X76821Y189005D01*
X77319Y190209D01*
X77384Y190700D01*
D02*
G37*
G36*
X71700Y577700D02*
X67616D01*
X67681Y577209D01*
X68179Y576005D01*
X68972Y574972D01*
X70005Y574179D01*
X71209Y573681D01*
X71700Y573616D01*
Y577700D01*
D02*
G37*
G36*
Y196384D02*
X71209Y196319D01*
X70005Y195821D01*
X68972Y195028D01*
X68179Y193995D01*
X67681Y192791D01*
X67616Y192300D01*
X71700D01*
Y196384D01*
D02*
G37*
G36*
X885700Y200200D02*
X881616D01*
X881681Y199709D01*
X882179Y198505D01*
X882972Y197472D01*
X884005Y196679D01*
X885209Y196181D01*
X885700Y196116D01*
Y200200D01*
D02*
G37*
G36*
X73300Y196384D02*
Y192300D01*
X77384D01*
X77319Y192791D01*
X76821Y193995D01*
X76028Y195028D01*
X74995Y195821D01*
X73791Y196319D01*
X73300Y196384D01*
D02*
G37*
%LPD*%
D10*
X1103512Y76807D02*
D03*
X1099181D02*
D03*
X1094850D02*
D03*
Y65193D02*
D03*
X1099181D02*
D03*
X1103512D02*
D03*
X268866Y76807D02*
D03*
X264535D02*
D03*
X260205D02*
D03*
Y65193D02*
D03*
X264535D02*
D03*
X268866D02*
D03*
X1103512Y702791D02*
D03*
X1099181D02*
D03*
X1094850D02*
D03*
Y691177D02*
D03*
X1099181D02*
D03*
X1103512D02*
D03*
X268866Y702791D02*
D03*
X264535D02*
D03*
X260205D02*
D03*
Y691177D02*
D03*
X264535D02*
D03*
X268866D02*
D03*
X477528Y702791D02*
D03*
X473197D02*
D03*
X468866D02*
D03*
Y691177D02*
D03*
X473197D02*
D03*
X477528D02*
D03*
X686189Y702791D02*
D03*
X681858D02*
D03*
X677528D02*
D03*
Y691177D02*
D03*
X681858D02*
D03*
X686189D02*
D03*
X894850Y702791D02*
D03*
X890520D02*
D03*
X886189D02*
D03*
Y691177D02*
D03*
X890520D02*
D03*
X894850D02*
D03*
X1103512Y494130D02*
D03*
X1099181D02*
D03*
X1094850D02*
D03*
Y482516D02*
D03*
X1099181D02*
D03*
X1103512D02*
D03*
X894850Y494130D02*
D03*
X890520D02*
D03*
X886189D02*
D03*
Y482516D02*
D03*
X890520D02*
D03*
X894850D02*
D03*
X686189Y494130D02*
D03*
X681858D02*
D03*
X677528D02*
D03*
Y482516D02*
D03*
X681858D02*
D03*
X686189D02*
D03*
X477528Y494130D02*
D03*
X473197D02*
D03*
X468866D02*
D03*
Y482516D02*
D03*
X473197D02*
D03*
X477528D02*
D03*
X268866Y494130D02*
D03*
X264535D02*
D03*
X260205D02*
D03*
Y482516D02*
D03*
X264535D02*
D03*
X268866D02*
D03*
Y285469D02*
D03*
X264535D02*
D03*
X260205D02*
D03*
Y273854D02*
D03*
X264535D02*
D03*
X268866D02*
D03*
X477528Y285469D02*
D03*
X473197D02*
D03*
X468866D02*
D03*
Y273854D02*
D03*
X473197D02*
D03*
X477528D02*
D03*
X686189Y285469D02*
D03*
X681858D02*
D03*
X677528D02*
D03*
Y273854D02*
D03*
X681858D02*
D03*
X686189D02*
D03*
X894850Y285469D02*
D03*
X890520D02*
D03*
X886189D02*
D03*
Y273854D02*
D03*
X890520D02*
D03*
X894850D02*
D03*
X1103512Y285469D02*
D03*
X1099181D02*
D03*
X1094850D02*
D03*
Y273854D02*
D03*
X1099181D02*
D03*
X1103512D02*
D03*
X894850Y76807D02*
D03*
X890520D02*
D03*
X886189D02*
D03*
Y65193D02*
D03*
X890520D02*
D03*
X894850D02*
D03*
X686189Y76807D02*
D03*
X681858D02*
D03*
X677528D02*
D03*
Y65193D02*
D03*
X681858D02*
D03*
X686189D02*
D03*
X477528Y76807D02*
D03*
X473197D02*
D03*
X468866D02*
D03*
Y65193D02*
D03*
X473197D02*
D03*
X477528D02*
D03*
D11*
X1136000Y-23250D02*
Y-20750D01*
Y784939D02*
X1138500D01*
X-21000Y777189D02*
Y779689D01*
X-23500Y-28500D02*
X-21000D01*
X0Y770500D02*
X32500D01*
X-2500Y738000D02*
Y768000D01*
X1132500Y735500D02*
Y768000D01*
X1100000Y770500D02*
X1130000D01*
X1097500Y-2500D02*
X1130000D01*
X1132500Y0D02*
Y30000D01*
X-15000Y-14750D02*
Y17750D01*
X-12500Y-17250D02*
X17500D01*
X0Y-2500D02*
X30000D01*
X-2500Y0D02*
Y32500D01*
X45748Y289000D02*
X68374D01*
X71374Y292000D01*
X45748Y249000D02*
X68374D01*
X71374Y252000D01*
X45748Y329000D02*
X68374D01*
X71374Y332000D01*
X68500Y519000D02*
X71500Y522000D01*
X45874Y519000D02*
X68500D01*
Y479000D02*
X71500Y482000D01*
X45874Y479000D02*
X68500D01*
Y439000D02*
X71500Y442000D01*
X45874Y439000D02*
X68500D01*
X67713Y669000D02*
X70713Y666000D01*
X45087Y669000D02*
X67713D01*
Y629000D02*
X70713Y632000D01*
X45087Y629000D02*
X67713D01*
X25500Y102795D02*
Y87000D01*
Y94898D01*
X36030D01*
Y102795D01*
Y87000D01*
X51825Y102795D02*
X41295D01*
Y94898D01*
X46560D01*
X41295D01*
Y87000D01*
X57090Y102795D02*
Y89632D01*
X59722Y87000D01*
X64987D01*
X67620Y89632D01*
Y102795D01*
D12*
X901839Y463500D02*
X909697Y471358D01*
Y568677D01*
X874697Y55319D02*
Y72500D01*
Y55319D02*
X883839Y46177D01*
X901839D01*
X909697Y54035D01*
X20374Y205000D02*
X186374Y39000D01*
X484516Y46177D02*
X492374Y54035D01*
X466516Y46177D02*
X484516D01*
X457374Y55319D02*
X466516Y46177D01*
X457374Y55319D02*
Y72500D01*
X693177Y46177D02*
X701035Y54035D01*
X675177Y46177D02*
X693177D01*
X666035Y55319D02*
X675177Y46177D01*
X666035Y55319D02*
Y72500D01*
X248713Y263980D02*
Y281161D01*
Y263980D02*
X257854Y254839D01*
X275854D01*
X283713Y262697D01*
X457374Y472642D02*
Y489823D01*
Y472642D02*
X466516Y463500D01*
X484516D01*
X492374Y471358D01*
X666035Y472642D02*
Y489823D01*
Y472642D02*
X675177Y463500D01*
X693177D01*
X701035Y471358D01*
X874697Y472642D02*
Y489823D01*
Y472642D02*
X883839Y463500D01*
X901839D01*
X1110500D02*
X1118358Y471358D01*
X1092500Y463500D02*
X1110500D01*
X1083358Y472642D02*
X1092500Y463500D01*
X1083358Y472642D02*
Y489823D01*
X260205Y76807D02*
Y89669D01*
X256874Y93000D02*
X260205Y89669D01*
X141374Y93000D02*
X256874D01*
X264535Y76807D02*
Y93839D01*
X258874Y99500D02*
X264535Y93839D01*
X142874Y99500D02*
X258874D01*
X268866Y76807D02*
Y98508D01*
X261874Y105500D02*
X268866Y98508D01*
X144874Y105500D02*
X261874D01*
X477528Y76807D02*
Y109346D01*
X475374Y111500D02*
X477528Y109346D01*
X167874Y111500D02*
X475374D01*
X484874Y74500D02*
Y113500D01*
X480749Y117625D02*
X484874Y113500D01*
X492374Y54035D02*
Y116500D01*
X485124Y123750D02*
X492374Y116500D01*
X174624Y123750D02*
X485124D01*
X686189Y76807D02*
Y125185D01*
X681499Y129875D02*
X686189Y125185D01*
X178499Y129875D02*
X681499D01*
X693535Y74500D02*
Y129339D01*
X686874Y136000D02*
X693535Y129339D01*
X182374Y136000D02*
X686874D01*
X701035Y54035D02*
Y131839D01*
X690749Y142125D02*
X701035Y131839D01*
X186249Y142125D02*
X690749D01*
X894850Y76807D02*
Y139524D01*
X886124Y148250D02*
X894850Y139524D01*
X190124Y148250D02*
X886124D01*
X902197Y74500D02*
Y143677D01*
X891499Y154375D02*
X902197Y143677D01*
X193499Y154375D02*
X891499D01*
X909697Y54197D02*
Y147177D01*
X896374Y160500D02*
X909697Y147177D01*
X197374Y160500D02*
X896374D01*
X1083358Y186984D02*
Y281161D01*
X1075249Y178875D02*
X1083358Y186984D01*
X208499Y178875D02*
X1075249D01*
X204624Y172750D02*
X1101624D01*
X874697Y205323D02*
Y281161D01*
X866624Y197250D02*
X874697Y205323D01*
X220624Y197250D02*
X866624D01*
X902197Y202823D02*
Y276161D01*
X890499Y191125D02*
X902197Y202823D01*
X216749Y191125D02*
X890499D01*
X908358Y196484D02*
Y279146D01*
X896874Y185000D02*
X908358Y196484D01*
X212374Y185000D02*
X896874D01*
X666035Y222161D02*
Y281161D01*
X659499Y215625D02*
X666035Y222161D01*
X231249Y215625D02*
X659499D01*
X693535Y219661D02*
Y276161D01*
X683374Y209500D02*
X693535Y219661D01*
X227874Y209500D02*
X683374D01*
X699697Y213323D02*
Y279146D01*
X689749Y203375D02*
X699697Y213323D01*
X223999Y203375D02*
X689749D01*
X457374Y239500D02*
Y281161D01*
X451874Y234000D02*
X457374Y239500D01*
X242874Y234000D02*
X451874D01*
X484874Y235500D02*
Y276161D01*
X477249Y227875D02*
X484874Y235500D01*
X238999Y227875D02*
X477249D01*
X491035Y232661D02*
Y279146D01*
X480124Y221750D02*
X491035Y232661D01*
X235124Y221750D02*
X480124D01*
X1099374Y89000D02*
X1103512Y84862D01*
X1097874Y83500D02*
X1099181Y82193D01*
X1103512Y76807D02*
Y84862D01*
X1099181Y76807D02*
Y82193D01*
X1083358Y679016D02*
X1088874Y673500D01*
X1083358Y679016D02*
Y698484D01*
X1087665Y702791D02*
X1094850D01*
X1083358Y698484D02*
X1087665Y702791D01*
X1099181Y698161D02*
Y702791D01*
Y698161D02*
X1100358Y696984D01*
X902035Y702791D02*
X908358Y696468D01*
X894850Y702791D02*
X902035D01*
X879004D02*
X886189D01*
X898697Y696984D02*
X902197Y693484D01*
X890520Y698161D02*
Y702791D01*
Y698161D02*
X891697Y696984D01*
X898697D01*
X693374Y702791D02*
X699697Y696468D01*
X686189Y702791D02*
X693374D01*
X670342D02*
X677528D01*
X666035Y698484D02*
X670342Y702791D01*
X690035Y696984D02*
X693535Y693484D01*
X681858Y698161D02*
Y702791D01*
Y698161D02*
X683035Y696984D01*
X690035D01*
X484713Y702791D02*
X491035Y696468D01*
X477528Y702791D02*
X484713D01*
X461681D02*
X468866D01*
X457374Y698484D02*
X461681Y702791D01*
X481374Y696984D02*
X484874Y693484D01*
X473197Y698161D02*
Y702791D01*
Y698161D02*
X474374Y696984D01*
X481374D01*
X30374Y212000D02*
X142874Y99500D01*
X25374Y209000D02*
X141374Y93000D01*
X894850Y494130D02*
Y552524D01*
X878624Y568750D02*
X894850Y552524D01*
X220624Y568750D02*
X878624D01*
X902197Y491823D02*
Y561677D01*
X888999Y574875D02*
X902197Y561677D01*
X216749Y574875D02*
X888999D01*
X897374Y581000D02*
X909697Y568677D01*
X212374Y581000D02*
X897374D01*
X686189Y494130D02*
Y535185D01*
X670999Y550375D02*
X686189Y535185D01*
X231249Y550375D02*
X670999D01*
X693535Y491823D02*
Y544339D01*
X681374Y556500D02*
X693535Y544339D01*
X227874Y556500D02*
X681374D01*
X701035Y471358D02*
Y550839D01*
X689249Y562625D02*
X701035Y550839D01*
X223999Y562625D02*
X689249D01*
X477528Y494130D02*
Y522346D01*
X467874Y532000D02*
X477528Y522346D01*
X242874Y532000D02*
X467874D01*
X484874Y491823D02*
Y530000D01*
X476749Y538125D02*
X484874Y530000D01*
X238999Y538125D02*
X476749D01*
X492374Y471358D02*
Y537500D01*
X485624Y544250D02*
X492374Y537500D01*
X235124Y544250D02*
X485624D01*
X874697Y626323D02*
Y698484D01*
X866124Y617750D02*
X874697Y626323D01*
X190124Y617750D02*
X866124D01*
X902197Y625323D02*
Y693484D01*
X888499Y611625D02*
X902197Y625323D01*
X193499Y611625D02*
X888499D01*
X908358Y619484D02*
Y696468D01*
X894374Y605500D02*
X908358Y619484D01*
X197374Y605500D02*
X894374D01*
X666035Y641661D02*
Y698484D01*
X660499Y636125D02*
X666035Y641661D01*
X693535Y638661D02*
Y693484D01*
X684874Y630000D02*
X693535Y638661D01*
X182374Y630000D02*
X684874D01*
X699697Y633323D02*
Y696468D01*
X690249Y623875D02*
X699697Y633323D01*
X186249Y623875D02*
X690249D01*
X457374Y660000D02*
Y698484D01*
X451874Y654500D02*
X457374Y660000D01*
X167874Y654500D02*
X451874D01*
X484874Y656000D02*
Y693484D01*
X477249Y648375D02*
X484874Y656000D01*
X171249Y648375D02*
X477249D01*
X491035Y652661D02*
Y696468D01*
X480624Y642250D02*
X491035Y652661D01*
X174624Y642250D02*
X480624D01*
X248713Y680839D02*
Y698484D01*
X240749Y672875D02*
X248713Y680839D01*
X157249Y672875D02*
X240749D01*
X163999Y660625D02*
X264838D01*
X160624Y666750D02*
X261463D01*
X264838Y660625D02*
X282374Y678161D01*
Y696468D01*
X276051Y702791D02*
X282374Y696468D01*
X272713Y696984D02*
X276213Y693484D01*
Y681500D02*
Y693484D01*
X261463Y666750D02*
X276213Y681500D01*
X178499Y636125D02*
X660499D01*
X248713Y455339D02*
Y489823D01*
X874697Y698484D02*
X879004Y702791D01*
X268866D02*
X276051D01*
X253020D02*
X260205D01*
X248713Y698484D02*
X253020Y702791D01*
X264535Y698161D02*
Y702791D01*
Y698161D02*
X265713Y696984D01*
X272713D01*
X265713Y488323D02*
X272713D01*
X264535Y489500D02*
X265713Y488323D01*
X264535Y489500D02*
Y494130D01*
X272713Y488323D02*
X276213Y484823D01*
X248713Y489823D02*
X253020Y494130D01*
X260205D01*
X276213Y472839D02*
Y484823D01*
X268866Y494130D02*
X276051D01*
X282374Y469500D02*
Y487807D01*
X276051Y494130D02*
X282374Y487807D01*
X1087665Y494130D02*
X1094850D01*
X1083358Y489823D02*
X1087665Y494130D01*
X1107358Y488323D02*
X1110858Y491823D01*
X1099181Y489500D02*
Y494130D01*
Y489500D02*
X1100358Y488323D01*
X1107358D01*
X891697D02*
X898697D01*
X890520Y489500D02*
X891697Y488323D01*
X890520Y489500D02*
Y494130D01*
X898697Y488323D02*
X902197Y491823D01*
X874697Y489823D02*
X879004Y494130D01*
X886189D01*
X457374Y477323D02*
Y489823D01*
X461681Y494130D02*
X468866D01*
X457374Y489823D02*
X461681Y494130D01*
X481374Y488323D02*
X484874Y491823D01*
X473197Y489500D02*
Y494130D01*
Y489500D02*
X474374Y488323D01*
X481374D01*
X683035D02*
X690035D01*
X681858Y489500D02*
X683035Y488323D01*
X681858Y489500D02*
Y494130D01*
X690035Y488323D02*
X693535Y491823D01*
X666035Y489823D02*
X670342Y494130D01*
X677528D01*
X666035Y477323D02*
Y489823D01*
X474374Y71000D02*
X481374D01*
X473197Y72177D02*
X474374Y71000D01*
X473197Y72177D02*
Y76807D01*
X481374Y71000D02*
X484874Y74500D01*
X457374Y72500D02*
X461681Y76807D01*
X468866D01*
X879004D02*
X886189D01*
X874697Y72500D02*
X879004Y76807D01*
X898697Y71000D02*
X902197Y74500D01*
X890520Y72177D02*
Y76807D01*
Y72177D02*
X891697Y71000D01*
X898697D01*
X670342Y76807D02*
X677528D01*
X666035Y72500D02*
X670342Y76807D01*
X690035Y71000D02*
X693535Y74500D01*
X681858Y72177D02*
Y76807D01*
Y72177D02*
X683035Y71000D01*
X690035D01*
X1100358Y279661D02*
X1107358D01*
X1099181Y280839D02*
X1100358Y279661D01*
X1099181Y280839D02*
Y285469D01*
X1083358Y281161D02*
X1087665Y285469D01*
X1094850D01*
X902035D02*
X908358Y279146D01*
X894850Y285469D02*
X902035D01*
X879004D02*
X886189D01*
X874697Y281161D02*
X879004Y285469D01*
X898697Y279661D02*
X902197Y276161D01*
X890520Y280839D02*
Y285469D01*
Y280839D02*
X891697Y279661D01*
X898697D01*
X474374D02*
X481374D01*
X473197Y280839D02*
X474374Y279661D01*
X473197Y280839D02*
Y285469D01*
X481374Y279661D02*
X484874Y276161D01*
X457374Y281161D02*
X461681Y285469D01*
X468866D01*
X477528D02*
X484713D01*
X491035Y279146D01*
X693374Y285469D02*
X699697Y279146D01*
X686189Y285469D02*
X693374D01*
X670342D02*
X677528D01*
X666035Y281161D02*
X670342Y285469D01*
X690035Y279661D02*
X693535Y276161D01*
X681858Y280839D02*
Y285469D01*
Y280839D02*
X683035Y279661D01*
X690035D01*
X276213Y283161D02*
Y305661D01*
X268866Y285469D02*
Y302346D01*
X248713Y268661D02*
Y281161D01*
X253020Y285469D02*
X260205D01*
X248713Y281161D02*
X253020Y285469D01*
X272713Y279661D02*
X276213Y283161D01*
X264535Y280839D02*
Y285469D01*
Y280839D02*
X265713Y279661D01*
X272713D01*
X283713Y262697D02*
Y309000D01*
X171249Y117625D02*
X480749D01*
X74374Y234000D02*
X178499Y129875D01*
X79374Y239000D02*
X182374Y136000D01*
X84374Y244000D02*
X186249Y142125D01*
X79374Y259000D02*
X190124Y148250D01*
X93874Y274000D02*
X201249Y166625D01*
X98374Y279000D02*
X204624Y172750D01*
X103374Y284000D02*
X208499Y178875D01*
X98374Y299000D02*
X212374Y185000D01*
X108874Y309000D02*
X220624Y197250D01*
X122874Y324000D02*
X231249Y215625D01*
X127874Y349000D02*
X242874Y234000D01*
X60374Y219000D02*
X167874Y111500D01*
X264535Y683035D02*
Y691177D01*
X260205Y683295D02*
Y691177D01*
Y683295D02*
X260500Y683000D01*
X268866Y683366D02*
Y691177D01*
X268535Y683035D02*
X268866Y683366D01*
X264535Y683035D02*
X268535D01*
X260500Y683000D02*
X264500D01*
X469161D02*
X473161D01*
X473197Y683035D02*
X477197D01*
X477528Y683366D01*
Y691177D01*
X468866Y683295D02*
X469161Y683000D01*
X468866Y683295D02*
Y691177D01*
X473197Y683035D02*
Y691177D01*
X677823Y683000D02*
X681823D01*
X681858Y683035D02*
X685858D01*
X686189Y683366D01*
Y691177D01*
X677528Y683295D02*
X677823Y683000D01*
X677528Y683295D02*
Y691177D01*
X681858Y683035D02*
Y691177D01*
X886484Y683000D02*
X890484D01*
X890520Y683035D02*
X894520D01*
X894850Y683366D01*
Y691177D01*
X886189Y683295D02*
X886484Y683000D01*
X886189Y683295D02*
Y691177D01*
X890520Y683035D02*
Y691177D01*
X1095146Y683000D02*
X1099146D01*
X1099181Y683035D02*
X1103181D01*
X1103512Y683366D01*
Y691177D01*
X1094850Y683295D02*
X1095146Y683000D01*
X1094850Y683295D02*
Y691177D01*
X1099181Y683035D02*
Y691177D01*
X1095146Y474339D02*
X1099146D01*
X1099181Y474374D02*
X1103181D01*
X1103512Y474705D01*
Y482516D01*
X1094850Y474634D02*
X1095146Y474339D01*
X1094850Y474634D02*
Y482516D01*
X1099181Y474374D02*
Y482516D01*
X886484Y474339D02*
X890484D01*
X890520Y474374D02*
X894520D01*
X894850Y474705D01*
Y482516D01*
X886189Y474634D02*
X886484Y474339D01*
X886189Y474634D02*
Y482516D01*
X890520Y474374D02*
Y482516D01*
X677823Y474339D02*
X681823D01*
X681858Y474374D02*
X685858D01*
X686189Y474705D01*
Y482516D01*
X677528Y474634D02*
X677823Y474339D01*
X677528Y474634D02*
Y482516D01*
X681858Y474374D02*
Y482516D01*
X469161Y474339D02*
X473161D01*
X473197Y474374D02*
X477197D01*
X477528Y474705D01*
Y482516D01*
X468866Y474634D02*
X469161Y474339D01*
X468866Y474634D02*
Y482516D01*
X473197Y474374D02*
Y482516D01*
X260500Y474339D02*
X264500D01*
X264535Y474374D02*
X268535D01*
X268866Y474705D01*
Y482516D01*
X260205Y474634D02*
X260500Y474339D01*
X260205Y474634D02*
Y482516D01*
X264535Y474374D02*
Y482516D01*
X260500Y265677D02*
X264500D01*
X264535Y265713D02*
X268535D01*
X268866Y266043D01*
Y273854D01*
X260205Y265972D02*
X260500Y265677D01*
X260205Y265972D02*
Y273854D01*
X264535Y265713D02*
Y273854D01*
X469161Y265677D02*
X473161D01*
X473197Y265713D02*
X477197D01*
X477528Y266043D01*
Y273854D01*
X468866Y265972D02*
X469161Y265677D01*
X468866Y265972D02*
Y273854D01*
X473197Y265713D02*
Y273854D01*
X677823Y265677D02*
X681823D01*
X681858Y265713D02*
X685858D01*
X686189Y266043D01*
Y273854D01*
X677528Y265972D02*
X677823Y265677D01*
X677528Y265972D02*
Y273854D01*
X681858Y265713D02*
Y273854D01*
X886484Y265677D02*
X890484D01*
X890520Y265713D02*
X894520D01*
X894850Y266043D01*
Y273854D01*
X886189Y265972D02*
X886484Y265677D01*
X886189Y265972D02*
Y273854D01*
X890520Y265713D02*
Y273854D01*
X1095146Y265677D02*
X1099146D01*
X1099181Y265713D02*
X1103181D01*
X1103512Y266043D01*
Y273854D01*
X1094850Y265972D02*
X1095146Y265677D01*
X1094850Y265972D02*
Y273854D01*
X1099181Y265713D02*
Y273854D01*
X1095146Y57016D02*
X1099146D01*
X1099181Y57051D02*
X1103181D01*
X1103512Y57382D01*
Y65193D01*
X1094850Y57311D02*
X1095146Y57016D01*
X1094850Y57311D02*
Y65193D01*
X1099181Y57051D02*
Y65193D01*
X886484Y57016D02*
X890484D01*
X890520Y57051D02*
X894520D01*
X894850Y57382D01*
Y65193D01*
X886189Y57311D02*
X886484Y57016D01*
X886189Y57311D02*
Y65193D01*
X890520Y57051D02*
Y65193D01*
X677823Y57016D02*
X681823D01*
X681858Y57051D02*
X685858D01*
X686189Y57382D01*
Y65193D01*
X677528Y57311D02*
X677823Y57016D01*
X677528Y57311D02*
Y65193D01*
X681858Y57051D02*
Y65193D01*
X469161Y57016D02*
X473161D01*
X473197Y57051D02*
X477197D01*
X477528Y57382D01*
Y65193D01*
X468866Y57311D02*
X469161Y57016D01*
X468866Y57311D02*
Y65193D01*
X473197Y57051D02*
Y65193D01*
X260500Y57016D02*
X264500D01*
X264535Y57051D02*
X268535D01*
X268866Y57382D01*
Y65193D01*
X260205Y57311D02*
X260500Y57016D01*
X260205Y57311D02*
Y65193D01*
X264535Y57051D02*
Y65193D01*
X1101624Y172750D02*
X1111500Y182626D01*
Y275520D01*
X1107358Y279661D02*
X1111500Y275520D01*
X1103512Y285469D02*
X1112035D01*
X1117689Y279815D01*
X201249Y166625D02*
X1105125D01*
X1118358Y179858D01*
Y279146D01*
X1109358Y673500D02*
X1118358Y682500D01*
X1088874Y673500D02*
X1109358D01*
X1100358Y696984D02*
X1107984D01*
X1112000Y701000D01*
X201249Y599375D02*
X1104625D01*
X1118358Y585642D01*
Y471358D02*
Y585642D01*
X204624Y593250D02*
X1101250D01*
X1110858Y583642D01*
Y491823D02*
Y583642D01*
X208499Y587125D02*
X1096875D01*
X1103512Y580488D01*
Y494130D02*
Y580488D01*
X1101000Y717500D02*
X1103512Y714988D01*
Y702791D02*
Y714988D01*
X1104875Y723625D02*
X1112000Y716500D01*
Y701000D02*
Y716500D01*
X1108000Y729500D02*
X1118358Y719142D01*
Y682500D02*
Y719142D01*
X55748Y319000D02*
X56000D01*
X62874Y344000D02*
X122874D01*
X55748Y349000D02*
X56000D01*
X45748Y219500D02*
X50323Y224075D01*
X45748Y239500D02*
X50248Y244000D01*
X45748Y259500D02*
X50248Y264000D01*
X45748Y269500D02*
X50248Y274000D01*
X45748Y279500D02*
X50248Y284000D01*
X45748Y299500D02*
X50248Y304000D01*
X45748Y309500D02*
X50248Y314000D01*
X45748Y319500D02*
X50248Y324000D01*
X45748Y229500D02*
X50248Y234000D01*
X45748Y339500D02*
X50248Y344000D01*
X56000Y219000D02*
X60374D01*
X64827Y224047D02*
X171249Y117625D01*
X62874Y224047D02*
X64827D01*
X69374Y229000D02*
X174624Y123750D01*
X56000Y229000D02*
X69374D01*
X62874Y234000D02*
X74374D01*
X56000Y239000D02*
X79374D01*
X62874Y244000D02*
X84374D01*
X56000Y259000D02*
X79374D01*
X83874Y264000D02*
X193499Y154375D01*
X62874Y264000D02*
X83874D01*
X88874Y269000D02*
X197374Y160500D01*
X56000Y269000D02*
X88874D01*
X62874Y274000D02*
X93874D01*
X56000Y279000D02*
X98374D01*
X62874Y284000D02*
X103374D01*
X56000Y299000D02*
X98374D01*
X103874Y304000D02*
X216749Y191125D01*
X62874Y304000D02*
X103874D01*
X56000Y309000D02*
X108874D01*
X55748D02*
X56000D01*
X113374Y314000D02*
X223999Y203375D01*
X62874Y314000D02*
X113374D01*
X118374Y319000D02*
X227874Y209500D01*
X56000Y319000D02*
X118374D01*
X62874Y324000D02*
X122874D01*
X117874Y339000D02*
X235124Y221750D01*
X56000Y339000D02*
X117874D01*
X55748D02*
X56000D01*
X122874Y344000D02*
X238999Y227875D01*
X56000Y349000D02*
X127874D01*
X217213Y354000D02*
X268866Y302346D01*
X62874Y354000D02*
X217213D01*
X222874Y359000D02*
X276213Y305661D01*
X56000Y359000D02*
X222874D01*
X55874D02*
X56000D01*
X63000Y454000D02*
X125374D01*
X45874Y419500D02*
X50374Y424000D01*
X56000Y449000D02*
X129874D01*
X56000Y429000D02*
X129874D01*
X45874Y509500D02*
X50374Y514000D01*
X45874Y550500D02*
X50874Y555500D01*
X45874Y529500D02*
X50374Y534000D01*
X45874Y499500D02*
X50374Y504000D01*
X45874Y489500D02*
X50374Y494000D01*
X45874Y469500D02*
X50374Y474000D01*
X45874Y459500D02*
X50374Y464000D01*
X45874Y449500D02*
X50374Y454000D01*
X45874Y429500D02*
X50374Y434000D01*
X45874Y409500D02*
X50449Y414075D01*
X50874Y555500D02*
X68874D01*
X167874Y654500D01*
X56000Y549000D02*
X71874D01*
X171249Y648375D01*
X63000Y544000D02*
X76374D01*
X174624Y642250D01*
X56000Y539000D02*
X81374D01*
X178499Y636125D01*
X55874Y539000D02*
X56000D01*
X63000Y534000D02*
X86374D01*
X182374Y630000D01*
X55874Y529000D02*
X56000D01*
X91374D01*
X186249Y623875D01*
X63000Y514000D02*
X86374D01*
X190124Y617750D01*
X56000Y509000D02*
X90874D01*
X193499Y611625D01*
X55874Y509000D02*
X56000D01*
X63000Y504000D02*
X95874D01*
X197374Y605500D01*
X55874Y499000D02*
X56000D01*
X100874D01*
X201249Y599375D01*
X63000Y494000D02*
X105374D01*
X204624Y593250D01*
X56000Y489000D02*
X110374D01*
X208499Y587125D01*
X63000Y474000D02*
X105374D01*
X212374Y581000D01*
X56000Y469000D02*
X110874D01*
X216749Y574875D01*
X63000Y464000D02*
X115874D01*
X220624Y568750D01*
X56000Y459000D02*
X120374D01*
X223999Y562625D01*
X125374Y454000D02*
X227874Y556500D01*
X129874Y449000D02*
X231249Y550375D01*
X124874Y434000D02*
X235124Y544250D01*
X63000Y434000D02*
X124874D01*
X129874Y429000D02*
X238999Y538125D01*
X63000Y424000D02*
X134874D01*
X242874Y532000D01*
X56000Y419000D02*
X212374D01*
X248713Y455339D01*
X63000Y414047D02*
X217421D01*
X276213Y472839D01*
X56000Y409000D02*
X221874D01*
X282374Y469500D01*
X45874Y599500D02*
X50374Y604000D01*
X37500Y639000D02*
X45874D01*
X55874Y669000D02*
X74374D01*
X51500Y644000D02*
X56000Y648500D01*
X45874Y609500D02*
X50374Y614000D01*
X51500Y634000D02*
X56000Y638500D01*
X35374Y215000D02*
X144874Y105500D01*
X55874Y679000D02*
X56000D01*
X51752Y654000D02*
X56252Y658500D01*
X46000Y619500D02*
X50500Y624000D01*
X63126D02*
X79374D01*
X56000Y619000D02*
X83874D01*
X63000Y614000D02*
X88374D01*
X56000Y609000D02*
X93374D01*
X157249Y672875D01*
X63000Y604000D02*
X97874D01*
X160624Y666750D01*
X56000Y599000D02*
X102374D01*
X163999Y660625D01*
X35499Y629500D02*
Y630625D01*
X38874Y634000D01*
X35374Y215000D02*
X35499Y629500D01*
X30374Y212000D02*
Y631874D01*
X37500Y639000D01*
X25374Y209000D02*
Y634874D01*
X34500Y644000D01*
X38874D01*
X20374Y639374D02*
X30000Y649000D01*
X20374Y205000D02*
Y639374D01*
X30000Y649000D02*
X45874D01*
X15374Y643374D02*
X26000Y654000D01*
X39126D01*
X15374Y201000D02*
Y643374D01*
X10374Y648374D02*
X21000Y659000D01*
X46000D01*
X10374Y196500D02*
Y648374D01*
X45748Y360500D02*
X50748Y365500D01*
X227213D01*
X283713Y309000D01*
X107559Y702500D02*
Y709441D01*
X104500Y712500D02*
X107559Y709441D01*
X34500Y681500D02*
X37000Y679000D01*
X46000D01*
X45748Y349500D02*
X47000D01*
X51500Y354000D01*
X45874Y539500D02*
X47000D01*
X51500Y544000D01*
X79374Y624000D02*
X184874Y729500D01*
X1108000D01*
X83874Y619000D02*
X188499Y723625D01*
X1104875D01*
X88374Y614000D02*
X191874Y717500D01*
X1101000D01*
X10374Y196500D02*
X180374Y26500D01*
X15374Y201000D02*
X183374Y33000D01*
X1027000D01*
X1077500Y83500D01*
X1097874D01*
X186374Y39000D02*
X1022500D01*
X1072500Y89000D01*
X1099374D01*
X180374Y26500D02*
X1031000D01*
X1081307Y76807D01*
X1094850D01*
X34500Y681500D02*
Y704500D01*
X42500Y712500D01*
X104500D01*
X56000Y689000D02*
X93000D01*
X97559Y693559D01*
Y702500D01*
X56000Y679000D02*
X109000D01*
X117559Y687559D01*
Y702500D01*
X45874Y689000D02*
Y698374D01*
X49500Y702000D01*
X87559D01*
X24000Y51415D02*
X25183Y52598D01*
X27549D01*
X28732Y51415D01*
Y46683D01*
X27549Y45500D01*
X25183D01*
X24000Y46683D01*
Y51415D01*
X35829Y52598D02*
X33464Y51415D01*
X31098Y49049D01*
Y46683D01*
X32281Y45500D01*
X34647D01*
X35829Y46683D01*
Y47866D01*
X34647Y49049D01*
X31098D01*
X38195Y45500D02*
Y46683D01*
X39378D01*
Y45500D01*
X38195D01*
X48842D02*
X44110D01*
X48842Y50232D01*
Y51415D01*
X47659Y52598D01*
X45293D01*
X44110Y51415D01*
X51208D02*
X52391Y52598D01*
X54757D01*
X55940Y51415D01*
Y46683D01*
X54757Y45500D01*
X52391D01*
X51208Y46683D01*
Y51415D01*
X58306Y45500D02*
X60672D01*
X59488D01*
Y52598D01*
X58306Y51415D01*
X64220Y52598D02*
X68952D01*
Y51415D01*
X64220Y46683D01*
Y45500D01*
X28165Y62707D02*
X27124Y63748D01*
X25041D01*
X24000Y62707D01*
Y58541D01*
X25041Y57500D01*
X27124D01*
X28165Y58541D01*
X30248Y57500D02*
Y61665D01*
X32331Y63748D01*
X34413Y61665D01*
Y57500D01*
Y60624D01*
X30248D01*
X36496Y57500D02*
Y63748D01*
X40661Y57500D01*
Y63748D01*
X42744D02*
X46909D01*
Y62707D01*
X42744Y58541D01*
Y57500D01*
X46909D01*
X48992Y63748D02*
X51075D01*
X50033D01*
Y57500D01*
X48992D01*
X51075D01*
X54199D02*
Y61665D01*
X56281Y63748D01*
X58364Y61665D01*
Y57500D01*
Y60624D01*
X54199D01*
X60447Y57500D02*
Y63748D01*
X64612Y57500D01*
Y63748D01*
X66694D02*
X68777D01*
X67736D01*
Y57500D01*
X66694D01*
X68777D01*
D13*
X50323Y224075D02*
X50350Y224047D01*
X62874D01*
X50248Y234000D02*
X62874D01*
X50248Y244000D02*
X62874D01*
X50248Y264000D02*
X62874D01*
X50248Y274000D02*
X62874D01*
X50248Y284000D02*
X62874D01*
X50248Y304000D02*
X62874D01*
X50248Y324000D02*
X62874D01*
X50248Y314000D02*
X62874D01*
X50248Y344000D02*
X62874D01*
X50374Y504000D02*
X63000D01*
X50374Y534000D02*
X63000D01*
X50374Y514000D02*
X63000D01*
X50374Y494000D02*
X63000D01*
X50374Y474000D02*
X63000D01*
X50374Y464000D02*
X63000D01*
X50374Y454000D02*
X63000D01*
X50374Y434000D02*
X63000D01*
X50374Y424000D02*
X63000D01*
X50476Y414047D02*
X63000D01*
X50449Y414075D02*
X50476Y414047D01*
X50374Y604000D02*
X63000D01*
X50374Y614000D02*
X63000D01*
X38874Y644000D02*
X51500D01*
X38874Y634000D02*
X51500D01*
X39126Y654000D02*
X51752D01*
X50500Y624000D02*
X63126D01*
X51500Y354000D02*
X62874D01*
X51500Y544000D02*
X63000D01*
D14*
X24900Y81796D02*
X28999D01*
X26949D01*
Y69500D01*
X24900D01*
X28999D01*
X35147Y81796D02*
X43344D01*
X39245D01*
Y69500D01*
X53591D02*
X49492D01*
X47443Y71549D01*
Y75648D01*
X49492Y77697D01*
X53591D01*
X55640Y75648D01*
Y73599D01*
X47443D01*
X59739Y69500D02*
Y81796D01*
X63837Y77697D01*
X67936Y81796D01*
Y69500D01*
X42000Y-5003D02*
Y-14000D01*
X47998D01*
X56995Y-5003D02*
X50997D01*
Y-14000D01*
X56995D01*
X50997Y-9501D02*
X53996D01*
X59994Y-5003D02*
Y-14000D01*
X64493D01*
X65992Y-12501D01*
Y-6502D01*
X64493Y-5003D01*
X59994D01*
X68991D02*
Y-14000D01*
X73490D01*
X74989Y-12501D01*
Y-11001D01*
X73490Y-9501D01*
X68991D01*
X73490D01*
X74989Y-8002D01*
Y-6502D01*
X73490Y-5003D01*
X68991D01*
X79488Y-14000D02*
X82487D01*
X83986Y-12501D01*
Y-9501D01*
X82487Y-8002D01*
X79488D01*
X77988Y-9501D01*
Y-12501D01*
X79488Y-14000D01*
X88485Y-8002D02*
X91484D01*
X92984Y-9501D01*
Y-14000D01*
X88485D01*
X86985Y-12501D01*
X88485Y-11001D01*
X92984D01*
X95982Y-8002D02*
Y-14000D01*
Y-11001D01*
X97482Y-9501D01*
X98982Y-8002D01*
X100481D01*
X110978Y-5003D02*
Y-14000D01*
X106479D01*
X104980Y-12501D01*
Y-9501D01*
X106479Y-8002D01*
X110978D01*
X122974D02*
X125973Y-14000D01*
X128972Y-8002D01*
X131971Y-14000D02*
X134970D01*
X133470D01*
Y-5003D01*
X131971Y-6502D01*
X139469Y-14000D02*
Y-12501D01*
X140968D01*
Y-14000D01*
X139469D01*
X146966Y-6502D02*
X148466Y-5003D01*
X151465D01*
X152964Y-6502D01*
Y-12501D01*
X151465Y-14000D01*
X148466D01*
X146966Y-12501D01*
Y-6502D01*
X164960Y-9501D02*
X170958D01*
X188953Y-6502D02*
X187453Y-5003D01*
X184454D01*
X182954Y-6502D01*
Y-12501D01*
X184454Y-14000D01*
X187453D01*
X188953Y-12501D01*
X191952Y-14000D02*
Y-8002D01*
X194950Y-5003D01*
X197950Y-8002D01*
Y-14000D01*
Y-9501D01*
X191952D01*
X200949Y-14000D02*
Y-5003D01*
X206947Y-14000D01*
Y-5003D01*
X209946D02*
X215944D01*
Y-6502D01*
X209946Y-12501D01*
Y-14000D01*
X215944D01*
X218943Y-5003D02*
X221942D01*
X220442D01*
Y-14000D01*
X218943D01*
X221942D01*
X226440D02*
Y-8002D01*
X229439Y-5003D01*
X232438Y-8002D01*
Y-14000D01*
Y-9501D01*
X226440D01*
X235437Y-14000D02*
Y-5003D01*
X241436Y-14000D01*
Y-5003D01*
X244434D02*
X247434D01*
X245934D01*
Y-14000D01*
X244434D01*
X247434D01*
X260929Y-9501D02*
X266927D01*
X278923Y-6502D02*
X280423Y-5003D01*
X283422D01*
X284922Y-6502D01*
Y-12501D01*
X283422Y-14000D01*
X280423D01*
X278923Y-12501D01*
Y-6502D01*
X293918Y-5003D02*
X290919Y-6502D01*
X287920Y-9501D01*
Y-12501D01*
X289420Y-14000D01*
X292419D01*
X293918Y-12501D01*
Y-11001D01*
X292419Y-9501D01*
X287920D01*
X296918Y-14000D02*
Y-12501D01*
X298417D01*
Y-14000D01*
X296918D01*
X304415Y-6502D02*
X305915Y-5003D01*
X308914D01*
X310413Y-6502D01*
Y-12501D01*
X308914Y-14000D01*
X305915D01*
X304415Y-12501D01*
Y-6502D01*
X319410Y-5003D02*
X316411Y-6502D01*
X313412Y-9501D01*
Y-12501D01*
X314912Y-14000D01*
X317911D01*
X319410Y-12501D01*
Y-11001D01*
X317911Y-9501D01*
X313412D01*
X322409Y-14000D02*
Y-12501D01*
X323909D01*
Y-14000D01*
X322409D01*
X335905D02*
X329907D01*
X335905Y-8002D01*
Y-6502D01*
X334405Y-5003D01*
X331406D01*
X329907Y-6502D01*
X338904D02*
X340404Y-5003D01*
X343403D01*
X344902Y-6502D01*
Y-12501D01*
X343403Y-14000D01*
X340404D01*
X338904Y-12501D01*
Y-6502D01*
X347901Y-14000D02*
X350900D01*
X349401D01*
Y-5003D01*
X347901Y-6502D01*
X355399Y-5003D02*
X361397D01*
Y-6502D01*
X355399Y-12501D01*
Y-14000D01*
X10000Y22497D02*
X16665D01*
X13332D01*
Y12500D01*
X24995Y22497D02*
X21663D01*
X19997Y20831D01*
Y14166D01*
X21663Y12500D01*
X24995D01*
X26661Y14166D01*
Y20831D01*
X24995Y22497D01*
X29994Y12500D02*
Y22497D01*
X34992D01*
X36658Y20831D01*
Y17498D01*
X34992Y15832D01*
X29994D01*
D15*
X117559Y702500D02*
D03*
X107559D02*
D03*
X97559D02*
D03*
X87559Y702000D02*
D03*
D16*
X45213Y359000D02*
D03*
Y549000D02*
D03*
Y689000D02*
D03*
D17*
X56787Y359000D02*
D03*
X45213Y349000D02*
D03*
X56787D02*
D03*
X45213Y339000D02*
D03*
X56787D02*
D03*
X45213Y329000D02*
D03*
X56787D02*
D03*
X45213Y319000D02*
D03*
X56787D02*
D03*
X45213Y309000D02*
D03*
X56787D02*
D03*
X45213Y299000D02*
D03*
X56787D02*
D03*
X45213Y289000D02*
D03*
X56787D02*
D03*
X45213Y279000D02*
D03*
X56787D02*
D03*
X45213Y269000D02*
D03*
X56787D02*
D03*
X45213Y259000D02*
D03*
X56787D02*
D03*
X45213Y249000D02*
D03*
X56787D02*
D03*
X45213Y239000D02*
D03*
X56787D02*
D03*
X45213Y229000D02*
D03*
X56787D02*
D03*
X45213Y219000D02*
D03*
X56787D02*
D03*
Y549000D02*
D03*
X45213Y539000D02*
D03*
X56787D02*
D03*
X45213Y529000D02*
D03*
X56787D02*
D03*
X45213Y519000D02*
D03*
X56787D02*
D03*
X45213Y509000D02*
D03*
X56787D02*
D03*
X45213Y499000D02*
D03*
X56787D02*
D03*
X45213Y489000D02*
D03*
X56787D02*
D03*
X45213Y479000D02*
D03*
X56787D02*
D03*
X45213Y469000D02*
D03*
X56787D02*
D03*
X45213Y459000D02*
D03*
X56787D02*
D03*
X45213Y449000D02*
D03*
X56787D02*
D03*
X45213Y439000D02*
D03*
X56787D02*
D03*
X45213Y429000D02*
D03*
X56787D02*
D03*
X45213Y419000D02*
D03*
X56787D02*
D03*
X45213Y409000D02*
D03*
X56787D02*
D03*
Y599000D02*
D03*
X45213D02*
D03*
X56787Y609000D02*
D03*
X45213D02*
D03*
X56787Y619000D02*
D03*
X45213D02*
D03*
X56787Y629000D02*
D03*
X45213D02*
D03*
X56787Y639000D02*
D03*
X45213D02*
D03*
X56787Y649000D02*
D03*
X45213D02*
D03*
X56787Y659000D02*
D03*
X45213D02*
D03*
X56787Y669000D02*
D03*
X45213D02*
D03*
X56787Y679000D02*
D03*
X45213D02*
D03*
X56787Y689000D02*
D03*
D18*
X901000Y57500D02*
D03*
X692500D02*
D03*
X484500D02*
D03*
X890484Y57016D02*
D03*
X368866Y71000D02*
D03*
X577500D02*
D03*
X786134D02*
D03*
X994768D02*
D03*
X369000Y279661D02*
D03*
X577634D02*
D03*
X786268D02*
D03*
X994902D02*
D03*
X369000Y488323D02*
D03*
X577634D02*
D03*
X786268D02*
D03*
X994902D02*
D03*
X368866Y697000D02*
D03*
X577500D02*
D03*
X786134D02*
D03*
X994768D02*
D03*
X199500Y315500D02*
D03*
Y447500D02*
D03*
X11000Y660500D02*
D03*
Y180500D02*
D03*
X147000Y118000D02*
D03*
X72500Y191500D02*
D03*
Y384000D02*
D03*
Y578500D02*
D03*
X1096000Y182500D02*
D03*
X886500Y201000D02*
D03*
X677000Y218500D02*
D03*
X470500Y236000D02*
D03*
X276000Y271500D02*
D03*
X257000Y466500D02*
D03*
X484500Y480500D02*
D03*
X693500Y481500D02*
D03*
X902000Y480500D02*
D03*
X1110500Y479500D02*
D03*
Y688000D02*
D03*
X883500Y621000D02*
D03*
X678000Y639000D02*
D03*
X469000Y656500D02*
D03*
X256000Y675500D02*
D03*
X264500Y57016D02*
D03*
X473161D02*
D03*
X681823D02*
D03*
X1099146D02*
D03*
Y265677D02*
D03*
X890484D02*
D03*
X681823D02*
D03*
X473161D02*
D03*
X264500D02*
D03*
X473161Y474339D02*
D03*
X681823D02*
D03*
X890484D02*
D03*
X264500D02*
D03*
X1099146D02*
D03*
Y683000D02*
D03*
X890484D02*
D03*
X681823D02*
D03*
X473161D02*
D03*
X264500D02*
D03*
X71374Y292000D02*
D03*
Y252000D02*
D03*
Y332000D02*
D03*
X71500Y522000D02*
D03*
Y482000D02*
D03*
Y442000D02*
D03*
X70713Y666000D02*
D03*
Y632000D02*
D03*
M02*
