#
# TechnoTeam data table in CSV-format
# created 2017-04-18 11:30:20
#
CTable;1
Symbol object
Symbolobjekt
208
5;16
ColumnName;Stat.No.;Parameter;Image;Region;Class;Area;Min;Max;Mean;Disp;MinX;MinY;MinVal;MaxX;MaxY;MaxVal
ColumnCaption;Stat.Nr.;Parameter;Bild;Region;Klasse;Fläche;Min;Max;Mittelwert;Streuung;MinX;MinY;MinVal;MaxX;MaxY;MaxVal
ColumnUnit;;;;;;pix^2;cd/m²;cd/m²;cd/m²;cd/m²;pix;pix;cd/m²;pix;pix;cd/m²
ColumnType;string;string;string;string;string;string;string;string;string;string;string;string;string;string;string;string
Flags;132096;33792;33792;132096;32768;132096;132096;132096;133120;132096;132096;132096;132096;132096;132096;132096
16384;1;Sym_Gr[1];Leuchtdichtebild;1;Hell;16920;90,9;250,7;142,7;44,38;1281;957;90,9;1449;826;250,7
16384;2;Sym_Gr[1];Leuchtdichtebild;2;Hell;3374;141,3;235,9;185,4;24,96;1262;796;141,3;1262;827;235,9
16384;3;Sym_Gr[1];Leuchtdichtebild;3;Hell;3063;158,6;250,7;202,3;25,56;1419;813;158,6;1449;826;250,7
16384;4;Sym_Gr[1];Leuchtdichtebild;4;Hell;2832;152,2;233,5;190,7;22,44;1428;1016;152,2;1460;1017;233,5
16384;5;Sym_Gr[1];Leuchtdichtebild;5;Hell;4030;143,6;250,3;191,8;27,47;1272;982;143,6;1267;1023;250,3
