#
# TechnoTeam data table in CSV-format
# created 2017-04-18 13:54:31
#
CTable;1
Symbol object
Symbol object
208
1;16
ColumnName;Stat.No.;Parameter;Image;Region;Class;Area;Min;Max;Mean;Disp;MinX;MinY;MinVal;MaxX;MaxY;MaxVal
ColumnCaption;Stat.No.;Parameter;Image;Region;Class;Area;Min;Max;Mean;Disp;MinX;MinY;MinVal;MaxX;MaxY;MaxVal
ColumnUnit;;;;;;pix^2;cd/m²;cd/m²;cd/m²;cd/m²;pix;pix;cd/m²;pix;pix;cd/m²
ColumnType;string;string;string;string;string;string;string;string;string;string;string;string;string;string;string;string
Flags;132096;33792;33792;132096;32768;132096;132096;132096;133120;132096;132096;132096;132096;132096;132096;132096
16384;1;Sym_Gr[1];Luminance image;1;Bright;29270;231,7;880,1;550,9;168,7;1195;948;231,7;1334;1055;880,1
