\relax 
\providecommand\hyper@newdestlabel[2]{}
\providecommand\HyperFirstAtBeginDocument{\AtBeginDocument}
\HyperFirstAtBeginDocument{\ifx\hyper@anchor\@undefined
\global\let\oldcontentsline\contentsline
\gdef\contentsline#1#2#3#4{\oldcontentsline{#1}{#2}{#3}}
\global\let\oldnewlabel\newlabel
\gdef\newlabel#1#2{\newlabelxx{#1}#2}
\gdef\newlabelxx#1#2#3#4#5#6{\oldnewlabel{#1}{{#2}{#3}}}
\AtEndDocument{\ifx\hyper@anchor\@undefined
\let\contentsline\oldcontentsline
\let\newlabel\oldnewlabel
\fi}
\fi}
\global\let\hyper@last\relax 
\gdef\HyperFirstAtBeginDocument#1{#1}
\providecommand\HyField@AuxAddToFields[1]{}
\providecommand\HyField@AuxAddToCoFields[2]{}
\citation{karu}
\citation{karu}
\citation{hadis}
\citation{hadis}
\citation{houreld}
\citation{houreld}
\citation{tuner}
\citation{tuner}
\citation{jenkins}
\citation{jenkins}
\citation{hadis}
\citation{hadis}
\citation{hadis}
\citation{hadis}
\citation{hadis}
\citation{hadis}
\@LN@col{1}
\select@language{USenglish}
\@writefile{toc}{\select@language{USenglish}}
\@writefile{lof}{\select@language{USenglish}}
\@writefile{lot}{\select@language{USenglish}}
\@writefile{toc}{\contentsline {author}{Mart\IeC {\'\i }n Canziani, Jacquelyn Dawn Parente, Paola Belloni, and Knut M\IeC {\"o}ller}{1}{authors.4}}
\@writefile{toc}{\contentsline {contribution}{Prototype of an automated photobiomodulation treatment device for in~vitro wound healing studies}{1}{section*.1}}
\@LN@col{2}
\@writefile{toc}{\contentsline {section}{\numberline {1}Introduction}{1}{section.1}}
\@LN@col{1}
\@writefile{toc}{\contentsline {section}{\numberline {2}Materials and methods}{2}{section.2}}
\@writefile{toc}{\contentsline {subsection}{\numberline {2.1}Design constraints}{2}{subsection.2.1}}
\@LN@col{2}
\@writefile{toc}{\contentsline {subsection}{\numberline {2.2}Device design}{2}{subsection.2.2}}
\@writefile{toc}{\contentsline {subsubsection}{\numberline {2.2.1}LED driver}{2}{subsubsection.2.2.1}}
\citation{hadis,jenkins}
\citation{hadis}
\citation{jenkins}
\citation{jenkins}
\citation{jenkins}
\@LN@col{1}
\@writefile{toc}{\contentsline {subsubsection}{\numberline {2.2.2}LED array}{3}{subsubsection.2.2.2}}
\@writefile{toc}{\contentsline {subsection}{\numberline {2.3}Measurements}{3}{subsection.2.3}}
\@LN@col{2}
\@writefile{toc}{\contentsline {subsubsection}{\numberline {2.3.1}Spectral irradiance measurement}{3}{subsubsection.2.3.1}}
\@writefile{toc}{\contentsline {subsubsection}{\numberline {2.3.2}Spatial irradiance uniformity measurement}{3}{subsubsection.2.3.2}}
\@writefile{toc}{\contentsline {section}{\numberline {3}Results and discussion}{3}{section.3}}
\bibcite{karu}{{1}{}{{}}{{}}}
\bibcite{hadis}{{2}{}{{}}{{}}}
\bibcite{houreld}{{3}{}{{}}{{}}}
\bibcite{tuner}{{4}{}{{}}{{}}}
\bibcite{jenkins}{{5}{}{{}}{{}}}
\providecommand\NAT@force@numbers{}\NAT@force@numbers
\@writefile{lof}{\contentsline {figure}{\numberline {Figure 1}{\ignorespaces Irradiance as a function of intensity setting of the LED driver, for each color, and only one LED measured directly on its optical axis at 53 mm distance. Errors were estimated taking into account spectral accuracy of the measurement device and baseline dark measurements.\relax }}{4}{figure.caption.2}}
\@cons\caption@pkg@list{{ragged2e}}
\providecommand*\caption@xref[2]{\@setref\relax\@undefined{#1}}
\newlabel{fig:irradiance-vs-intensity}{{1}{4}{Irradiance as a function of intensity setting of the LED driver, for each color, and only one LED measured directly on its optical axis at 53 mm distance. Errors were estimated taking into account spectral accuracy of the measurement device and baseline dark measurements.\relax }{figure.caption.2}{}}
\@writefile{lof}{\contentsline {figure}{\numberline {Figure 2}{\ignorespaces Spectral irradiance for different intensity settings of the LED driver(18\%, 56\% and 100\%), for each color, measured separately, with one LED, at 53 mm distance on the LED optical axis. Error bars not shown for clarity, spectral measurement accuracy 4\%.\relax }}{4}{figure.caption.3}}
\newlabel{fig:spectral-irradiance}{{2}{4}{Spectral irradiance for different intensity settings of the LED driver(18\%, 56\% and 100\%), for each color, measured separately, with one LED, at 53 mm distance on the LED optical axis. Error bars not shown for clarity, spectral measurement accuracy 4\%.\relax }{figure.caption.3}{}}
\@writefile{lof}{\contentsline {figure}{\numberline {Figure 3}{\ignorespaces Spatial irradiance uniformity on a 5 cm by 5 cm square for 18\% and 100\% intensity setting of a 4-LED prototype device, red color, at 53 mm distance. Each LED is placed directly above the outer vertices of the grid, represented with circles. The lighter the square, the higher irradiance was measured.\relax }}{4}{figure.caption.4}}
\newlabel{fig:uniformity}{{3}{4}{Spatial irradiance uniformity on a 5 cm by 5 cm square for 18\% and 100\% intensity setting of a 4-LED prototype device, red color, at 53 mm distance. Each LED is placed directly above the outer vertices of the grid, represented with circles. The lighter the square, the higher irradiance was measured.\relax }{figure.caption.4}{}}
\@LN@col{2}
\@writefile{toc}{\contentsline {section}{\numberline {4}Conclusion}{4}{section.4}}
\newlabel{LastPage}{{}{4}{}{page.4}{}}
\xdef\lastpage@lastpage{4}
\xdef\lastpage@lastpageHy{4}
