%!PS-Adobe-3.0 EPSF-3.0
%%Creator: MATLAB, The MathWorks, Inc. Version 8.3.0.532 (R2014a). Operating System: Linux 4.10.13-200.fc25.x86_64 #1 SMP Thu Apr 27 20:39:25 UTC 2017 x86_64.
%%Title: /home/mcanziani/item/Martin/2017-05-08/irradiance-vs-intensity.eps
%%CreationDate: 05/09/2017  15:15:43
%%DocumentNeededFonts: Helvetica
%%DocumentProcessColors: Cyan Magenta Yellow Black
%%LanguageLevel: 2
%%Pages: 1
%%BoundingBox:    73   286   521   556
%%EndComments

%%BeginProlog
% MathWorks dictionary
/MathWorks 160 dict begin
% definition operators
/bdef {bind def} bind def
/ldef {load def} bind def
/xdef {exch def} bdef
/xstore {exch store} bdef
% operator abbreviations
/c  /clip ldef
/cc /concat ldef
/cp /closepath ldef
/gr /grestore ldef
/gs /gsave ldef
/mt /moveto ldef
/np /newpath ldef
/cm /currentmatrix ldef
/sm /setmatrix ldef
/rm /rmoveto ldef
/rl /rlineto ldef
/s {show newpath} bdef
/sc {setcmykcolor} bdef
/sr /setrgbcolor ldef
/sg /setgray ldef
/w /setlinewidth ldef
/j /setlinejoin ldef
/cap /setlinecap ldef
/rc {rectclip} bdef
/rf {rectfill} bdef
% page state control
/pgsv () def
/bpage {/pgsv save def} bdef
/epage {pgsv restore} bdef
/bplot /gsave ldef
/eplot {stroke grestore} bdef
% orientation switch
/portraitMode 0 def /landscapeMode 1 def /rotateMode 2 def
% coordinate system mappings
/dpi2point 0 def
% font control
/FontSize 0 def
/FMS {/FontSize xstore findfont [140 0 0 140 neg 0 0]
  makefont setfont} bdef
/reencode {exch dup where {pop load} {pop StandardEncoding} ifelse
  exch dup 3 1 roll findfont dup length dict begin
  { 1 index /FID ne {def}{pop pop} ifelse } forall
  /Encoding exch def currentdict end definefont pop} bdef
/isroman {findfont /CharStrings get /Agrave known} bdef
/FMSR {3 1 roll 1 index dup isroman {reencode} {pop pop} ifelse
  exch FMS} bdef
/csm {1 dpi2point div -1 dpi2point div scale neg translate
 dup landscapeMode eq {pop -90 rotate}
  {rotateMode eq {90 rotate} if} ifelse} bdef
% line types: solid, dotted, dashed, dotdash
/SO { [] 0 setdash } bdef
/DO { [.5 dpi2point mul 4 dpi2point mul] 0 setdash } bdef
/DA { [6 dpi2point mul] 0 setdash } bdef
/DD { [.5 dpi2point mul 4 dpi2point mul 6 dpi2point mul 4
  dpi2point mul] 0 setdash } bdef
% macros for lines and objects
/L {lineto stroke} bdef
/MP {3 1 roll moveto 1 sub {rlineto} repeat} bdef
/AP {{rlineto} repeat} bdef
/PDlw -1 def
/W {/PDlw currentlinewidth def setlinewidth} def
/PP {closepath eofill} bdef
/DP {closepath stroke} bdef
/MR {4 -2 roll moveto dup  0 exch rlineto exch 0 rlineto
  neg 0 exch rlineto closepath} bdef
/FR {MR stroke} bdef
/PR {MR fill} bdef
/L1i {{currentfile picstr readhexstring pop} image} bdef
/tMatrix matrix def
/MakeOval {newpath tMatrix currentmatrix pop translate scale
0 0 1 0 360 arc tMatrix setmatrix} bdef
/FO {MakeOval stroke} bdef
/PO {MakeOval fill} bdef
/PD {currentlinewidth 2 div 0 360 arc fill
   PDlw -1 eq not {PDlw w /PDlw -1 def} if} def
/FA {newpath tMatrix currentmatrix pop translate scale
  0 0 1 5 -2 roll arc tMatrix setmatrix stroke} bdef
/PA {newpath tMatrix currentmatrix pop	translate 0 0 moveto scale
  0 0 1 5 -2 roll arc closepath tMatrix setmatrix fill} bdef
/FAn {newpath tMatrix currentmatrix pop translate scale
  0 0 1 5 -2 roll arcn tMatrix setmatrix stroke} bdef
/PAn {newpath tMatrix currentmatrix pop translate 0 0 moveto scale
  0 0 1 5 -2 roll arcn closepath tMatrix setmatrix fill} bdef
/vradius 0 def /hradius 0 def /lry 0 def
/lrx 0 def /uly 0 def /ulx 0 def /rad 0 def
/MRR {/vradius xdef /hradius xdef /lry xdef /lrx xdef /uly xdef
  /ulx xdef newpath tMatrix currentmatrix pop ulx hradius add uly
  vradius add translate hradius vradius scale 0 0 1 180 270 arc 
  tMatrix setmatrix lrx hradius sub uly vradius add translate
  hradius vradius scale 0 0 1 270 360 arc tMatrix setmatrix
  lrx hradius sub lry vradius sub translate hradius vradius scale
  0 0 1 0 90 arc tMatrix setmatrix ulx hradius add lry vradius sub
  translate hradius vradius scale 0 0 1 90 180 arc tMatrix setmatrix
  closepath} bdef
/FRR {MRR stroke } bdef
/PRR {MRR fill } bdef
/MlrRR {/lry xdef /lrx xdef /uly xdef /ulx xdef /rad lry uly sub 2 div def
  newpath tMatrix currentmatrix pop ulx rad add uly rad add translate
  rad rad scale 0 0 1 90 270 arc tMatrix setmatrix lrx rad sub lry rad
  sub translate rad rad scale 0 0 1 270 90 arc tMatrix setmatrix
  closepath} bdef
/FlrRR {MlrRR stroke } bdef
/PlrRR {MlrRR fill } bdef
/MtbRR {/lry xdef /lrx xdef /uly xdef /ulx xdef /rad lrx ulx sub 2 div def
  newpath tMatrix currentmatrix pop ulx rad add uly rad add translate
  rad rad scale 0 0 1 180 360 arc tMatrix setmatrix lrx rad sub lry rad
  sub translate rad rad scale 0 0 1 0 180 arc tMatrix setmatrix
  closepath} bdef
/FtbRR {MtbRR stroke } bdef
/PtbRR {MtbRR fill } bdef
/stri 6 array def /dtri 6 array def
/smat 6 array def /dmat 6 array def
/tmat1 6 array def /tmat2 6 array def /dif 3 array def
/asub {/ind2 exch def /ind1 exch def dup dup
  ind1 get exch ind2 get sub exch } bdef
/tri_to_matrix {
  2 0 asub 3 1 asub 4 0 asub 5 1 asub
  dup 0 get exch 1 get 7 -1 roll astore } bdef
/compute_transform {
  dmat dtri tri_to_matrix tmat1 invertmatrix 
  smat stri tri_to_matrix tmat2 concatmatrix } bdef
/ds {stri astore pop} bdef
/dt {dtri astore pop} bdef
/db {2 copy /cols xdef /rows xdef mul dup 3 mul string
  currentfile 
  3 index 0 eq {/ASCIIHexDecode filter}
  {/ASCII85Decode filter 3 index 2 eq {/RunLengthDecode filter} if }
  ifelse exch readstring pop
  dup 0 3 index getinterval /rbmap xdef
  dup 2 index dup getinterval /gbmap xdef
  1 index dup 2 mul exch getinterval /bbmap xdef pop pop}bdef
/it {gs np dtri aload pop moveto lineto lineto cp c
  cols rows 8 compute_transform 
  rbmap gbmap bbmap true 3 colorimage gr}bdef
/il {newpath moveto lineto stroke}bdef
currentdict end def
%%EndProlog

%%BeginSetup
MathWorks begin

0 cap

end
%%EndSetup

%%Page: 1 1
%%BeginPageSetup
%%PageBoundingBox:    73   286   521   556
MathWorks begin
bpage
%%EndPageSetup

%%BeginObject: obj1
bplot

/dpi2point 12 def
portraitMode 0876 6672 csm

    0     0  5376  3236 rc
85 dict begin %Colortable dictionary
/c0 { 0.000000 0.000000 0.000000 sr} bdef
/c1 { 1.000000 1.000000 1.000000 sr} bdef
/c2 { 0.900000 0.000000 0.000000 sr} bdef
/c3 { 0.000000 0.820000 0.000000 sr} bdef
/c4 { 0.000000 0.000000 0.800000 sr} bdef
/c5 { 0.910000 0.820000 0.320000 sr} bdef
/c6 { 1.000000 0.260000 0.820000 sr} bdef
/c7 { 0.000000 0.820000 0.820000 sr} bdef
c0
1 j
1 sg
   0    0 5377 3237 rf
6 w
0 2637 4166 0 0 -2637 699 2880 4 MP
PP
-4166 0 0 2637 4166 0 0 -2637 699 2880 5 MP stroke
4 w
DO
SO
6 w
0 sg
 699 2880 mt 4865 2880 L
 699 2880 mt  699  243 L
1032 2880 mt 1032 2838 L
%%IncludeResource: font Helvetica
/Helvetica /ISOLatin1Encoding 120 FMSR

 912 3025 mt 
(18%) s
1573 2880 mt 1573 2838 L
1453 3025 mt 
(31%) s
2073 2880 mt 2073 2838 L
1953 3025 mt 
(43%) s
2615 2880 mt 2615 2838 L
2495 3025 mt 
(56%) s
3115 2880 mt 3115 2838 L
2995 3025 mt 
(68%) s
3656 2880 mt 3656 2838 L
3536 3025 mt 
(81%) s
4198 2880 mt 4198 2838 L
4078 3025 mt 
(94%) s
4448 2880 mt 4448 2838 L
4295 3025 mt 
(100%) s
 699 2880 mt  740 2880 L
 598 2924 mt 
(0) s
 699 2550 mt  740 2550 L
 464 2594 mt 
(100) s
 699 2220 mt  740 2220 L
 464 2264 mt 
(200) s
 699 1891 mt  740 1891 L
 464 1935 mt 
(300) s
 699 1561 mt  740 1561 L
 464 1605 mt 
(400) s
 699 1231 mt  740 1231 L
 464 1275 mt 
(500) s
 699  902 mt  740  902 L
 464  946 mt 
(600) s
 699  572 mt  740  572 L
 464  616 mt 
(700) s
 699  243 mt  740  243 L
 464  287 mt 
(800) s
gs 699 243 4167 2638 rc
/c8 { 1.000000 0.000000 0.000000 sr} bdef
c8
0 22 1032 2628 2 MP stroke
68 0 998 2628 2 MP stroke
68 0 998 2650 2 MP stroke
0 38 1573 2438 2 MP stroke
69 0 1539 2438 2 MP stroke
69 0 1539 2476 2 MP stroke
0 54 2073 2251 2 MP stroke
68 0 2039 2251 2 MP stroke
68 0 2039 2305 2 MP stroke
0 71 2615 2065 2 MP stroke
68 0 2581 2065 2 MP stroke
68 0 2581 2136 2 MP stroke
0 86 3115 1879 2 MP stroke
68 0 3081 1879 2 MP stroke
68 0 3081 1965 2 MP stroke
0 103 3656 1691 2 MP stroke
69 0 3622 1691 2 MP stroke
69 0 3622 1794 2 MP stroke
0 119 4198 1509 2 MP stroke
68 0 4164 1509 2 MP stroke
68 0 4164 1628 2 MP stroke
0 127 4448 1414 2 MP stroke
68 0 4414 1414 2 MP stroke
68 0 4414 1541 2 MP stroke
DD
250 -91 542 -174 541 -179 500 -178 542 -178 500 -179 541 -182 1032 2639 8 MP stroke
gr

c8
DD
SO
  36   36 1032 2639 FO
  36   36 1573 2457 FO
  36   36 2073 2278 FO
  36   36 2615 2100 FO
  36   36 3115 1922 FO
  36   36 3656 1743 FO
  36   36 4198 1569 FO
  36   36 4448 1478 FO
DD
gs 699 243 4167 2638 rc
SO
/c9 { 0.000000 0.500000 0.000000 sr} bdef
c9
0 19 1032 2660 2 MP stroke
68 0 998 2660 2 MP stroke
68 0 998 2679 2 MP stroke
0 34 1573 2496 2 MP stroke
69 0 1539 2496 2 MP stroke
69 0 1539 2530 2 MP stroke
0 47 2073 2334 2 MP stroke
68 0 2039 2334 2 MP stroke
68 0 2039 2381 2 MP stroke
0 61 2615 2172 2 MP stroke
68 0 2581 2172 2 MP stroke
68 0 2581 2233 2 MP stroke
0 74 3115 2014 2 MP stroke
68 0 3081 2014 2 MP stroke
68 0 3081 2088 2 MP stroke
0 88 3656 1858 2 MP stroke
69 0 3622 1858 2 MP stroke
69 0 3622 1946 2 MP stroke
0 101 4198 1700 2 MP stroke
68 0 4164 1700 2 MP stroke
68 0 4164 1801 2 MP stroke
0 108 4448 1623 2 MP stroke
68 0 4414 1623 2 MP stroke
68 0 4414 1731 2 MP stroke
250 -73 542 -152 541 -149 500 -151 542 -155 500 -156 541 -156 1032 2669 8 MP stroke
gr

c9
SO
  36   36 1032 2669 FO
  36   36 1573 2513 FO
  36   36 2073 2357 FO
  36   36 2615 2202 FO
  36   36 3115 2051 FO
  36   36 3656 1902 FO
  36   36 4198 1750 FO
  36   36 4448 1677 FO
gs 699 243 4167 2638 rc
/c10 { 0.000000 0.000000 1.000000 sr} bdef
c10
0 38 1032 2439 2 MP stroke
68 0 998 2439 2 MP stroke
68 0 998 2477 2 MP stroke
0 66 1573 2113 2 MP stroke
69 0 1539 2113 2 MP stroke
69 0 1539 2179 2 MP stroke
0 94 2073 1790 2 MP stroke
68 0 2039 1790 2 MP stroke
68 0 2039 1884 2 MP stroke
0 121 2615 1472 2 MP stroke
68 0 2581 1472 2 MP stroke
68 0 2581 1593 2 MP stroke
0 149 3115 1151 2 MP stroke
68 0 3081 1151 2 MP stroke
68 0 3081 1300 2 MP stroke
0 176 3656 833 2 MP stroke
69 0 3622 833 2 MP stroke
69 0 3622 1009 2 MP stroke
0 204 4198 515 2 MP stroke
68 0 4164 515 2 MP stroke
68 0 4164 719 2 MP stroke
0 217 4448 360 2 MP stroke
68 0 4414 360 2 MP stroke
68 0 4414 577 2 MP stroke
DA
250 -149 542 -304 541 -305 500 -306 542 -305 500 -309 541 -312 1032 2458 8 MP stroke
gr

c10
DA
SO
  36   36 1032 2458 FO
  36   36 1573 2146 FO
  36   36 2073 1837 FO
  36   36 2615 1532 FO
  36   36 3115 1226 FO
  36   36 3656  921 FO
  36   36 4198  617 FO
  36   36 4448  468 FO
DA
gs 699 243 4167 2638 rc
gr

0 sg
2097 3168 mt 
(Intensity Setting \(percent\)) s
 212 2380 mt  -90 rotate
(Integrated Irradiance on Target) s
90 rotate
 382 2280 mt  -90 rotate
(Surface @ 53mm \(mW/m  \)) s
90 rotate
%%IncludeResource: font Helvetica
/Helvetica /ISOLatin1Encoding 96 FMSR

 322  709 mt  -90 rotate
(2) s
90 rotate
%%IncludeResource: font Helvetica
/Helvetica /ISOLatin1Encoding 120 FMSR

% 382  876 mt  -90 rotate
%(\)) s
%90 rotate
 663 2942 mt 
( ) s
4830  304 mt 
( ) s
SO
4424 2442 mt 
(Red) s
gs 3939 2304 840 493 rc
DD
c8
372 0 4013 2400 2 MP stroke
SO
gs 4126 2327 147 147 rc
  36   36 4199 2400 FO
gr

gr

c8
0 sg
4424 2593 mt 
(Green) s
gs 3939 2304 840 493 rc
c9
372 0 4013 2550 2 MP stroke
gs 4126 2477 147 147 rc
  36   36 4199 2550 FO
gr

gr

c9
0 sg
4424 2743 mt 
(Blue) s
gs 3939 2304 840 493 rc
DA
c10
372 0 4013 2700 2 MP stroke
SO
gs 4126 2627 147 147 rc
  36   36 4199 2700 FO
gr

gr

c10

end %%Color Dict

eplot
%%EndObject

epage
end

showpage

%%Trailer
%%EOF
