%!PS-Adobe-3.0 EPSF-3.0
%%Creator: MATLAB, The MathWorks, Inc. Version 8.3.0.532 (R2014a). Operating System: Linux 4.10.13-200.fc25.x86_64 #1 SMP Thu Apr 27 20:39:25 UTC 2017 x86_64.
%%Title: /home/mcanziani/item/Martin/2017-05-08/spectral-irradiance.eps
%%CreationDate: 05/09/2017  15:15:53
%%DocumentNeededFonts: Helvetica
%%DocumentProcessColors: Cyan Magenta Yellow Black
%%LanguageLevel: 2
%%Pages: 1
%%BoundingBox:    73   275   521   564
%%EndComments

%%BeginProlog
% MathWorks dictionary
/MathWorks 160 dict begin
% definition operators
/bdef {bind def} bind def
/ldef {load def} bind def
/xdef {exch def} bdef
/xstore {exch store} bdef
% operator abbreviations
/c  /clip ldef
/cc /concat ldef
/cp /closepath ldef
/gr /grestore ldef
/gs /gsave ldef
/mt /moveto ldef
/np /newpath ldef
/cm /currentmatrix ldef
/sm /setmatrix ldef
/rm /rmoveto ldef
/rl /rlineto ldef
/s {show newpath} bdef
/sc {setcmykcolor} bdef
/sr /setrgbcolor ldef
/sg /setgray ldef
/w /setlinewidth ldef
/j /setlinejoin ldef
/cap /setlinecap ldef
/rc {rectclip} bdef
/rf {rectfill} bdef
% page state control
/pgsv () def
/bpage {/pgsv save def} bdef
/epage {pgsv restore} bdef
/bplot /gsave ldef
/eplot {stroke grestore} bdef
% orientation switch
/portraitMode 0 def /landscapeMode 1 def /rotateMode 2 def
% coordinate system mappings
/dpi2point 0 def
% font control
/FontSize 0 def
/FMS {/FontSize xstore findfont [140 0 0 140 neg 0 0]
  makefont setfont} bdef
/reencode {exch dup where {pop load} {pop StandardEncoding} ifelse
  exch dup 3 1 roll findfont dup length dict begin
  { 1 index /FID ne {def}{pop pop} ifelse } forall
  /Encoding exch def currentdict end definefont pop} bdef
/isroman {findfont /CharStrings get /Agrave known} bdef
/FMSR {3 1 roll 1 index dup isroman {reencode} {pop pop} ifelse
  exch FMS} bdef
/csm {1 dpi2point div -1 dpi2point div scale neg translate
 dup landscapeMode eq {pop -90 rotate}
  {rotateMode eq {90 rotate} if} ifelse} bdef
% line types: solid, dotted, dashed, dotdash
/SO { [] 0 setdash } bdef
/DO { [.5 dpi2point mul 4 dpi2point mul] 0 setdash } bdef
/DA { [6 dpi2point mul] 0 setdash } bdef
/DD { [.5 dpi2point mul 4 dpi2point mul 6 dpi2point mul 4
  dpi2point mul] 0 setdash } bdef
% macros for lines and objects
/L {lineto stroke} bdef
/MP {3 1 roll moveto 1 sub {rlineto} repeat} bdef
/AP {{rlineto} repeat} bdef
/PDlw -1 def
/W {/PDlw currentlinewidth def setlinewidth} def
/PP {closepath eofill} bdef
/DP {closepath stroke} bdef
/MR {4 -2 roll moveto dup  0 exch rlineto exch 0 rlineto
  neg 0 exch rlineto closepath} bdef
/FR {MR stroke} bdef
/PR {MR fill} bdef
/L1i {{currentfile picstr readhexstring pop} image} bdef
/tMatrix matrix def
/MakeOval {newpath tMatrix currentmatrix pop translate scale
0 0 1 0 360 arc tMatrix setmatrix} bdef
/FO {MakeOval stroke} bdef
/PO {MakeOval fill} bdef
/PD {currentlinewidth 2 div 0 360 arc fill
   PDlw -1 eq not {PDlw w /PDlw -1 def} if} def
/FA {newpath tMatrix currentmatrix pop translate scale
  0 0 1 5 -2 roll arc tMatrix setmatrix stroke} bdef
/PA {newpath tMatrix currentmatrix pop	translate 0 0 moveto scale
  0 0 1 5 -2 roll arc closepath tMatrix setmatrix fill} bdef
/FAn {newpath tMatrix currentmatrix pop translate scale
  0 0 1 5 -2 roll arcn tMatrix setmatrix stroke} bdef
/PAn {newpath tMatrix currentmatrix pop translate 0 0 moveto scale
  0 0 1 5 -2 roll arcn closepath tMatrix setmatrix fill} bdef
/vradius 0 def /hradius 0 def /lry 0 def
/lrx 0 def /uly 0 def /ulx 0 def /rad 0 def
/MRR {/vradius xdef /hradius xdef /lry xdef /lrx xdef /uly xdef
  /ulx xdef newpath tMatrix currentmatrix pop ulx hradius add uly
  vradius add translate hradius vradius scale 0 0 1 180 270 arc 
  tMatrix setmatrix lrx hradius sub uly vradius add translate
  hradius vradius scale 0 0 1 270 360 arc tMatrix setmatrix
  lrx hradius sub lry vradius sub translate hradius vradius scale
  0 0 1 0 90 arc tMatrix setmatrix ulx hradius add lry vradius sub
  translate hradius vradius scale 0 0 1 90 180 arc tMatrix setmatrix
  closepath} bdef
/FRR {MRR stroke } bdef
/PRR {MRR fill } bdef
/MlrRR {/lry xdef /lrx xdef /uly xdef /ulx xdef /rad lry uly sub 2 div def
  newpath tMatrix currentmatrix pop ulx rad add uly rad add translate
  rad rad scale 0 0 1 90 270 arc tMatrix setmatrix lrx rad sub lry rad
  sub translate rad rad scale 0 0 1 270 90 arc tMatrix setmatrix
  closepath} bdef
/FlrRR {MlrRR stroke } bdef
/PlrRR {MlrRR fill } bdef
/MtbRR {/lry xdef /lrx xdef /uly xdef /ulx xdef /rad lrx ulx sub 2 div def
  newpath tMatrix currentmatrix pop ulx rad add uly rad add translate
  rad rad scale 0 0 1 180 360 arc tMatrix setmatrix lrx rad sub lry rad
  sub translate rad rad scale 0 0 1 0 180 arc tMatrix setmatrix
  closepath} bdef
/FtbRR {MtbRR stroke } bdef
/PtbRR {MtbRR fill } bdef
/stri 6 array def /dtri 6 array def
/smat 6 array def /dmat 6 array def
/tmat1 6 array def /tmat2 6 array def /dif 3 array def
/asub {/ind2 exch def /ind1 exch def dup dup
  ind1 get exch ind2 get sub exch } bdef
/tri_to_matrix {
  2 0 asub 3 1 asub 4 0 asub 5 1 asub
  dup 0 get exch 1 get 7 -1 roll astore } bdef
/compute_transform {
  dmat dtri tri_to_matrix tmat1 invertmatrix 
  smat stri tri_to_matrix tmat2 concatmatrix } bdef
/ds {stri astore pop} bdef
/dt {dtri astore pop} bdef
/db {2 copy /cols xdef /rows xdef mul dup 3 mul string
  currentfile 
  3 index 0 eq {/ASCIIHexDecode filter}
  {/ASCII85Decode filter 3 index 2 eq {/RunLengthDecode filter} if }
  ifelse exch readstring pop
  dup 0 3 index getinterval /rbmap xdef
  dup 2 index dup getinterval /gbmap xdef
  1 index dup 2 mul exch getinterval /bbmap xdef pop pop}bdef
/it {gs np dtri aload pop moveto lineto lineto cp c
  cols rows 8 compute_transform 
  rbmap gbmap bbmap true 3 colorimage gr}bdef
/il {newpath moveto lineto stroke}bdef
currentdict end def
%%EndProlog

%%BeginSetup
MathWorks begin

0 cap

end
%%EndSetup

%%Page: 1 1
%%BeginPageSetup
%%PageBoundingBox:    73   275   521   564
MathWorks begin
bpage
%%EndPageSetup

%%BeginObject: obj1
bplot

/dpi2point 12 def
portraitMode 0876 6768 csm

    0     0  5376  3457 rc
85 dict begin %Colortable dictionary
/c0 { 0.000000 0.000000 0.000000 sr} bdef
/c1 { 1.000000 1.000000 1.000000 sr} bdef
/c2 { 0.900000 0.000000 0.000000 sr} bdef
/c3 { 0.000000 0.820000 0.000000 sr} bdef
/c4 { 0.000000 0.000000 0.800000 sr} bdef
/c5 { 0.910000 0.820000 0.320000 sr} bdef
/c6 { 1.000000 0.260000 0.820000 sr} bdef
/c7 { 0.000000 0.820000 0.820000 sr} bdef
c0
1 j
1 sg
   0    0 5377 3458 rf
6 w
0 2818 4166 0 0 -2818 699 3077 4 MP
PP
-4166 0 0 2818 4166 0 0 -2818 699 3077 5 MP stroke
4 w
DO
SO
6 w
0 sg
 699 3077 mt 4865 3077 L
 699 3077 mt  699  259 L
 699 3077 mt  699 3035 L
%%IncludeResource: font Helvetica
/Helvetica /ISOLatin1Encoding 120 FMSR

 599 3222 mt 
(400) s
1393 3077 mt 1393 3035 L
1293 3222 mt 
(450) s
2087 3077 mt 2087 3035 L
1987 3222 mt 
(500) s
2782 3077 mt 2782 3035 L
2682 3222 mt 
(550) s
3476 3077 mt 3476 3035 L
3376 3222 mt 
(600) s
4170 3077 mt 4170 3035 L
4070 3222 mt 
(650) s
4865 3077 mt 4865 3035 L
4765 3222 mt 
(700) s
 699 3077 mt  740 3077 L
 598 3121 mt 
(0) s
 699 2573 mt  740 2573 L
 598 2617 mt 
(5) s
 699 2070 mt  740 2070 L
 531 2114 mt 
(10) s
 699 1567 mt  740 1567 L
 531 1611 mt 
(15) s
 699 1064 mt  740 1064 L
 531 1108 mt 
(20) s
 699  560 mt  740  560 L
 531  604 mt 
(25) s
gs 699 259 4167 2819 rc
DD
/c8 { 1.000000 0.000000 0.000000 sr} bdef
c8
19 0 22 0 22 0 22 0 22 0 22 0 22 0 22 0 
22 0 22 0 22 0 22 0 22 0 23 0 22 1 22 0 
23 1 22 0 22 1 23 1 22 1 23 1 22 2 23 3 
22 4 23 5 23 7 22 9 23 12 23 16 23 21 23 27 
22 33 23 39 23 41 23 37 23 30 23 20 23 6 23 -8 
23 -20 23 -29 24 -33 23 -33 23 -31 23 -28 24 -23 23 -20 
23 -17 24 -13 23 -12 24 -8 23 -8 23 -6 24 -5 24 -4 
23 -4 24 -2 23 -3 24 -2 24 -2 24 -1 23 -1 24 -1 
24 -1 24 -1 24 -1 24 0 24 0 24 0 24 -1 24 0 
24 0 24 0 24 0 24 0 24 0 24 0 25 0 24 0 
24 -1 24 1 25 0 24 0 24 0 25 -1 24 1 25 0 
24 -1 25 1 24 0 25 0 24 -1 25 1 25 0 24 -1 
25 0 25 0 24 0 25 0 25 0 24 0 25 1 25 0 
25 -1 25 1 25 0 25 0 25 0 25 0 25 -1 25 0 
25 1 25 -1 25 0 25 1 25 -1 25 0 25 0 25 0 
25 0 26 1 25 0 25 -1 25 0 26 1 25 0 25 0 
25 0 26 -1 25 1 25 -1 26 0 25 0 26 0 25 0 
26 0 25 0 25 0 26 0 25 1 26 0 26 0 25 0 
26 -1 25 1 26 0 25 0 26 0 26 -1 25 0 26 0 
26 0 25 0 26 0 26 0 25 1 26 0 26 -1 26 1 
26 0 25 -1 26 0 26 1 26 -1 26 0 25 0 26 0 
26 0 26 0 26 0 26 0 5 0 699 3077 174 MP stroke
19 0 22 -2 22 1 22 0 22 -1 22 1 22 1 22 0 
22 0 22 1 22 0 22 1 22 0 23 0 22 1 22 1 
23 2 22 1 22 3 23 2 22 6 23 5 22 6 23 10 
22 13 23 18 23 25 22 31 23 40 23 56 23 71 23 91 
22 112 23 126 23 130 23 115 23 87 23 53 23 9 23 -35 
23 -70 23 -96 24 -105 23 -105 23 -97 23 -86 24 -72 23 -61 
23 -51 24 -41 23 -35 24 -28 23 -23 23 -19 24 -16 24 -13 
23 -11 24 -9 23 -7 24 -7 24 -5 24 -5 23 -3 24 -4 
24 -2 24 -3 24 -2 24 -1 24 -1 24 -1 24 -1 24 0 
24 0 24 0 24 -1 24 -1 24 0 24 0 25 0 24 0 
24 0 24 0 25 0 24 0 24 -1 25 0 24 0 25 1 
24 0 25 0 24 0 25 0 24 -1 25 1 25 0 24 -1 
25 0 25 1 24 0 25 0 25 -1 24 0 25 0 25 0 
25 0 25 1 25 0 25 0 25 -1 25 1 25 -1 25 0 
25 0 25 0 25 1 25 0 25 0 25 -1 25 0 25 0 
25 0 26 1 25 -1 25 0 25 1 26 0 25 0 25 -1 
25 0 26 0 25 1 25 -1 26 0 25 1 26 0 25 -1 
26 0 25 0 25 1 26 -1 25 1 26 -1 26 1 25 0 
26 -1 25 1 26 0 25 -1 26 0 26 1 25 0 26 0 
26 -1 25 0 26 0 26 0 25 1 26 0 26 1 26 -1 
26 0 25 -1 26 0 26 1 26 -1 26 0 25 0 26 1 
26 -1 26 0 26 0 26 1 5 0 699 3076 174 MP stroke
23 3 25 -1 26 1 26 -1 25 -1 26 0 25 0 26 1 
25 -1 26 1 26 -1 25 2 26 0 26 -1 25 0 26 -1 
26 2 25 0 26 -1 26 0 26 1 26 -1 25 -1 26 0 
26 1 26 -1 26 1 25 0 26 -1 26 1 26 -1 26 2 
26 -2 5 1 699 3076 35 MP stroke
22 2 26 -1 25 1 26 -1 25 0 21 -1 1557 3078 7 MP stroke
19 0 22 0 22 1 22 -2 22 0 22 0 22 0 22 3 
22 -1 22 1 22 1 22 1 22 2 23 2 22 -1 22 5 
23 1 22 4 22 4 23 7 22 6 23 12 22 15 23 18 
22 27 23 34 23 47 22 62 23 82 23 107 23 139 23 174 
22 210 23 227 23 222 23 191 23 136 23 69 23 -7 23 -81 
23 -143 23 -175 24 -188 23 -181 23 -165 23 -145 24 -124 23 -101 
23 -86 24 -71 23 -58 24 -47 23 -40 23 -32 24 -27 24 -24 
23 -18 24 -17 23 -13 24 -11 24 -9 24 -8 23 -6 24 -5 
24 -5 24 -4 24 -3 24 -3 24 -2 24 -1 24 -2 24 -2 
24 0 24 1 24 -1 24 -3 24 0 24 1 25 0 24 -1 
24 1 24 0 25 0 24 -1 24 -1 25 1 24 0 25 1 
24 -1 25 0 24 0 25 0 24 -1 25 0 25 0 24 0 
25 0 25 1 24 -1 25 1 25 0 24 -1 25 0 25 1 
25 0 25 0 25 0 25 0 25 -1 25 1 25 -1 25 0 
25 0 25 1 25 -1 25 1 25 0 25 0 25 -1 25 1 
25 -1 26 0 25 2 25 -2 25 1 26 -1 25 0 25 0 
25 1 26 0 25 -1 25 1 22 -2 1709 3078 134 MP stroke
gr

c8
DD
0 sg
2329 3365 mt 
(Wavelength \(nm\)) s
 279 2438 mt  -90 rotate
(Spectral Irradiance on Target) s
90 rotate
 449 2469 mt  -90 rotate
(Surface @ 53mm \(mW/m  nm\) ) s
90 rotate
%%IncludeResource: font Helvetica
/Helvetica /ISOLatin1Encoding 96 FMSR

 389 888 mt  -90 rotate
(2) s
90 rotate
%%IncludeResource: font Helvetica
/Helvetica /ISOLatin1Encoding 120 FMSR

% 449 1065 mt  -90 rotate
%(nm\)) s
%90 rotate
gs 699 259 4167 2819 rc
SO
/c9 { 0.000000 0.500000 0.000000 sr} bdef
c9
19 0 22 0 22 0 22 -1 22 0 22 0 22 1 22 -1 
22 0 22 0 22 1 22 -1 22 1 23 0 22 -1 22 1 
23 0 22 0 22 0 23 0 22 0 23 0 22 0 23 -1 
22 0 23 1 23 0 22 0 23 -1 23 1 23 -1 23 0 
22 1 23 0 23 0 23 0 23 0 23 -1 23 1 23 0 
23 0 23 0 24 0 23 0 23 0 23 0 24 0 23 0 
23 -1 24 1 23 0 24 0 23 0 23 0 24 0 24 0 
23 0 24 0 23 0 24 1 24 0 24 0 23 0 24 0 
24 1 24 -1 24 0 24 1 24 1 24 0 24 0 24 1 
24 0 24 1 24 1 24 1 24 0 24 2 25 1 24 1 
24 2 24 1 25 2 24 3 24 2 25 3 24 3 25 4 
24 4 25 4 24 5 25 6 24 6 25 6 25 8 24 7 
25 9 25 9 24 10 25 10 25 10 24 9 25 9 25 7 
25 6 25 3 25 1 25 -2 25 -5 25 -7 25 -9 25 -11 
25 -12 25 -12 25 -13 25 -12 25 -12 25 -11 25 -10 25 -8 
25 -7 26 -6 25 -5 25 -4 25 -3 26 -2 25 -2 25 -2 
25 -1 26 -2 25 0 25 -1 26 0 25 -1 26 1 25 -1 
26 0 25 0 25 0 26 0 25 0 26 0 26 0 25 0 
26 0 25 0 26 0 25 0 26 0 26 0 25 0 26 0 
26 -1 25 0 26 0 26 0 25 1 26 0 26 0 26 0 
26 0 25 0 26 0 26 0 26 0 26 -1 25 0 26 1 
26 -1 26 0 26 0 26 1 5 0 699 3076 174 MP stroke
19 0 22 0 22 0 22 0 22 0 22 0 22 0 22 0 
22 0 22 0 22 0 22 0 22 0 23 0 22 -1 22 1 
23 0 22 0 22 -1 23 1 22 0 23 0 22 0 23 0 
22 0 23 0 23 -1 22 1 23 -1 23 2 23 -1 23 0 
22 0 23 0 23 0 23 0 23 0 23 0 23 0 23 0 
23 0 23 1 24 -1 23 1 23 -1 23 0 24 1 23 0 
23 -1 24 1 23 -1 24 1 23 0 23 1 24 0 24 0 
23 0 24 1 23 0 24 0 24 0 24 1 23 0 24 1 
24 1 24 0 24 1 24 1 24 1 24 2 24 1 24 2 
24 1 24 3 24 2 24 2 24 4 24 3 25 4 24 4 
24 5 24 5 25 7 24 7 24 8 25 9 24 11 25 12 
24 13 25 15 24 16 25 17 24 19 25 21 25 23 24 25 
25 28 25 29 24 31 25 32 25 32 24 31 25 28 25 23 
25 18 25 10 25 1 25 -7 25 -16 25 -23 25 -30 25 -35 
25 -38 25 -41 25 -40 25 -39 25 -38 25 -34 25 -30 25 -26 
25 -23 26 -18 25 -16 25 -13 25 -9 26 -8 25 -7 25 -4 
25 -5 26 -3 25 -2 25 -2 26 -2 25 0 26 -1 25 -1 
26 -1 25 0 25 -1 26 1 25 0 26 0 26 0 25 0 
26 -1 25 0 26 1 25 -1 26 0 26 0 25 0 26 0 
26 0 25 0 26 0 26 0 25 0 26 1 26 -1 26 0 
26 0 25 0 26 0 26 0 26 0 26 0 25 0 26 0 
26 0 26 -1 26 1 26 0 5 0 699 3076 174 MP stroke
19 0 22 0 22 1 22 0 22 -1 22 1 22 0 22 1 
22 -2 22 1 22 0 22 -1 22 1 23 -1 22 1 22 0 
23 0 22 0 22 0 23 0 22 0 23 -1 22 1 23 0 
22 1 23 -1 23 1 22 0 23 -1 23 0 23 0 23 -1 
22 0 23 0 23 1 23 0 23 0 23 0 23 0 23 1 
23 -1 23 0 24 0 23 1 23 0 23 0 24 0 23 0 
23 0 24 1 23 -1 24 1 23 1 23 0 24 0 24 1 
23 0 24 0 23 1 24 1 24 1 24 1 23 0 24 1 
24 2 24 1 24 1 24 2 24 2 24 2 24 3 24 3 
24 4 24 4 24 4 24 4 24 7 24 6 25 7 24 7 
24 9 24 11 25 11 24 13 24 15 25 16 24 19 25 22 
24 24 25 26 24 29 25 31 24 34 25 39 25 41 24 46 
25 49 25 53 24 55 25 57 25 56 24 53 25 48 25 40 
25 29 25 14 25 1 25 -15 25 -30 25 -43 25 -54 25 -63 
25 -68 25 -72 25 -70 25 -69 25 -66 25 -58 25 -53 25 -45 
25 -40 26 -31 25 -27 25 -23 25 -17 26 -13 25 -11 25 -9 
25 -7 26 -6 25 -4 25 -3 26 -3 25 -2 26 -2 25 -1 
26 -2 25 0 25 -1 26 1 25 0 26 -1 26 0 25 0 
26 0 25 0 26 0 25 -1 26 1 26 -2 25 2 26 -1 
26 0 25 0 26 0 26 -1 25 1 26 0 26 0 26 0 
26 1 25 -1 26 0 26 1 26 0 26 0 25 0 26 -1 
26 1 26 -2 26 0 26 0 5 1 699 3076 174 MP stroke
DA
/c10 { 0.000000 0.000000 1.000000 sr} bdef
c10
19 0 22 0 22 0 22 -1 22 1 22 0 22 0 22 0 
22 0 22 0 22 0 22 -1 22 1 23 -1 22 0 22 0 
23 1 22 0 22 0 23 0 22 0 23 0 22 0 23 0 
22 0 23 0 23 0 22 0 23 0 23 0 23 -1 23 0 
22 1 23 0 23 0 23 0 23 0 23 0 23 0 23 0 
23 0 23 0 24 0 23 0 23 0 23 0 24 0 23 -1 
23 0 24 1 23 -1 24 1 23 0 23 0 24 0 24 0 
23 0 24 0 23 0 24 0 24 0 24 0 23 0 24 0 
24 0 24 -1 24 0 24 0 24 1 24 0 24 0 24 0 
24 0 24 0 24 0 24 0 24 0 24 0 25 0 24 0 
24 0 24 0 25 0 24 0 24 0 25 0 24 0 25 0 
24 0 25 0 24 0 25 0 24 0 25 0 25 0 24 0 
25 0 25 0 24 0 25 0 25 1 24 0 25 0 25 0 
25 0 25 1 25 0 25 0 25 1 25 1 25 0 25 1 
25 1 25 1 25 2 25 2 25 2 25 3 25 3 25 4 
25 4 26 6 25 6 25 8 25 10 26 11 25 13 25 16 
25 18 26 21 25 24 25 28 26 35 25 40 26 47 25 49 
26 49 25 41 25 28 26 7 25 -14 26 -35 26 -48 25 -57 
26 -57 25 -54 26 -47 25 -39 26 -31 26 -25 25 -20 26 -15 
26 -11 25 -9 26 -7 26 -4 25 -3 26 -3 26 -2 26 -1 
26 0 25 -1 26 0 26 0 26 -1 26 0 25 0 26 0 
26 0 26 0 26 -1 26 1 5 0 699 3076 174 MP stroke
19 0 22 1 22 -1 22 -1 22 0 22 0 22 1 22 1 
22 -1 22 1 22 -1 22 0 22 0 23 0 22 -1 22 0 
23 1 22 0 22 0 23 0 22 -1 23 0 22 0 23 0 
22 1 23 0 23 1 22 -1 23 0 23 0 23 0 23 -1 
22 1 23 0 23 0 23 0 23 -1 23 0 23 0 23 1 
23 -1 23 0 24 1 23 0 23 -1 23 1 24 0 23 -1 
23 1 24 -1 23 0 24 1 23 0 23 0 24 0 24 -1 
23 0 24 0 23 0 24 0 24 0 24 1 23 0 24 -1 
24 1 24 0 24 0 24 0 24 0 24 0 24 0 24 -1 
24 1 24 0 24 0 24 0 24 0 24 0 25 0 24 0 
24 0 24 0 25 0 24 0 24 0 25 0 24 1 25 0 
24 -1 25 1 24 0 25 0 24 0 25 0 25 0 24 0 
25 1 25 0 24 0 25 0 25 0 24 1 25 1 25 0 
25 2 25 0 25 2 25 1 25 1 25 2 25 3 25 2 
25 3 25 6 25 4 25 7 25 7 25 8 25 10 25 12 
25 14 26 19 25 21 25 24 25 32 26 37 25 45 25 51 
25 58 26 68 25 79 25 93 26 110 25 131 26 148 25 158 
26 153 25 128 25 81 26 19 25 -49 26 -114 26 -154 25 -180 
26 -182 25 -169 26 -147 25 -122 26 -99 26 -79 25 -62 26 -47 
26 -38 25 -30 26 -19 26 -16 25 -11 26 -8 26 -5 26 -5 
26 -2 25 -2 26 0 26 -2 26 0 26 0 25 0 26 0 
26 0 26 -1 26 -1 26 2 5 0 699 3075 174 MP stroke
3 1 699 3077 2 MP stroke
22 2 24 0 24 0 24 -1 25 1 24 0 24 0 24 1 
25 0 24 -1 24 1 25 -2 24 1 25 0 24 1 25 1 
24 0 25 -1 24 -1 25 1 25 2 24 0 25 1 25 0 
24 0 25 0 25 2 24 1 25 1 25 0 25 2 25 2 
25 3 25 2 25 3 25 3 25 3 25 5 25 8 25 9 
25 7 25 13 25 12 25 16 25 19 25 21 25 26 26 33 
25 39 25 46 25 57 26 69 25 81 25 92 25 108 26 123 
25 143 25 170 26 199 25 236 26 265 25 280 26 265 25 218 
25 132 26 19 25 -100 26 -207 26 -277 25 -320 26 -317 25 -293 
26 -255 25 -213 26 -172 26 -140 25 -108 26 -85 26 -65 25 -51 
26 -41 26 -27 25 -20 26 -15 26 -9 26 -9 26 -1 25 -5 
26 -4 26 0 26 -1 26 0 25 1 26 -2 26 0 26 0 
26 -2 14 -1 716 3078 99 MP stroke
21 2 24 -1 23 0 24 0 24 0 24 0 24 0 24 0 
24 0 24 1 24 0 24 0 24 0 22 -2 3170 3078 15 MP stroke
22 1 24 0 23 2 23 0 23 -2 24 0 23 1 23 -1 
24 1 23 0 24 0 23 0 23 1 24 0 24 -2 23 1 
24 0 23 -1 20 -1 3507 3078 20 MP stroke
16 3 23 -1 23 -1 22 1 23 0 23 1 23 -2 23 1 
23 0 23 0 23 -1 21 -1 3950 3078 13 MP stroke
2 1 22 0 22 0 23 0 22 1 23 0 22 1 23 -1 
22 0 23 1 23 1 22 -2 14 -2 4232 3078 14 MP stroke
19 3 22 -2 22 1 22 0 22 -1 22 3 22 -3 23 0 
22 0 6 -1 4532 3078 11 MP stroke
4 1 22 3 22 -2 22 -1 6 -1 4753 3078 6 MP stroke
6 -1 4860 3078 2 MP stroke
gr

c10
DA
0 sg
 663 3139 mt 
( ) s
4830  320 mt 
( ) s
SO
3382  504 mt 
(Red) s
gs 2897 366 840 493 rc
DD
c8
372 0 2971 462 2 MP stroke
SO
gr

c8
0 sg
3382  655 mt 
(Green) s
gs 2897 366 840 493 rc
c9
372 0 2971 612 2 MP stroke
gr

c9
0 sg
3382  805 mt 
(Blue) s
gs 2897 366 840 493 rc
DA
c10
372 0 2971 762 2 MP stroke
SO
gr

c10

end %%Color Dict

eplot
%%EndObject

epage
end

showpage

%%Trailer
%%EOF
