%!PS-Adobe-3.0 EPSF-3.0
%%Creator: MATLAB, The MathWorks, Inc. Version 8.3.0.532 (R2014a). Operating System: Linux 4.10.13-200.fc25.x86_64 #1 SMP Thu Apr 27 20:39:25 UTC 2017 x86_64.
%%Title: /home/mcanziani/item/Martin/2017-05-08/uniformity.eps
%%CreationDate: 05/10/2017  10:30:24
%%DocumentNeededFonts: Helvetica
%%DocumentProcessColors: Cyan Magenta Yellow Black
%%LanguageLevel: 2
%%Pages: 1
%%BoundingBox:   -12   290   608   552
%%EndComments

%%BeginProlog
% MathWorks dictionary
/MathWorks 160 dict begin
% definition operators
/bdef {bind def} bind def
/ldef {load def} bind def
/xdef {exch def} bdef
/xstore {exch store} bdef
% operator abbreviations
/c  /clip ldef
/cc /concat ldef
/cp /closepath ldef
/gr /grestore ldef
/gs /gsave ldef
/mt /moveto ldef
/np /newpath ldef
/cm /currentmatrix ldef
/sm /setmatrix ldef
/rm /rmoveto ldef
/rl /rlineto ldef
/s {show newpath} bdef
/sc {setcmykcolor} bdef
/sr /setrgbcolor ldef
/sg /setgray ldef
/w /setlinewidth ldef
/j /setlinejoin ldef
/cap /setlinecap ldef
/rc {rectclip} bdef
/rf {rectfill} bdef
% page state control
/pgsv () def
/bpage {/pgsv save def} bdef
/epage {pgsv restore} bdef
/bplot /gsave ldef
/eplot {stroke grestore} bdef
% orientation switch
/portraitMode 0 def /landscapeMode 1 def /rotateMode 2 def
% coordinate system mappings
/dpi2point 0 def
% font control
/FontSize 0 def
/FMS {/FontSize xstore findfont [180 0 0 180 neg 0 0]
  makefont setfont} bdef
/reencode {exch dup where {pop load} {pop StandardEncoding} ifelse
  exch dup 3 1 roll findfont dup length dict begin
  { 1 index /FID ne {def}{pop pop} ifelse } forall
  /Encoding exch def currentdict end definefont pop} bdef
/isroman {findfont /CharStrings get /Agrave known} bdef
/FMSR {3 1 roll 1 index dup isroman {reencode} {pop pop} ifelse
  exch FMS} bdef
/csm {1 dpi2point div -1 dpi2point div scale neg translate
 dup landscapeMode eq {pop -90 rotate}
  {rotateMode eq {90 rotate} if} ifelse} bdef
% line types: solid, dotted, dashed, dotdash
/SO { [] 0 setdash } bdef
/DO { [.5 dpi2point mul 4 dpi2point mul] 0 setdash } bdef
/DA { [6 dpi2point mul] 0 setdash } bdef
/DD { [.5 dpi2point mul 4 dpi2point mul 6 dpi2point mul 4
  dpi2point mul] 0 setdash } bdef
% macros for lines and objects
/L {lineto stroke} bdef
/MP {3 1 roll moveto 1 sub {rlineto} repeat} bdef
/AP {{rlineto} repeat} bdef
/PDlw -1 def
/W {/PDlw currentlinewidth def setlinewidth} def
/PP {closepath eofill} bdef
/DP {closepath stroke} bdef
/MR {4 -2 roll moveto dup  0 exch rlineto exch 0 rlineto
  neg 0 exch rlineto closepath} bdef
/FR {MR stroke} bdef
/PR {MR fill} bdef
/L1i {{currentfile picstr readhexstring pop} image} bdef
/tMatrix matrix def
/MakeOval {newpath tMatrix currentmatrix pop translate scale
0 0 1 0 360 arc tMatrix setmatrix} bdef
/FO {MakeOval stroke} bdef
/PO {MakeOval fill} bdef
/PD {currentlinewidth 2 div 0 360 arc fill
   PDlw -1 eq not {PDlw w /PDlw -1 def} if} def
/FA {newpath tMatrix currentmatrix pop translate scale
  0 0 1 5 -2 roll arc tMatrix setmatrix stroke} bdef
/PA {newpath tMatrix currentmatrix pop	translate 0 0 moveto scale
  0 0 1 5 -2 roll arc closepath tMatrix setmatrix fill} bdef
/FAn {newpath tMatrix currentmatrix pop translate scale
  0 0 1 5 -2 roll arcn tMatrix setmatrix stroke} bdef
/PAn {newpath tMatrix currentmatrix pop translate 0 0 moveto scale
  0 0 1 5 -2 roll arcn closepath tMatrix setmatrix fill} bdef
/vradius 0 def /hradius 0 def /lry 0 def
/lrx 0 def /uly 0 def /ulx 0 def /rad 0 def
/MRR {/vradius xdef /hradius xdef /lry xdef /lrx xdef /uly xdef
  /ulx xdef newpath tMatrix currentmatrix pop ulx hradius add uly
  vradius add translate hradius vradius scale 0 0 1 180 270 arc 
  tMatrix setmatrix lrx hradius sub uly vradius add translate
  hradius vradius scale 0 0 1 270 360 arc tMatrix setmatrix
  lrx hradius sub lry vradius sub translate hradius vradius scale
  0 0 1 0 90 arc tMatrix setmatrix ulx hradius add lry vradius sub
  translate hradius vradius scale 0 0 1 90 180 arc tMatrix setmatrix
  closepath} bdef
/FRR {MRR stroke } bdef
/PRR {MRR fill } bdef
/MlrRR {/lry xdef /lrx xdef /uly xdef /ulx xdef /rad lry uly sub 2 div def
  newpath tMatrix currentmatrix pop ulx rad add uly rad add translate
  rad rad scale 0 0 1 90 270 arc tMatrix setmatrix lrx rad sub lry rad
  sub translate rad rad scale 0 0 1 270 90 arc tMatrix setmatrix
  closepath} bdef
/FlrRR {MlrRR stroke } bdef
/PlrRR {MlrRR fill } bdef
/MtbRR {/lry xdef /lrx xdef /uly xdef /ulx xdef /rad lrx ulx sub 2 div def
  newpath tMatrix currentmatrix pop ulx rad add uly rad add translate
  rad rad scale 0 0 1 180 360 arc tMatrix setmatrix lrx rad sub lry rad
  sub translate rad rad scale 0 0 1 0 180 arc tMatrix setmatrix
  closepath} bdef
/FtbRR {MtbRR stroke } bdef
/PtbRR {MtbRR fill } bdef
/stri 6 array def /dtri 6 array def
/smat 6 array def /dmat 6 array def
/tmat1 6 array def /tmat2 6 array def /dif 3 array def
/asub {/ind2 exch def /ind1 exch def dup dup
  ind1 get exch ind2 get sub exch } bdef
/tri_to_matrix {
  2 0 asub 3 1 asub 4 0 asub 5 1 asub
  dup 0 get exch 1 get 7 -1 roll astore } bdef
/compute_transform {
  dmat dtri tri_to_matrix tmat1 invertmatrix 
  smat stri tri_to_matrix tmat2 concatmatrix } bdef
/ds {stri astore pop} bdef
/dt {dtri astore pop} bdef
/db {2 copy /cols xdef /rows xdef mul dup 3 mul string
  currentfile 
  3 index 0 eq {/ASCIIHexDecode filter}
  {/ASCII85Decode filter 3 index 2 eq {/RunLengthDecode filter} if }
  ifelse exch readstring pop
  dup 0 3 index getinterval /rbmap xdef
  dup 2 index dup getinterval /gbmap xdef
  1 index dup 2 mul exch getinterval /bbmap xdef pop pop}bdef
/it {gs np dtri aload pop moveto lineto lineto cp c
  cols rows 8 compute_transform 
  rbmap gbmap bbmap true 3 colorimage gr}bdef
/il {newpath moveto lineto stroke}bdef
currentdict end def
%%EndProlog

%%BeginSetup
MathWorks begin

0 cap

end
%%EndSetup

%%Page: 1 1
%%BeginPageSetup
%%PageBoundingBox:   -12   290   608   552
MathWorks begin
bpage
%%EndPageSetup

%%BeginObject: obj1
bplot

/dpi2point 12 def
portraitMode -0144 6624 csm

    0     0  7449  3140 rc
85 dict begin %Colortable dictionary
/c0 { 0.000000 0.000000 0.000000 sr} bdef
/c1 { 1.000000 1.000000 1.000000 sr} bdef
/c2 { 0.900000 0.000000 0.000000 sr} bdef
/c3 { 0.000000 0.820000 0.000000 sr} bdef
/c4 { 0.000000 0.000000 0.800000 sr} bdef
/c5 { 0.910000 0.820000 0.320000 sr} bdef
/c6 { 1.000000 0.260000 0.820000 sr} bdef
/c7 { 0.000000 0.820000 0.820000 sr} bdef
c0
1 j
1 sg
   0    0 7450 3141 rf
6 w
0 2559 2493 0 0 -2559 968 2795 4 MP
PP
-2493 0 0 2559 2493 0 0 -2559 968 2795 5 MP stroke
4 w
DO
0 sg
1324 2795 mt 1324  236 L
1324  236 mt 1324  236 L
1680 2795 mt 1680  236 L
1680  236 mt 1680  236 L
2036 2795 mt 2036  236 L
2036  236 mt 2036  236 L
2392 2795 mt 2392  236 L
2392  236 mt 2392  236 L
2748 2795 mt 2748  236 L
2748  236 mt 2748  236 L
3104 2795 mt 3104  236 L
3104  236 mt 3104  236 L
 968 2429 mt 3461 2429 L
3461 2429 mt 3461 2429 L
 968 2063 mt 3461 2063 L
3461 2063 mt 3461 2063 L
 968 1698 mt 3461 1698 L
3461 1698 mt 3461 1698 L
 968 1332 mt 3461 1332 L
3461 1332 mt 3461 1332 L
 968  967 mt 3461  967 L
3461  967 mt 3461  967 L
 968  601 mt 3461  601 L
3461  601 mt 3461  601 L
SO
6 w
 968 2795 mt 3461 2795 L
 968 2795 mt  968  236 L
1324 2795 mt 1324 2769 L
%%IncludeResource: font Helvetica
/Helvetica /ISOLatin1Encoding 120 FMSR

1291 2940 mt 
(0) s
1680 2795 mt 1680 2769 L
1647 2940 mt 
(1) s
2036 2795 mt 2036 2769 L
2003 2940 mt 
(2) s
2392 2795 mt 2392 2769 L
2359 2940 mt 
(3) s
2748 2795 mt 2748 2769 L
2715 2940 mt 
(4) s
3104 2795 mt 3104 2769 L
3071 2940 mt 
(5) s
 968 2429 mt  993 2429 L
 867 2473 mt 
(0) s
 968 2063 mt  993 2063 L
 867 2107 mt 
(1) s
 968 1698 mt  993 1698 L
 867 1742 mt 
(2) s
 968 1332 mt  993 1332 L
 867 1376 mt 
(3) s
 968  967 mt  993  967 L
 867 1011 mt 
(4) s
 968  601 mt  993  601 L
 867  645 mt 
(5) s
gs 968 236 2494 2560 rc
0.666667 sg
356 0 0 -366 2748 967 3 MP
PP
0 -366 356 0 2748 967 3 MP
PP
36 w
0 j
0 sg
 178  183 3104  601 FO
1 j
0 j
 178  183 3104  601 FO
1 j
0.47619 sg
356 0 0 -366 2748 2429 3 MP
PP
0 -366 356 0 2748 2429 3 MP
PP
0 j
0 sg
 178  183 3104 2429 FO
1 j
0 j
 178  183 3104 2429 FO
1 j
0.666667 sg
0 -365 356 0 2748 2063 3 MP
PP
356 0 0 -365 2748 2063 3 MP
PP
0.793651 sg
0 -366 356 0 2748 1698 3 MP
PP
356 0 0 -366 2748 1698 3 MP
PP
0.777778 sg
0 -365 356 0 2748 1332 3 MP
PP
356 0 0 -365 2748 1332 3 MP
PP
0.555556 sg
0 -366 356 0 2392 2429 3 MP
PP
356 0 0 -366 2392 2429 3 MP
PP
0.777778 sg
0 -365 356 0 2392 2063 3 MP
PP
356 0 0 -365 2392 2063 3 MP
PP
0.952381 sg
0 -366 356 0 2392 1698 3 MP
PP
356 0 0 -366 2392 1698 3 MP
PP
0.936508 sg
0 -365 356 0 2392 1332 3 MP
PP
356 0 0 -365 2392 1332 3 MP
PP
0.809524 sg
0 -366 356 0 2392 967 3 MP
PP
356 0 0 -366 2392 967 3 MP
PP
0.666667 sg
0 -366 356 0 2036 2429 3 MP
PP
356 0 0 -366 2036 2429 3 MP
PP
0.873016 sg
0 -365 356 0 2036 2063 3 MP
PP
356 0 0 -365 2036 2063 3 MP
PP
1 sg
0 -366 356 0 2036 1698 3 MP
PP
356 0 0 -366 2036 1698 3 MP
PP
0.968254 sg
0 -365 356 0 2036 1332 3 MP
PP
356 0 0 -365 2036 1332 3 MP
PP
0.809524 sg
0 -366 356 0 2036 967 3 MP
PP
356 0 0 -366 2036 967 3 MP
PP
gr

36 w
0.809524 sg
0 sg
1105 3083 mt 
(Intensity 18%, uniformity=67%) s
gs 968 236 2494 2560 rc
0.650794 sg
0 -366 356 0 1680 2429 3 MP
PP
356 0 0 -366 1680 2429 3 MP
PP
0.857143 sg
0 -365 356 0 1680 2063 3 MP
PP
356 0 0 -365 1680 2063 3 MP
PP
0.968254 sg
0 -366 356 0 1680 1698 3 MP
PP
356 0 0 -366 1680 1698 3 MP
PP
0.952381 sg
0 -365 356 0 1680 1332 3 MP
PP
356 0 0 -365 1680 1332 3 MP
PP
0.809524 sg
0 -366 356 0 1680 967 3 MP
PP
356 0 0 -366 1680 967 3 MP
PP
0.396825 sg
0 -366 356 0 1324 2429 3 MP
PP
356 0 0 -366 1324 2429 3 MP
PP
0.603175 sg
0 -365 356 0 1324 2063 3 MP
PP
356 0 0 -365 1324 2063 3 MP
PP
0.714286 sg
0 -366 356 0 1324 1698 3 MP
PP
356 0 0 -366 1324 1698 3 MP
PP
0.698413 sg
0 -365 356 0 1324 1332 3 MP
PP
356 0 0 -365 1324 1332 3 MP
PP
0.555556 sg
0 -366 356 0 1324 967 3 MP
PP
356 0 0 -366 1324 967 3 MP
PP
0 j
0 sg
 178  183 1324 2429 FO
1 j
0 j
 178  183 1324 2429 FO
1 j
0 j
 178  183 1324  601 FO
1 j
0 j
 178  183 1324  601 FO
1 j
6 w
gr

6 w
1 sg
0 2559 2493 0 0 -2559 4248 2795 4 MP
PP
-2493 0 0 2559 2493 0 0 -2559 4248 2795 5 MP stroke
4 w
DO
0 sg
4604 2795 mt 4604  236 L
4604  236 mt 4604  236 L
4960 2795 mt 4960  236 L
4960  236 mt 4960  236 L
5316 2795 mt 5316  236 L
5316  236 mt 5316  236 L
5672 2795 mt 5672  236 L
5672  236 mt 5672  236 L
6028 2795 mt 6028  236 L
6028  236 mt 6028  236 L
6384 2795 mt 6384  236 L
6384  236 mt 6384  236 L
4248 2429 mt 6741 2429 L
6741 2429 mt 6741 2429 L
4248 2063 mt 6741 2063 L
6741 2063 mt 6741 2063 L
4248 1698 mt 6741 1698 L
6741 1698 mt 6741 1698 L
4248 1332 mt 6741 1332 L
6741 1332 mt 6741 1332 L
4248  967 mt 6741  967 L
6741  967 mt 6741  967 L
4248  601 mt 6741  601 L
6741  601 mt 6741  601 L
SO
6 w
4248 2795 mt 6741 2795 L
4248 2795 mt 4248  236 L
4604 2795 mt 4604 2769 L
4571 2940 mt 
(0) s
4960 2795 mt 4960 2769 L
4927 2940 mt 
(1) s
5316 2795 mt 5316 2769 L
5283 2940 mt 
(2) s
5672 2795 mt 5672 2769 L
5639 2940 mt 
(3) s
6028 2795 mt 6028 2769 L
5995 2940 mt 
(4) s
6384 2795 mt 6384 2769 L
6351 2940 mt 
(5) s
4248 2429 mt 4273 2429 L
4147 2473 mt 
(0) s
4248 2063 mt 4273 2063 L
4147 2107 mt 
(1) s
4248 1698 mt 4273 1698 L
4147 1742 mt 
(2) s
4248 1332 mt 4273 1332 L
4147 1376 mt 
(3) s
4248  967 mt 4273  967 L
4147 1011 mt 
(4) s
4248  601 mt 4273  601 L
4147  645 mt 
(5) s
gs 4248 236 2494 2560 rc
0.666667 sg
356 0 0 -366 6028 967 3 MP
PP
0 -366 356 0 6028 967 3 MP
PP
36 w
0 j
0 sg
 178  183 6384  601 FO
1 j
0 j
 178  183 6384  601 FO
1 j
0.238095 sg
356 0 0 -366 6028 2429 3 MP
PP
0 -366 356 0 6028 2429 3 MP
PP
0 j
0 sg
 178  183 6384 2429 FO
1 j
0 j
 178  183 6384 2429 FO
1 j
0.555556 sg
0 -365 356 0 6028 2063 3 MP
PP
356 0 0 -365 6028 2063 3 MP
PP
0.714286 sg
0 -366 356 0 6028 1698 3 MP
PP
356 0 0 -366 6028 1698 3 MP
PP
0.746032 sg
0 -365 356 0 6028 1332 3 MP
PP
356 0 0 -365 6028 1332 3 MP
PP
0.460317 sg
0 -366 356 0 5672 2429 3 MP
PP
356 0 0 -366 5672 2429 3 MP
PP
0.777778 sg
0 -365 356 0 5672 2063 3 MP
PP
356 0 0 -365 5672 2063 3 MP
PP
0.936508 sg
0 -366 356 0 5672 1698 3 MP
PP
356 0 0 -366 5672 1698 3 MP
PP
0.952381 sg
0 -365 356 0 5672 1332 3 MP
PP
356 0 0 -365 5672 1332 3 MP
PP
0.793651 sg
0 -366 356 0 5672 967 3 MP
PP
356 0 0 -366 5672 967 3 MP
PP
0.555556 sg
0 -366 356 0 5316 2429 3 MP
PP
356 0 0 -366 5316 2429 3 MP
PP
0.825397 sg
0 -365 356 0 5316 2063 3 MP
PP
356 0 0 -365 5316 2063 3 MP
PP
1 sg
0 -366 356 0 5316 1698 3 MP
PP
356 0 0 -366 5316 1698 3 MP
PP
0 -365 356 0 5316 1332 3 MP
PP
356 0 0 -365 5316 1332 3 MP
PP
0.825397 sg
0 -366 356 0 5316 967 3 MP
PP
356 0 0 -366 5316 967 3 MP
PP
gr

36 w
0.825397 sg
0 sg
4251 3083 mt 
(Intensity 100%, uniformity=77%) s
gs 4248 236 2494 2560 rc
0.492063 sg
0 -366 356 0 4960 2429 3 MP
PP
356 0 0 -366 4960 2429 3 MP
PP
0.730159 sg
0 -365 356 0 4960 2063 3 MP
PP
356 0 0 -365 4960 2063 3 MP
PP
0.904762 sg
0 -366 356 0 4960 1698 3 MP
PP
356 0 0 -366 4960 1698 3 MP
PP
0.793651 sg
0 -365 356 0 4960 1332 3 MP
PP
356 0 0 -365 4960 1332 3 MP
PP
0.650794 sg
0 -366 356 0 4960 967 3 MP
PP
356 0 0 -366 4960 967 3 MP
PP
0.349206 sg
0 -366 356 0 4604 2429 3 MP
PP
356 0 0 -366 4604 2429 3 MP
PP
0.539683 sg
0 -365 356 0 4604 2063 3 MP
PP
356 0 0 -365 4604 2063 3 MP
PP
0.68254 sg
0 -366 356 0 4604 1698 3 MP
PP
356 0 0 -366 4604 1698 3 MP
PP
0.634921 sg
0 -365 356 0 4604 1332 3 MP
PP
356 0 0 -365 4604 1332 3 MP
PP
0.47619 sg
0 -366 356 0 4604 967 3 MP
PP
356 0 0 -366 4604 967 3 MP
PP
0 j
0 sg
 178  183 4604 2429 FO
1 j
0 j
 178  183 4604 2429 FO
1 j
0 j
 178  183 4604  601 FO
1 j
0 j
 178  183 4604  601 FO
1 j
6 w
gr

6 w

end %%Color Dict

eplot
%%EndObject

epage
end

showpage

%%Trailer
%%EOF
